<svg width="68" height="52" viewBox="0 0 68 52" fill="none" xmlns="http://www.w3.org/2000/svg">
<path d="M31.9 49.6998C27.8 49.6998 24.5 46.3998 24.5 42.2998V11.6998C24.5 7.5998 27.8 4.2998 31.9 4.2998H57.7C61.8 4.2998 65.1 7.5998 65.1 11.6998V42.2998C65.1 46.3998 61.8 49.6998 57.7 49.6998H31.9Z" fill="#F3BC00"/>
<path d="M57.7 6.2998C60.7 6.2998 63.1 8.6998 63.1 11.6998V42.2998C63.1 45.2998 60.7 47.6998 57.7 47.6998H31.9C28.9 47.6998 26.5 45.2998 26.5 42.2998V11.6998C26.5 8.6998 28.9 6.2998 31.9 6.2998H57.7ZM57.7 2.2998H31.9C26.7 2.2998 22.5 6.4998 22.5 11.6998V42.2998C22.5 47.4998 26.7 51.6998 31.9 51.6998H57.7C62.9 51.6998 67.1 47.4998 67.1 42.2998V11.6998C67.1 6.4998 62.9 2.2998 57.7 2.2998Z" fill="#EC7A01"/>
<path d="M9.8 49.7C5.5 49.7 2 46.2 2 41.9V7.4C2 4.4 4.4 2 7.4 2H24.6C27.6 2 30 4.4 30 7.4V9C30 10.1 30.9 11 32 11H46.8C51.1 11 54.6 14.5 54.6 18.8V41.8C54.6 46.1 51.1 49.6 46.8 49.6H9.8V49.7Z" fill="white"/>
<path d="M24.6 4C26.5 4 28 5.5 28 7.4V9C28 11.2 29.8 13 32 13H46.8C50 13 52.6 15.6 52.6 18.8V41.8C52.6 45 50 47.6 46.8 47.6H9.8C6.6 47.6 4 45 4 41.8V7.4C4 5.5 5.5 4 7.4 4H24.6ZM24.6 0H7.4C3.3 0 0 3.3 0 7.4V41.8C0 47.2 4.4 51.6 9.8 51.6H46.7C52.1 51.6 56.5 47.2 56.5 41.8V18.8C56.5 13.4 52.1 9 46.7 9H32V7.4C32 3.3 28.7 0 24.6 0Z" fill="#EC7A01"/>
</svg>
