<svg width="452" height="402" viewBox="0 0 452 402" fill="none" xmlns="http://www.w3.org/2000/svg">
<path d="M370.199 326.805H101.451V402H370.199V326.805Z" fill="url(#paint0_linear)"/>
<path d="M157.262 297.845C132.702 294.959 108.003 289.002 86.2834 275.988C64.5636 262.975 46.0513 242.217 38.8114 216.831C31.5715 191.446 37.2993 161.478 55.9032 144.524C79.0435 123.445 113.364 126.79 143.516 121.246C182.373 114.143 216.465 91.049 251.336 71.7577C286.207 52.4665 325.431 36.2912 364.425 44.4476C395.814 51.0002 424.086 74.0489 438.52 104.796C452.954 135.543 453.138 173.209 439.07 203.497C418.771 247.212 373.957 270.673 330.517 285.932C298.533 297.204 265.632 305.635 232.274 311.226C219.993 313.288 207.484 314.937 195.157 313.013C182.785 311.088 170.459 305.085 162.807 294.409L157.262 297.845Z" fill="#F2F5FF"/>
<path d="M200.243 260.088C178.615 251.656 163.631 242.721 154.925 236.764C149.289 232.915 146.448 226.088 147.593 219.352L158.728 154.421C159.874 147.731 164.318 142.049 170.55 139.392C188.421 131.739 205.834 127.34 221.184 125.232C221.184 125.232 229.799 124.545 240.75 125.599C247.99 126.332 264.486 131.189 275.025 134.443C280.982 136.276 285.748 140.72 287.993 146.54C292.392 157.904 299.54 177.058 301.832 187.413C309.713 223.201 308.43 220.543 308.43 220.543L316.586 275.576L230.074 280.433L207.987 270.352L200.243 260.088Z" fill="#F07FAC"/>
<path d="M253.718 63.3264C253.718 63.3264 246.065 47.6093 225.72 54.8034C211.011 51.5959 199.739 69.0542 210.599 92.7902L231.036 97.5557L253.718 63.3264Z" fill="#132352"/>
<path d="M242.858 107.729V135.497C242.858 142.004 237.589 147.273 231.082 147.273C222.284 147.273 215.136 140.125 215.136 131.327V107.729H242.858Z" fill="#F9D1B6"/>
<path d="M242.859 119.23V134.397C230.486 134.443 222.33 118.497 222.33 118.497L242.859 119.23Z" fill="#E6B391"/>
<path d="M255.092 104.246C254.359 108.095 253.305 112.036 251.747 115.472C249.09 121.567 245.011 126.195 238.779 126.332C224.208 126.653 212.981 106.766 212.981 106.766L215.318 79.6393L226.362 67.2214L256.788 86.0086C256.834 86.0086 256.925 94.8523 255.092 104.246Z" fill="#F9D1B6"/>
<path d="M214.861 98.7929C214.861 98.7929 217.885 86.6042 228.332 78.6311C228.332 78.6311 243.545 98.518 259.629 88.8953C275.713 79.2726 268.748 60.3938 253.718 63.3264L236.489 61.4019L214.861 68.2752L211.195 85.2295L214.861 98.7929Z" fill="#132352"/>
<path d="M230.119 239.559C215.456 207.896 196.99 223.018 192.453 211.379C186.13 195.066 187.321 176.645 187.275 171.055L178.432 220.772C178.432 220.772 198.135 222.651 205.421 234.519L230.119 239.559Z" fill="#CC5483"/>
<path d="M187.734 170.184C187.184 174.446 186.543 178.661 185.855 182.923C185.214 187.138 184.435 191.354 183.747 195.616C183.014 199.831 182.235 204.047 181.411 208.263L180.128 214.586C179.669 216.694 179.257 218.802 178.753 220.864L178.111 220.772C178.386 218.664 178.707 216.511 178.982 214.403L179.944 208.033C180.632 203.818 181.319 199.556 182.098 195.341C182.877 191.125 183.61 186.909 184.435 182.694C185.26 178.478 186.084 174.308 187.047 170.093L187.734 170.184Z" fill="#C95284"/>
<path d="M273.421 162.349C274.613 167.893 275.667 173.392 276.721 178.936C277.82 184.481 278.783 190.025 279.791 195.57C280.753 201.114 281.715 206.705 282.678 212.249L284.052 220.589C284.465 223.384 284.923 226.179 285.289 228.974L284.694 229.066C284.098 226.317 283.548 223.522 282.952 220.772L281.349 212.478C280.295 206.934 279.287 201.389 278.279 195.845C277.316 190.3 276.308 184.71 275.438 179.165C274.521 173.575 273.605 168.031 272.826 162.44L273.421 162.349Z" fill="#C95284"/>
<path d="M277.5 187.963C278.554 198.044 276.996 250.236 252.71 251.015L252.985 262.379L291.247 260.042L277.5 187.963Z" fill="#CC5483"/>
<path d="M164.089 223.522C166.564 222.559 169.13 221.78 171.65 221.093C172.933 220.726 174.216 220.406 175.545 220.177C176.186 220.039 176.874 219.947 177.515 219.856C177.836 219.81 178.203 219.764 178.523 219.764C178.89 219.764 179.257 219.764 179.623 219.764C182.418 220.039 184.939 220.91 187.459 221.872C189.933 222.834 192.408 223.888 194.79 225.034C197.173 226.179 199.556 227.417 201.847 228.745C204.138 230.074 206.429 231.449 208.629 232.961C212.982 235.985 217.198 239.285 220.817 243.179L220.359 243.638C218.389 241.896 216.373 240.201 214.265 238.643C212.157 237.039 210.003 235.573 207.804 234.152C203.405 231.266 198.777 228.745 194.103 226.408C191.766 225.263 189.337 224.163 186.909 223.201C184.48 222.284 182.006 221.322 179.531 221.001C179.211 220.956 178.936 220.956 178.661 220.956C178.34 220.956 178.019 221.001 177.699 221.047C177.057 221.139 176.416 221.23 175.774 221.322C174.491 221.551 173.208 221.826 171.925 222.101C169.359 222.697 166.793 223.384 164.318 224.117L164.089 223.522Z" fill="#C95284"/>
<path d="M217.152 99.6178C217.152 99.6178 214.311 90.1784 208.079 92.5611C201.847 94.8981 205.146 107.178 217.518 110.569L217.152 99.6178Z" fill="#F9D1B6"/>
<path d="M210.508 151.535C213.578 153.688 216.877 155.567 220.36 156.896C223.842 158.225 227.508 159.049 231.219 158.958C234.885 158.912 238.551 157.995 241.85 156.346L243.087 155.704C243.5 155.475 243.866 155.2 244.279 154.971C245.058 154.467 245.837 153.963 246.524 153.322L247.624 152.451L248.174 151.993C248.357 151.855 248.494 151.672 248.678 151.489C249.319 150.801 250.007 150.16 250.694 149.518L251.152 149.931C250.556 150.664 249.915 151.397 249.273 152.13C249.136 152.313 248.953 152.497 248.815 152.68L248.311 153.184L247.257 154.192C246.57 154.88 245.791 155.429 244.966 156.025C244.554 156.3 244.187 156.621 243.775 156.85L242.492 157.583C239.101 159.508 235.16 160.516 231.265 160.562C227.37 160.562 223.475 159.737 219.901 158.179C216.327 156.667 213.074 154.559 210.141 152.084L210.508 151.535Z" fill="#C95284"/>
<path d="M214.357 100.947C214.219 100.122 213.807 99.2969 213.349 98.6096C212.89 97.8764 212.295 97.2349 211.653 96.7767C211.012 96.3185 210.278 96.0893 209.683 96.4101C209.041 96.7309 208.537 97.5098 208.125 98.2888L207.712 98.1513C207.896 97.2349 208.216 96.2268 209.179 95.5395C209.637 95.2187 210.324 95.0812 210.874 95.1729C211.424 95.2645 211.928 95.5395 212.34 95.8144C213.165 96.4101 213.807 97.2349 214.219 98.1055C214.632 98.9762 214.952 99.9384 214.815 100.947H214.357Z" fill="#D6A07E"/>
<path d="M251.244 100.718C250.969 102.047 249.961 102.963 248.998 102.78C248.036 102.596 247.44 101.359 247.715 99.9845C247.99 98.6557 248.998 97.7392 249.961 97.9225C250.923 98.1058 251.518 99.3888 251.244 100.718Z" fill="#0E1A3D"/>
<path d="M236.125 100.129C236.344 98.7799 235.733 97.5577 234.759 97.3989C233.785 97.2401 232.817 98.2048 232.597 99.5536C232.377 100.902 232.988 102.125 233.963 102.283C234.937 102.442 235.905 101.478 236.125 100.129Z" fill="#0E1A3D"/>
<path d="M242.537 101.955C242.629 103.054 242.675 104.154 242.675 105.208C242.721 105.62 242.904 105.987 243.271 106.353C243.591 106.72 244.05 107.132 244.416 107.636C244.599 107.911 244.737 108.232 244.829 108.599C244.92 108.92 244.92 109.24 244.874 109.607C244.829 110.248 244.599 110.89 244.141 111.394C243.912 111.669 243.637 111.852 243.362 112.035C243.041 112.173 242.721 112.265 242.354 112.265C241.713 112.219 241.117 111.99 240.659 111.669L240.888 111.256C241.392 111.44 241.896 111.531 242.354 111.44C242.812 111.394 243.133 111.165 243.362 110.798C243.82 110.111 243.912 108.965 243.454 108.324C243.225 107.957 242.812 107.591 242.446 107.087C242.079 106.628 241.713 105.941 241.713 105.254C241.804 104.108 241.942 103.008 242.125 101.909L242.537 101.955Z" fill="#D6A07E"/>
<path d="M230.028 95.4478C230.624 94.8521 231.402 94.3022 232.227 93.9356C233.052 93.5691 233.969 93.3399 234.931 93.4316C235.893 93.4774 236.81 93.844 237.543 94.3939C238.276 94.9437 238.872 95.6311 239.284 96.41L238.917 96.685C238.276 96.1351 237.68 95.6311 236.993 95.2645C236.306 94.8979 235.618 94.6688 234.839 94.623C233.327 94.4855 231.815 95.127 230.303 95.8602L230.028 95.4478Z" fill="#0E1A3D"/>
<path d="M245.791 96.7767C246.065 95.9519 246.753 95.3104 247.486 94.898C248.265 94.4856 249.09 94.3481 249.96 94.3481C250.831 94.3481 251.656 94.5773 252.389 95.0355C253.122 95.4479 253.764 96.1352 254.084 96.8684L253.718 97.0975C252.664 96.0436 251.335 95.5395 249.96 95.4937C248.586 95.4479 247.119 95.8603 246.249 96.96L245.791 96.7767Z" fill="#0E1A3D"/>
<path d="M235.206 114.968L245.47 115.701C245.516 115.701 239.788 123.308 235.206 114.968Z" fill="white"/>
<path d="M451.396 245.241H20.0698V262.517H451.396V245.241Z" fill="#6092AB"/>
<path d="M377.347 313.562H94.3481V330.838H377.347V313.562Z" fill="#6092AB"/>
<path d="M417.304 262.516C417.304 262.516 371.207 282.678 371.207 316.633H100.259C100.259 282.678 54.1616 262.516 54.1616 262.516H417.304Z" fill="#BCDEEE" stroke="#6092AB" stroke-width="10" stroke-miterlimit="10"/>
<path d="M138.151 172.969L135.27 171.908L113.634 230.695L116.516 231.756L138.151 172.969Z" fill="#1F8867"/>
<path d="M273.88 233.19H228.47V245.012H273.88V233.19Z" fill="#A8882D"/>
<path d="M387.428 233.19H273.88V245.012H387.428V233.19Z" fill="#D4B04D"/>
<path d="M273.88 230.762H387.428L438.291 148.327H322.956L273.88 230.762Z" fill="#EEC657"/>
<path opacity="0.5" d="M129.54 245.516H101.359L94.3481 193.187H136.505L129.54 245.516Z" fill="#3A71FF"/>
<path d="M362.867 197.724C368.334 197.724 372.765 193.969 372.765 189.338C372.765 184.707 368.334 180.953 362.867 180.953C357.401 180.953 352.97 184.707 352.97 189.338C352.97 193.969 357.401 197.724 362.867 197.724Z" fill="#EED68F"/>
<path d="M387.52 271.956C367.816 280.341 360.393 306.414 360.393 306.414H262.287C259.08 306.414 256.422 303.803 256.422 300.549C256.422 298.945 257.063 297.479 258.117 296.425C259.171 295.371 260.637 294.73 262.241 294.73H295.188V283.595H204.872C201.664 283.595 199.006 280.983 199.006 277.73C199.006 276.126 199.648 274.659 200.702 273.606C201.756 272.552 203.222 271.91 204.826 271.91H302.611V271.956H387.52Z" fill="#ABD8EE"/>
<path opacity="0.3" d="M47.2887 122.758H15.7629C7.05665 122.758 0 115.701 0 106.995V75.5151C0 66.8089 7.05665 59.7522 15.7629 59.7522H47.2429C55.9492 59.7522 63.0058 66.8089 63.0058 75.5151V106.995C63.0516 115.701 55.995 122.758 47.2887 122.758Z" fill="#29ABE2"/>
<path d="M44.3563 101.268C47.1056 98.1974 48.8011 94.1651 48.8011 89.6745C48.8011 80.1434 41.0571 72.3994 31.526 72.3994C21.995 72.3994 14.251 80.1434 14.251 89.6745C14.251 99.2055 21.995 106.95 31.526 106.95C33.7255 106.95 35.8333 106.537 37.8037 105.758L47.0598 109.561L44.3563 101.268Z" fill="white"/>
<path d="M48.251 110.844L37.8035 106.583C35.7873 107.316 33.6795 107.683 31.5717 107.683C21.6282 107.683 13.5635 99.6179 13.5635 89.6745C13.5635 79.731 21.6282 71.6663 31.5717 71.6663C41.5151 71.6663 49.5799 79.731 49.5799 89.6745C49.5799 93.9818 48.0219 98.1516 45.2268 101.405L48.251 110.844ZM37.8035 104.979L45.8683 108.278L43.5313 101.084L43.8063 100.763C46.5556 97.7392 48.0677 93.7985 48.0677 89.6745C48.0677 80.5558 40.6445 73.1326 31.5259 73.1326C22.4072 73.1326 14.984 80.5558 14.984 89.6745C14.984 98.7931 22.4072 106.216 31.5259 106.216C33.5879 106.216 35.6041 105.85 37.5286 105.071L37.8035 104.979Z" fill="#29ABE2"/>
<path d="M23.8275 91.9197C24.8398 91.9197 25.6604 91.0991 25.6604 90.0868C25.6604 89.0745 24.8398 88.2539 23.8275 88.2539C22.8152 88.2539 21.9946 89.0745 21.9946 90.0868C21.9946 91.0991 22.8152 91.9197 23.8275 91.9197Z" fill="#29ABE2"/>
<path d="M31.5258 91.9197C32.538 91.9197 33.3587 91.0991 33.3587 90.0868C33.3587 89.0745 32.538 88.2539 31.5258 88.2539C30.5135 88.2539 29.6929 89.0745 29.6929 90.0868C29.6929 91.0991 30.5135 91.9197 31.5258 91.9197Z" fill="#29ABE2"/>
<path d="M39.224 91.9197C40.2363 91.9197 41.0569 91.0991 41.0569 90.0868C41.0569 89.0745 40.2363 88.2539 39.224 88.2539C38.2117 88.2539 37.3911 89.0745 37.3911 90.0868C37.3911 91.0991 38.2117 91.9197 39.224 91.9197Z" fill="#29ABE2"/>
<path opacity="0.3" d="M117.855 63.0516H86.3752C77.669 63.0516 70.6123 55.995 70.6123 47.2887V15.7629C70.6123 7.05665 77.669 0 86.3752 0H117.855C126.561 0 133.618 7.05665 133.618 15.7629V47.2429C133.618 55.995 126.561 63.0516 117.855 63.0516Z" fill="#454AFF"/>
<path d="M119.963 25.0646V37.9865C119.963 39.5445 118.68 40.8275 117.122 40.8275H94.5318C92.9738 40.8275 91.6908 39.5445 91.6908 37.9865V35.9704L84.2676 40.8734V22.2236L91.645 28.0889V25.0646C91.645 23.5067 92.928 22.2236 94.486 22.2236H117.076C118.68 22.2236 119.963 23.5067 119.963 25.0646Z" fill="white"/>
<path d="M83.5342 42.2024V20.7117L90.9116 26.5769V25.0648C90.9116 23.0944 92.5154 21.4907 94.4857 21.4907H117.076C119.047 21.4907 120.65 23.0944 120.65 25.0648V37.9867C120.65 39.9571 119.047 41.5609 117.076 41.5609H94.4857C92.5154 41.5609 90.9116 39.9571 90.9116 37.9867V37.2994L83.5342 42.2024ZM92.3779 34.5959V37.9867C92.3779 39.1781 93.3402 40.0945 94.4857 40.0945H117.076C118.268 40.0945 119.184 39.1323 119.184 37.9867V25.0648C119.184 23.8734 118.222 22.957 117.076 22.957H94.4857C93.2943 22.957 92.3779 23.9192 92.3779 25.0648V29.6012L84.9547 23.7359V39.4989L92.3779 34.5959Z" fill="#454AFF"/>
<path opacity="0.3" d="M134.993 149.519H103.513C94.8066 149.519 87.75 142.462 87.75 133.756V102.276C87.75 93.5693 94.8066 86.5127 103.513 86.5127H134.993C143.699 86.5127 150.756 93.5693 150.756 102.276V133.756C150.756 142.416 143.699 149.519 134.993 149.519Z" fill="#F15A24"/>
<path d="M119.23 131.556C126.721 131.556 132.793 125.484 132.793 117.993C132.793 110.502 126.721 104.429 119.23 104.429C111.739 104.429 105.667 110.502 105.667 117.993C105.667 125.484 111.739 131.556 119.23 131.556Z" fill="white"/>
<path d="M119.23 132.289C111.349 132.289 104.934 125.874 104.934 117.993C104.934 110.111 111.349 103.696 119.23 103.696C127.112 103.696 133.527 110.111 133.527 117.993C133.527 125.874 127.112 132.289 119.23 132.289ZM119.23 105.117C112.128 105.117 106.4 110.89 106.4 117.947C106.4 125.049 112.174 130.777 119.23 130.777C126.287 130.777 132.06 125.003 132.06 117.947C132.06 110.89 126.287 105.117 119.23 105.117Z" fill="#F15A24"/>
<path d="M119.23 104.383V117.992H132.793" fill="white"/>
<path d="M132.794 118.726H118.497V104.383H119.963V117.259H132.794V118.726Z" fill="#F15A24"/>
<defs>
<linearGradient id="paint0_linear" x1="235.846" y1="394.746" x2="235.846" y2="323.562" gradientUnits="userSpaceOnUse">
<stop stop-color="white"/>
<stop offset="0.2166" stop-color="#F9FCFD"/>
<stop offset="0.5149" stop-color="#E7F3F9"/>
<stop offset="0.8592" stop-color="#CAE5F2"/>
<stop offset="1" stop-color="#BCDEEE"/>
</linearGradient>
</defs>
</svg>
