<svg width="89" height="89" viewBox="0 0 89 89" fill="none" xmlns="http://www.w3.org/2000/svg">
<path d="M44.5 89C19.967 89 0 69.033 0 44.5C0 19.967 19.967 0 44.5 0C69.033 0 89 19.967 89 44.5C89 69.033 69.033 89 44.5 89ZM44.5 4.64348C22.5209 4.64348 4.64348 22.5209 4.64348 44.5C4.64348 66.4791 22.5209 84.3565 44.5 84.3565C66.4791 84.3565 84.3565 66.4791 84.3565 44.5C84.3565 22.5209 66.4791 4.64348 44.5 4.64348Z" fill="#8158E8"/>
<path d="M37.3176 65.5486C25.646 65.1496 17.3662 63.753 17.3662 53.6775C17.3662 50.4853 18.7628 47.1933 20.3589 44.0011L30.6339 23.5509L39.5122 26.7431L34.0256 45.8965C33.6266 47.0936 34.0256 47.4926 35.0232 47.8916L41.3079 50.4853L37.3176 65.5486ZM67.6437 65.5486C55.9721 65.1496 47.6923 63.753 47.6923 53.6775C47.6923 50.4853 49.0889 47.1933 50.685 44.0011L60.96 23.4512L69.8383 26.6434L64.3517 45.7967C63.9527 46.9938 64.3517 47.3928 65.3493 47.7919L71.634 50.3855L67.6437 65.5486Z" fill="#8158E8"/>
</svg>
