<svg width="92" height="92" viewBox="0 0 92 92" fill="none" xmlns="http://www.w3.org/2000/svg">
<path d="M46 92C71.4051 92 92 71.4051 92 46C92 20.5949 71.4051 0 46 0C20.5949 0 0 20.5949 0 46C0 71.4051 20.5949 92 46 92Z" fill="#FFE6E7"/>
<path d="M46 78.942C64.1934 78.942 78.942 64.1934 78.942 46C78.942 27.8067 64.1934 13.0581 46 13.0581C27.8067 13.0581 13.0581 27.8067 13.0581 46C13.0581 64.1934 27.8067 78.942 46 78.942Z" fill="#FFD6D8"/>
<path d="M45.9999 66.4773C57.3092 66.4773 66.4773 57.3092 66.4773 45.9999C66.4773 34.6905 57.3092 25.5225 45.9999 25.5225C34.6905 25.5225 25.5225 34.6905 25.5225 45.9999C25.5225 57.3092 34.6905 66.4773 45.9999 66.4773Z" fill="#E85359"/>
</svg>
