<svg width="382" height="485" viewBox="0 0 382 485" fill="none" xmlns="http://www.w3.org/2000/svg" xmlns:xlink="http://www.w3.org/1999/xlink">
<path d="M216.181 423.709C218.463 423.709 220.313 421.86 220.313 419.578C220.313 417.296 218.463 415.446 216.181 415.446C213.899 415.446 212.049 417.296 212.049 419.578C212.049 421.86 213.899 423.709 216.181 423.709Z" fill="#E6E6E6"/>
<path d="M239.568 423.708C241.85 423.708 243.7 421.858 243.7 419.576C243.7 417.294 241.85 415.444 239.568 415.444C237.286 415.444 235.436 417.294 235.436 419.576C235.436 421.858 237.286 423.708 239.568 423.708Z" fill="#E6E6E6"/>
<path d="M263.034 423.708C265.316 423.708 267.166 421.858 267.166 419.576C267.166 417.294 265.316 415.444 263.034 415.444C260.752 415.444 258.902 417.294 258.902 419.576C258.902 421.858 260.752 423.708 263.034 423.708Z" fill="#E6E6E6"/>
<path d="M286.5 423.708C288.781 423.708 290.631 421.858 290.631 419.576C290.631 417.294 288.781 415.444 286.5 415.444C284.218 415.444 282.368 417.294 282.368 419.576C282.368 421.858 284.218 423.708 286.5 423.708Z" fill="#E6E6E6"/>
<path d="M309.965 423.708C312.247 423.708 314.097 421.858 314.097 419.576C314.097 417.294 312.247 415.444 309.965 415.444C307.683 415.444 305.833 417.294 305.833 419.576C305.833 421.858 307.683 423.708 309.965 423.708Z" fill="#E6E6E6"/>
<path d="M333.431 423.708C335.713 423.708 337.563 421.858 337.563 419.576C337.563 417.294 335.713 415.444 333.431 415.444C331.149 415.444 329.299 417.294 329.299 419.576C329.299 421.858 331.149 423.708 333.431 423.708Z" fill="#E6E6E6"/>
<path d="M356.818 423.708C359.1 423.708 360.95 421.858 360.95 419.576C360.95 417.294 359.1 415.444 356.818 415.444C354.536 415.444 352.687 417.294 352.687 419.576C352.687 421.858 354.536 423.708 356.818 423.708Z" fill="#E6E6E6"/>
<path d="M216.18 438.988C218.462 438.988 220.312 437.138 220.312 434.856C220.312 432.574 218.462 430.724 216.18 430.724C213.898 430.724 212.048 432.574 212.048 434.856C212.048 437.138 213.898 438.988 216.18 438.988Z" fill="#E6E6E6"/>
<path d="M239.568 438.988C241.85 438.988 243.7 437.138 243.7 434.856C243.7 432.574 241.85 430.724 239.568 430.724C237.286 430.724 235.436 432.574 235.436 434.856C235.436 437.138 237.286 438.988 239.568 438.988Z" fill="#E6E6E6"/>
<path d="M263.034 438.988C265.316 438.988 267.166 437.138 267.166 434.856C267.166 432.574 265.316 430.724 263.034 430.724C260.752 430.724 258.902 432.574 258.902 434.856C258.902 437.138 260.752 438.988 263.034 438.988Z" fill="#E6E6E6"/>
<path d="M286.5 438.988C288.781 438.988 290.631 437.138 290.631 434.856C290.631 432.574 288.781 430.724 286.5 430.724C284.218 430.724 282.368 432.574 282.368 434.856C282.368 437.138 284.218 438.988 286.5 438.988Z" fill="#E6E6E6"/>
<path d="M309.965 438.988C312.247 438.988 314.097 437.138 314.097 434.856C314.097 432.574 312.247 430.724 309.965 430.724C307.683 430.724 305.833 432.574 305.833 434.856C305.833 437.138 307.683 438.988 309.965 438.988Z" fill="#E6E6E6"/>
<path d="M333.431 438.988C335.713 438.988 337.563 437.138 337.563 434.856C337.563 432.574 335.713 430.724 333.431 430.724C331.149 430.724 329.299 432.574 329.299 434.856C329.299 437.138 331.149 438.988 333.431 438.988Z" fill="#E6E6E6"/>
<path d="M356.818 438.988C359.1 438.988 360.95 437.138 360.95 434.856C360.95 432.574 359.1 430.724 356.818 430.724C354.536 430.724 352.687 432.574 352.687 434.856C352.687 437.138 354.536 438.988 356.818 438.988Z" fill="#E6E6E6"/>
<path d="M216.18 454.19C218.462 454.19 220.312 452.34 220.312 450.058C220.312 447.776 218.462 445.926 216.18 445.926C213.898 445.926 212.048 447.776 212.048 450.058C212.048 452.34 213.898 454.19 216.18 454.19Z" fill="#E6E6E6"/>
<path d="M239.568 454.19C241.85 454.19 243.7 452.34 243.7 450.058C243.7 447.776 241.85 445.926 239.568 445.926C237.286 445.926 235.436 447.776 235.436 450.058C235.436 452.34 237.286 454.19 239.568 454.19Z" fill="#E6E6E6"/>
<path d="M263.034 454.19C265.316 454.19 267.166 452.34 267.166 450.058C267.166 447.776 265.316 445.926 263.034 445.926C260.752 445.926 258.902 447.776 258.902 450.058C258.902 452.34 260.752 454.19 263.034 454.19Z" fill="#E6E6E6"/>
<path d="M286.5 454.19C288.781 454.19 290.631 452.34 290.631 450.058C290.631 447.776 288.781 445.926 286.5 445.926C284.218 445.926 282.368 447.776 282.368 450.058C282.368 452.34 284.218 454.19 286.5 454.19Z" fill="#E6E6E6"/>
<path d="M309.965 454.19C312.247 454.19 314.097 452.34 314.097 450.058C314.097 447.776 312.247 445.926 309.965 445.926C307.683 445.926 305.833 447.776 305.833 450.058C305.833 452.34 307.683 454.19 309.965 454.19Z" fill="#E6E6E6"/>
<path d="M333.431 454.19C335.713 454.19 337.563 452.34 337.563 450.058C337.563 447.776 335.713 445.926 333.431 445.926C331.149 445.926 329.299 447.776 329.299 450.058C329.299 452.34 331.149 454.19 333.431 454.19Z" fill="#E6E6E6"/>
<path d="M356.818 454.19C359.1 454.19 360.95 452.34 360.95 450.058C360.95 447.776 359.1 445.926 356.818 445.926C354.536 445.926 352.687 447.776 352.687 450.058C352.687 452.34 354.536 454.19 356.818 454.19Z" fill="#E6E6E6"/>
<path d="M216.18 469.47C218.462 469.47 220.312 467.62 220.312 465.338C220.312 463.056 218.462 461.206 216.18 461.206C213.898 461.206 212.048 463.056 212.048 465.338C212.048 467.62 213.898 469.47 216.18 469.47Z" fill="#E6E6E6"/>
<path d="M239.568 469.47C241.85 469.47 243.7 467.62 243.7 465.338C243.7 463.056 241.85 461.206 239.568 461.206C237.286 461.206 235.436 463.056 235.436 465.338C235.436 467.62 237.286 469.47 239.568 469.47Z" fill="#E6E6E6"/>
<path d="M263.034 469.47C265.316 469.47 267.166 467.62 267.166 465.338C267.166 463.056 265.316 461.206 263.034 461.206C260.752 461.206 258.902 463.056 258.902 465.338C258.902 467.62 260.752 469.47 263.034 469.47Z" fill="#E6E6E6"/>
<path d="M286.5 469.47C288.781 469.47 290.631 467.62 290.631 465.338C290.631 463.056 288.781 461.206 286.5 461.206C284.218 461.206 282.368 463.056 282.368 465.338C282.368 467.62 284.218 469.47 286.5 469.47Z" fill="#E6E6E6"/>
<path d="M309.965 469.47C312.247 469.47 314.097 467.62 314.097 465.338C314.097 463.056 312.247 461.206 309.965 461.206C307.683 461.206 305.833 463.056 305.833 465.338C305.833 467.62 307.683 469.47 309.965 469.47Z" fill="#E6E6E6"/>
<path d="M333.431 469.47C335.713 469.47 337.563 467.62 337.563 465.338C337.563 463.056 335.713 461.206 333.431 461.206C331.149 461.206 329.299 463.056 329.299 465.338C329.299 467.62 331.149 469.47 333.431 469.47Z" fill="#E6E6E6"/>
<path d="M356.818 469.47C359.1 469.47 360.95 467.62 360.95 465.338C360.95 463.056 359.1 461.206 356.818 461.206C354.536 461.206 352.687 463.056 352.687 465.338C352.687 467.62 354.536 469.47 356.818 469.47Z" fill="#E6E6E6"/>
<path d="M216.18 484.672C218.462 484.672 220.312 482.822 220.312 480.54C220.312 478.258 218.462 476.408 216.18 476.408C213.898 476.408 212.048 478.258 212.048 480.54C212.048 482.822 213.898 484.672 216.18 484.672Z" fill="#E6E6E6"/>
<path d="M239.568 484.672C241.85 484.672 243.7 482.822 243.7 480.54C243.7 478.258 241.85 476.408 239.568 476.408C237.286 476.408 235.436 478.258 235.436 480.54C235.436 482.822 237.286 484.672 239.568 484.672Z" fill="#E6E6E6"/>
<path d="M263.034 484.672C265.316 484.672 267.166 482.822 267.166 480.54C267.166 478.258 265.316 476.408 263.034 476.408C260.752 476.408 258.902 478.258 258.902 480.54C258.902 482.822 260.752 484.672 263.034 484.672Z" fill="#E6E6E6"/>
<path d="M286.5 484.672C288.781 484.672 290.631 482.822 290.631 480.54C290.631 478.258 288.781 476.408 286.5 476.408C284.218 476.408 282.368 478.258 282.368 480.54C282.368 482.822 284.218 484.672 286.5 484.672Z" fill="#E6E6E6"/>
<path d="M309.965 484.672C312.247 484.672 314.097 482.822 314.097 480.54C314.097 478.258 312.247 476.408 309.965 476.408C307.683 476.408 305.833 478.258 305.833 480.54C305.833 482.822 307.683 484.672 309.965 484.672Z" fill="#E6E6E6"/>
<path d="M333.431 484.672C335.713 484.672 337.563 482.822 337.563 480.54C337.563 478.258 335.713 476.408 333.431 476.408C331.149 476.408 329.299 478.258 329.299 480.54C329.299 482.822 331.149 484.672 333.431 484.672Z" fill="#E6E6E6"/>
<path d="M356.818 484.672C359.1 484.672 360.95 482.822 360.95 480.54C360.95 478.258 359.1 476.408 356.818 476.408C354.536 476.408 352.687 478.258 352.687 480.54C352.687 482.822 354.536 484.672 356.818 484.672Z" fill="#E6E6E6"/>
<path d="M302.559 91.9918H266.932C250.171 91.9918 236.606 78.4269 236.606 61.6657V30.3261C236.606 13.5649 250.171 0 266.932 0H302.559C319.321 0 332.886 13.5649 332.886 30.3261V61.5877C332.886 78.4269 319.321 91.9918 302.559 91.9918Z" fill="#F7EFC6"/>
<path d="M81.0774 481.008C55.6628 481.008 35.0815 460.427 35.0815 435.012C35.0815 409.597 55.6628 389.016 81.0774 389.016C106.492 389.016 127.073 409.597 127.073 435.012C127.073 460.427 106.492 481.008 81.0774 481.008Z" fill="#DEFFF2"/>
<path d="M77.9595 430.414V52.9361C77.9595 39.605 88.7958 28.8467 102.049 28.8467H275.196C288.527 28.8467 299.286 39.683 299.286 52.9361V430.336C299.286 443.667 288.449 454.426 275.196 454.426H102.049C88.7958 454.504 77.9595 443.667 77.9595 430.414Z" fill="#F7FCFF" stroke="#80CDED" stroke-width="5" stroke-miterlimit="10"/>
<path d="M85.7554 424.1C85.7554 413.341 94.4868 404.61 105.245 404.61H272.078C282.836 404.61 291.568 413.341 291.568 424.1C291.568 434.858 282.836 443.589 272.078 443.589H105.245C94.4868 443.589 85.7554 434.858 85.7554 424.1Z" fill="white" stroke="#F2F2F2" stroke-width="2" stroke-miterlimit="10"/>
<rect y="45.2178" width="256.486" height="94.3306" fill="url(#pattern0)"/>
<path d="M28.0649 91.5251V84.2749C28.0649 75.7774 34.9253 68.917 43.4229 68.917H212.438C220.936 68.917 227.796 75.7774 227.796 84.2749V91.5251C227.796 100.023 220.936 106.883 212.438 106.883H43.4229C34.9253 106.883 28.0649 99.9447 28.0649 91.5251Z" fill="#F2FFFC" stroke="#A1C4BE" stroke-width="2" stroke-miterlimit="10"/>
<path d="M49.0352 86.7701C49.0352 83.9636 50.6723 81.7808 53.7127 81.7808C56.7531 81.7808 58.0784 83.8857 58.0784 86.6142C58.0784 89.8106 56.5192 91.8375 53.4788 91.8375C50.3605 91.8375 49.0352 89.7326 49.0352 86.7701ZM56.8311 86.7701C56.8311 84.1975 55.5837 82.8722 53.6347 82.8722C51.6858 82.8722 50.2825 84.2755 50.2825 86.7701C50.2825 89.4987 51.6078 90.824 53.5568 90.824C55.5058 90.824 56.8311 89.4987 56.8311 86.7701Z" fill="#314D48"/>
<path d="M63.224 91.6811V90.9794L64.0815 90.9015L62.3664 88.095L61.275 89.3423V90.5896C61.275 90.8235 61.275 90.8235 61.5089 90.8235L62.2884 90.9015V91.6031H59.0142V90.9015L59.8717 90.8235C60.0276 90.8235 60.1056 90.7456 60.1056 90.5896V82.7937C60.1056 82.6378 60.0276 82.5599 59.9497 82.4819L59.1701 82.248L59.326 81.5464H61.4309V88.017L64.2374 84.8207H65.7187V85.5223L64.9391 85.6782C64.7831 85.6782 64.7052 85.7562 64.6272 85.9121L63.3799 87.3154L65.4068 90.6676C65.4848 90.8235 65.5627 90.8235 65.7966 90.9015L66.4982 91.0574V91.759H63.224V91.6811Z" fill="#314D48"/>
<path d="M67.0441 93.0067L67.4339 91.6035C67.4339 91.5255 67.4339 91.5255 67.3559 91.4475L66.8882 91.2916L67.2 90.2002C68.0576 90.2002 68.6812 90.3561 68.6812 91.0578C68.6812 91.2916 68.6033 91.5255 68.4474 91.7594L67.6678 93.2406L67.0441 93.0067Z" fill="#314D48"/>
<path d="M79.0497 91.6812L77.8023 86.38L76.3211 91.6812H74.8399L72.9689 85.9122C72.8909 85.7563 72.813 85.7563 72.657 85.6784L72.1113 85.5224L72.2672 84.8208H74.9958V85.5224L74.1383 85.6004L75.6195 90.4339L77.1787 84.9767H78.5819L79.9072 90.4339L81.3885 85.6784L80.5309 85.6004L80.6868 84.8988H83.1815V85.6004L82.7138 85.6784C82.4799 85.7563 82.4019 85.7563 82.4019 85.9122L80.6089 91.6812H79.0497Z" fill="#314D48"/>
<path d="M89.1834 91.2131C88.4817 91.6029 87.7022 91.8368 86.7666 91.8368C84.3499 91.8368 83.5703 90.2776 83.5703 88.2507C83.5703 85.8339 84.9736 84.6646 86.6107 84.6646C88.2479 84.6646 89.3393 85.5221 89.3393 87.8609C89.3393 88.0168 89.3393 88.3286 89.3393 88.5625H84.8177C84.8956 89.8878 85.4413 90.8233 86.8446 90.8233C87.6242 90.8233 88.0919 90.6674 88.7936 90.3556L89.1834 91.2131ZM88.0919 87.627C88.0919 86.0678 87.3903 85.678 86.5328 85.678C85.5973 85.678 84.8956 86.1458 84.8177 87.627H88.0919Z" fill="#314D48"/>
<path d="M99.8646 91.6812L98.6173 86.38L97.1361 91.6812H95.6548L93.7838 85.9122C93.7059 85.7563 93.6279 85.7563 93.472 85.6784L92.9263 85.5224L93.0822 84.8208H95.8108V85.5224L94.9532 85.6004L96.4344 90.4339L97.9936 84.9767H99.3969L100.722 90.4339L102.203 85.6784L101.346 85.6004L101.502 84.8988H103.996V85.6004L103.529 85.6784C103.295 85.7563 103.217 85.7563 103.217 85.9122L101.424 91.6812H99.8646Z" fill="#314D48"/>
<path d="M104.386 91.6812V90.9796L105.244 90.9017C105.4 90.9017 105.478 90.8237 105.478 90.6678V86.1461C105.478 85.9902 105.4 85.9123 105.322 85.8343L104.542 85.6004L104.698 84.8988H106.725V90.6678C106.725 90.9017 106.725 90.9017 106.959 90.9017L107.816 90.9796V91.6812H104.386ZM105.945 83.3396C105.4 83.3396 105.088 83.0278 105.088 82.4821C105.088 81.9364 105.4 81.6245 105.945 81.6245C106.491 81.6245 106.803 81.9364 106.803 82.4821C106.803 83.0278 106.491 83.3396 105.945 83.3396Z" fill="#314D48"/>
<path d="M108.44 91.6812V90.9796L109.298 90.9017C109.454 90.9017 109.532 90.8237 109.532 90.6678V82.8719C109.532 82.7159 109.454 82.638 109.376 82.56L108.596 82.3261L108.752 81.6245H110.857V90.6678C110.857 90.9017 110.857 90.9017 111.091 90.9017L111.871 90.9796V91.6812H108.44Z" fill="#314D48"/>
<path d="M112.417 91.6812V90.9796L113.274 90.9017C113.43 90.9017 113.508 90.8237 113.508 90.6678V82.8719C113.508 82.7159 113.43 82.638 113.352 82.56L112.572 82.3261L112.728 81.6245H114.833V90.6678C114.833 90.9017 114.833 90.9017 115.067 90.9017L115.847 90.9796V91.6812H112.417Z" fill="#314D48"/>
<path d="M126.059 91.6812L124.812 86.38L123.33 91.6812H121.849L119.978 85.9122C119.9 85.7563 119.822 85.7563 119.666 85.6784L119.121 85.5224L119.277 84.8208H122.005V85.5224L121.148 85.6004L122.629 90.4339L124.188 84.9767H125.591L126.917 90.4339L128.398 85.6784L127.54 85.6004L127.696 84.8988H130.191V85.6004L129.723 85.6784C129.489 85.7563 129.411 85.7563 129.411 85.9122L127.618 91.6812H126.059Z" fill="#314D48"/>
<path d="M130.503 88.2513C130.503 86.1464 131.594 84.7432 133.855 84.7432C136.116 84.7432 137.052 86.2244 137.052 88.1734C137.052 90.4342 136.038 91.9154 133.777 91.9154C131.438 91.8375 130.503 90.3562 130.503 88.2513ZM135.804 88.2513C135.804 86.5362 135.18 85.7566 133.855 85.7566C132.53 85.7566 131.75 86.5362 131.75 88.3293C131.75 90.1224 132.452 90.9799 133.777 90.9799C135.103 90.9019 135.804 90.0444 135.804 88.2513Z" fill="#314D48"/>
<path d="M138.143 91.6815V90.9799L138.844 90.9019C139 90.9019 139.078 90.824 139.078 90.6681V86.1464C139.078 85.9905 139 85.9126 138.922 85.8346L138.143 85.6007L138.298 84.8991H140.014L140.17 85.8346H140.247C140.715 85.3668 141.339 84.7432 142.274 84.7432C142.586 84.7432 142.976 84.8211 143.21 84.8991V86.926L142.274 86.8481L142.118 85.9126C142.118 85.8346 142.041 85.7566 141.963 85.7566C141.339 85.7566 140.715 86.3023 140.403 86.6142V90.6681C140.403 90.9019 140.403 90.9019 140.637 90.9019L141.885 90.9799V91.6815H138.143Z" fill="#314D48"/>
<path d="M147.965 91.6811V90.9794L148.823 90.9015L147.186 88.095L146.094 89.3423V90.5896C146.094 90.8235 146.094 90.8235 146.328 90.8235L147.108 90.9015V91.6031H143.833V90.9015L144.691 90.8235C144.847 90.8235 144.925 90.7456 144.925 90.5896V82.7937C144.925 82.6378 144.847 82.5599 144.769 82.4819L143.989 82.248L144.145 81.5464H146.25V88.017L149.057 84.8207H150.538V85.5223L149.758 85.6782C149.602 85.6782 149.525 85.7562 149.447 85.9121L148.199 87.3154L150.226 90.6676C150.304 90.8235 150.382 90.8235 150.616 90.9015L151.318 91.0574V91.759H147.965V91.6811Z" fill="#314D48"/>
<path d="M159.348 91.4468C158.802 91.6806 158.178 91.8366 157.477 91.8366C156.229 91.8366 155.606 91.2129 155.606 90.0435V85.8337C155.606 85.7557 155.606 85.6778 155.528 85.6778H154.514V84.8982C155.528 84.7423 155.839 84.3525 155.995 82.9492H156.775V84.5864C156.775 84.6643 156.775 84.7423 156.853 84.7423H158.802V85.6778H156.697V89.6537C156.697 90.5113 156.931 90.8231 157.633 90.8231C158.022 90.8231 158.49 90.6672 158.88 90.5892L159.348 91.4468Z" fill="#314D48"/>
<path d="M159.815 88.2513C159.815 86.1464 160.907 84.7432 163.168 84.7432C165.428 84.7432 166.364 86.2244 166.364 88.1734C166.364 90.4342 165.351 91.9154 163.09 91.9154C160.673 91.8375 159.815 90.3562 159.815 88.2513ZM165.117 88.2513C165.117 86.5362 164.493 85.7566 163.168 85.7566C161.842 85.7566 161.063 86.5362 161.063 88.3293C161.063 90.1224 161.764 90.9799 163.09 90.9799C164.337 90.9019 165.117 90.0444 165.117 88.2513Z" fill="#314D48"/>
<path d="M172.757 85.7565C173.069 86.0683 173.225 86.5361 173.225 87.1597C173.225 88.7189 171.978 89.6544 170.418 89.6544C169.951 89.6544 169.561 89.5765 169.249 89.4985L168.625 90.6679L170.263 90.7459C172.679 90.9018 173.771 90.9797 173.771 92.6169C173.771 93.9422 172.601 94.7997 170.341 94.7997C168.002 94.7997 167.222 94.1761 167.222 93.1626C167.222 92.5389 167.612 92.1491 168.002 91.6814C167.612 91.5255 167.378 91.2916 167.378 90.9797C167.378 90.7459 167.456 90.512 167.69 90.2781C167.924 89.9663 168.158 89.6544 168.392 89.3426C167.768 89.0308 167.378 88.3291 167.378 87.4716C167.378 85.9904 168.47 84.8989 170.263 84.8989C170.73 84.8989 171.198 84.9769 171.432 85.0548H173.849V85.9124L172.757 85.7565ZM169.093 91.7593C168.859 91.9932 168.47 92.383 168.47 92.8508C168.47 93.5524 169.249 93.7083 170.496 93.7083C171.198 93.7083 172.601 93.6304 172.601 92.6169C172.601 91.9932 172.056 91.9153 171.198 91.8373L169.093 91.7593ZM170.496 85.6785C169.483 85.6785 168.859 86.1463 168.859 87.2377C168.859 88.0173 169.327 88.641 170.496 88.641C171.51 88.641 172.134 88.0173 172.134 87.1597C172.056 86.2242 171.51 85.6785 170.496 85.6785Z" fill="#314D48"/>
<path d="M180.319 91.2131C179.617 91.6029 178.837 91.8368 177.902 91.8368C175.485 91.8368 174.706 90.2776 174.706 88.2507C174.706 85.8339 176.109 84.6646 177.746 84.6646C179.383 84.6646 180.475 85.5221 180.475 87.8609C180.475 88.0168 180.475 88.3286 180.475 88.5625H175.953C176.031 89.8878 176.577 90.8233 177.98 90.8233C178.759 90.8233 179.227 90.6674 179.929 90.3556L180.319 91.2131ZM179.227 87.627C179.227 86.0678 178.526 85.678 177.668 85.678C176.732 85.678 176.031 86.1458 175.953 87.627H179.227Z" fill="#314D48"/>
<path d="M186.088 91.4468C185.542 91.6806 184.918 91.8366 184.217 91.8366C182.969 91.8366 182.346 91.2129 182.346 90.0435V85.8337C182.346 85.7557 182.346 85.6778 182.268 85.6778H181.254V84.8982C182.268 84.7423 182.58 84.3525 182.736 82.9492H183.515V84.5864C183.515 84.6643 183.515 84.7423 183.593 84.7423H185.542V85.6778H183.437V89.6537C183.437 90.5113 183.671 90.8231 184.373 90.8231C184.763 90.8231 185.23 90.6672 185.62 90.5892L186.088 91.4468Z" fill="#314D48"/>
<path d="M191.467 91.6812V90.9796L192.09 90.9017C192.246 90.9017 192.324 90.8237 192.324 90.6678V87.5494C192.324 86.5359 192.168 85.7563 191.233 85.7563C190.453 85.7563 189.674 86.2241 189.128 86.6139V90.6678C189.128 90.9017 189.128 90.9017 189.362 90.9017L190.141 90.9796V91.6812H187.101V90.9796L187.803 90.9017C187.959 90.9017 188.037 90.8237 188.037 90.6678V82.8719C188.037 82.7159 187.959 82.638 187.881 82.56L187.101 82.3261L187.257 81.6245H189.284V85.6004C189.908 85.1327 190.687 84.7429 191.701 84.7429C193.104 84.7429 193.728 85.6784 193.728 87.1596V90.6678C193.728 90.9017 193.728 90.9017 193.961 90.9017L194.741 90.9796V91.6812H191.467Z" fill="#314D48"/>
<path d="M201.056 91.2131C200.354 91.6029 199.575 91.8368 198.639 91.8368C196.222 91.8368 195.443 90.2776 195.443 88.2507C195.443 85.8339 196.846 84.6646 198.483 84.6646C200.12 84.6646 201.212 85.5221 201.212 87.8609C201.212 88.0168 201.212 88.3286 201.212 88.5625H196.69C196.768 89.8878 197.314 90.8233 198.717 90.8233C199.497 90.8233 199.964 90.6674 200.666 90.3556L201.056 91.2131ZM200.042 87.627C200.042 86.0678 199.341 85.678 198.483 85.678C197.548 85.678 196.846 86.1458 196.768 87.627H200.042Z" fill="#314D48"/>
<path d="M202.304 91.6815V90.9799L203.005 90.9019C203.161 90.9019 203.239 90.824 203.239 90.6681V86.1464C203.239 85.9905 203.161 85.9126 203.083 85.8346L202.304 85.6007L202.46 84.8991H204.175L204.331 85.8346H204.409C204.876 85.3668 205.5 84.7432 206.436 84.7432C206.747 84.7432 207.137 84.8211 207.371 84.8991V86.926L206.436 86.8481L206.28 85.9126C206.28 85.8346 206.202 85.7566 206.124 85.7566C205.5 85.7566 204.876 86.3023 204.565 86.6142V90.6681C204.565 90.9019 204.565 90.9019 204.798 90.9019L206.046 90.9799V91.6815H202.304Z" fill="#314D48"/>
<rect y="92.7734" width="291.567" height="95.1102" fill="url(#pattern1)"/>
<path d="M28.0649 139.316V132.066C28.0649 123.568 34.9253 116.708 43.4229 116.708H247.598C256.095 116.708 262.956 123.568 262.956 132.066V139.316C262.956 147.814 256.095 154.674 247.598 154.674H43.4229C34.9253 154.674 28.0649 147.814 28.0649 139.316Z" fill="#F2FFFC" stroke="#A1C4BE" stroke-width="2" stroke-miterlimit="10"/>
<path d="M49.1147 139.548V138.769L50.1282 138.691C50.2841 138.691 50.3621 138.613 50.3621 138.457V130.973C50.3621 130.739 50.3621 130.739 50.1282 130.739L49.1147 130.661V129.959H52.7788V130.661L51.7654 130.739C51.5315 130.739 51.5315 130.817 51.5315 130.973V138.457C51.5315 138.691 51.5315 138.691 51.7654 138.691L52.7788 138.769V139.47H49.1147V139.548Z" fill="#314D48"/>
<path d="M54.0262 131.909L54.416 130.662C54.416 130.584 54.416 130.506 54.338 130.506L53.9482 130.35L54.1821 129.336C54.9617 129.414 55.5074 129.492 55.5074 130.116C55.5074 130.35 55.4295 130.506 55.3515 130.74L54.6499 132.065L54.0262 131.909Z" fill="#314D48"/>
<path d="M56.2871 139.549V138.77L57.1447 138.692C57.3006 138.692 57.3785 138.614 57.3785 138.458V130.662C57.3785 130.506 57.3006 130.428 57.2226 130.35L56.443 130.116L56.5989 129.415H58.7038V138.458C58.7038 138.692 58.7038 138.692 58.9377 138.692L59.7173 138.77V139.471H56.2871V139.549Z" fill="#314D48"/>
<path d="M60.2622 139.549V138.77L61.1198 138.692C61.2757 138.692 61.3536 138.614 61.3536 138.458V130.662C61.3536 130.506 61.2757 130.428 61.1977 130.35L60.4181 130.116L60.574 129.415H62.6789V138.458C62.6789 138.692 62.6789 138.692 62.9128 138.692L63.6924 138.77V139.471H60.2622V139.549Z" fill="#314D48"/>
<path d="M71.3332 134.559L71.1773 133.702C71.1773 133.624 71.1773 133.546 71.0213 133.546C70.8654 133.468 70.3977 133.39 70.0079 133.39C68.9944 133.39 68.6046 133.78 68.6046 134.403C68.6046 135.183 69.3842 135.339 70.2417 135.573C71.2552 135.807 72.4246 136.196 72.4246 137.6C72.4246 139.159 71.0993 139.704 69.696 139.704C68.6046 139.704 67.5132 139.393 67.2793 139.237V137.444L68.2148 137.522L68.3707 138.457C68.3707 138.535 68.4487 138.613 68.5266 138.613C68.6826 138.691 69.1503 138.847 69.8519 138.847C70.7875 138.847 71.3332 138.535 71.3332 137.755C71.3332 136.976 70.5536 136.742 69.696 136.586C68.6826 136.352 67.5132 136.04 67.5132 134.637C67.5132 133.078 68.7605 132.532 70.1638 132.532C71.0993 132.532 72.0348 132.766 72.2687 132.922V134.637L71.3332 134.559Z" fill="#314D48"/>
<path d="M79.1287 139.081C78.427 139.471 77.6475 139.704 76.7119 139.704C74.2952 139.704 73.5156 138.145 73.5156 136.118C73.5156 133.702 74.9189 132.532 76.556 132.532C78.1932 132.532 79.2846 133.39 79.2846 135.729C79.2846 135.884 79.2846 136.196 79.2846 136.43H74.763C74.8409 137.755 75.3866 138.691 76.7899 138.691C77.5695 138.691 78.0373 138.535 78.7389 138.223L79.1287 139.081ZM78.0373 135.417C78.0373 133.858 77.3356 133.468 76.4781 133.468C75.5426 133.468 74.8409 133.935 74.763 135.417H78.0373Z" fill="#314D48"/>
<path d="M84.82 139.549V138.769L85.4436 138.691C85.5996 138.691 85.6775 138.613 85.6775 138.457V135.261C85.6775 134.403 85.5216 133.546 84.5081 133.546C83.7285 133.546 83.0269 133.935 82.4032 134.403V138.457C82.4032 138.691 82.4032 138.691 82.6371 138.691L83.4167 138.769V139.471H80.2983V138.769L81 138.691C81.1559 138.691 81.2338 138.613 81.2338 138.457V133.935C81.2338 133.78 81.1559 133.702 81.0779 133.624L80.2983 133.39L80.4543 132.688H82.1694L82.2473 133.468H82.3253C83.0269 133 83.8065 132.532 84.82 132.532C86.3792 132.532 86.9249 133.546 86.9249 134.949V138.457C86.9249 138.691 86.9249 138.691 87.1587 138.691L87.9383 138.769V139.471H84.82V139.549Z" fill="#314D48"/>
<path d="M93.8634 139.549L93.7855 138.691H93.7075C93.0838 139.315 92.3822 139.782 91.3687 139.782C89.8095 139.782 88.874 138.769 88.874 136.352C88.874 133.702 90.0434 132.61 91.6806 132.61C92.4601 132.61 93.2397 132.844 93.7075 133.234V130.739C93.7075 130.583 93.6295 130.505 93.5516 130.505L92.772 130.271L92.9279 129.57H94.9548V138.613C94.9548 138.847 94.9548 138.847 95.1887 138.847L95.8903 138.925V139.627H93.8634V139.549ZM93.6295 134.247C93.2397 133.936 92.5381 133.546 91.7585 133.546C90.5112 133.546 90.0434 134.637 90.0434 136.274C90.0434 138.145 90.6671 138.769 91.6026 138.769C92.3822 138.769 93.0059 138.223 93.6295 137.678V134.247Z" fill="#314D48"/>
<path d="M100.412 142.356V141.654L101.347 141.498C101.503 141.498 101.581 141.42 101.659 141.186L102.439 139.393L100.022 133.702C99.9441 133.546 99.8662 133.546 99.7103 133.468L99.1646 133.312L99.3205 132.611H102.127V133.312L101.269 133.39L103.063 137.912L104.934 133.39L103.998 133.312L104.154 132.611H106.805V133.312L106.337 133.39C106.181 133.39 106.103 133.468 106.025 133.624L102.751 141.42L104.076 141.576V142.278H100.412V142.356Z" fill="#314D48"/>
<path d="M107.194 136.04C107.194 133.935 108.286 132.532 110.547 132.532C112.807 132.532 113.743 134.013 113.743 135.962C113.743 138.223 112.729 139.704 110.469 139.704C108.052 139.704 107.194 138.145 107.194 136.04ZM112.418 136.04C112.418 134.325 111.794 133.546 110.469 133.546C109.143 133.546 108.364 134.325 108.364 136.118C108.364 137.911 109.065 138.769 110.391 138.769C111.716 138.691 112.418 137.911 112.418 136.04Z" fill="#314D48"/>
<path d="M120.291 139.548L120.213 138.613C119.59 139.159 118.81 139.704 117.641 139.704C116.16 139.704 115.692 138.769 115.692 137.288V133.857C115.692 133.623 115.692 133.624 115.458 133.546L114.756 133.39L114.834 132.688H116.861V136.976C116.861 138.145 117.095 138.691 117.875 138.691C118.81 138.691 119.59 138.067 120.058 137.521V133.857C120.058 133.623 120.058 133.624 119.824 133.546L119.122 133.39L119.2 132.688H121.227V138.457C121.227 138.691 121.305 138.691 121.383 138.769L122.085 138.847V139.548H120.291Z" fill="#314D48"/>
<path d="M123.176 139.549V138.769L123.877 138.691C124.033 138.691 124.111 138.613 124.111 138.457V133.935C124.111 133.78 124.033 133.702 123.955 133.624L123.176 133.39L123.332 132.688H125.047L125.203 133.624H125.281C125.748 133.156 126.372 132.532 127.308 132.532C127.619 132.532 128.009 132.61 128.243 132.688V134.715L127.308 134.637L127.152 133.702C127.152 133.624 127.074 133.546 126.996 133.546C126.372 133.546 125.748 134.091 125.437 134.403V138.457C125.437 138.691 125.437 138.691 125.67 138.691L126.918 138.769V139.471H123.176V139.549Z" fill="#314D48"/>
<path d="M136.507 139.549L136.352 138.691H136.274C135.65 139.315 134.87 139.705 133.857 139.705C132.22 139.705 131.986 138.535 131.986 137.834C131.986 136.508 132.843 135.885 134.403 135.729L136.196 135.573V134.871C136.196 133.858 136.04 133.39 134.87 133.39C134.091 133.39 133.467 133.39 133.467 134.403L132.298 134.247C132.298 132.61 133.857 132.376 134.87 132.376C136.741 132.376 137.443 132.922 137.443 134.793V138.301C137.443 138.535 137.443 138.535 137.677 138.535L138.378 138.613V139.315H136.507V139.549ZM136.274 136.43L134.792 136.586C133.623 136.664 133.311 137.054 133.311 137.756C133.311 138.457 133.623 138.769 134.247 138.769C135.026 138.769 135.884 138.145 136.274 137.756V136.43Z" fill="#314D48"/>
<path d="M144.303 139.549L144.225 138.691H144.147C143.523 139.315 142.822 139.782 141.808 139.782C140.249 139.782 139.313 138.769 139.313 136.352C139.313 133.702 140.483 132.61 142.12 132.61C142.9 132.61 143.679 132.844 144.147 133.234V130.739C144.147 130.583 144.069 130.505 143.991 130.505L143.211 130.271L143.367 129.57H145.394V138.613C145.394 138.847 145.394 138.847 145.628 138.847L146.33 138.925V139.627H144.303V139.549ZM144.069 134.247C143.679 133.936 142.978 133.546 142.198 133.546C140.951 133.546 140.483 134.637 140.483 136.274C140.483 138.145 141.107 138.769 142.042 138.769C142.822 138.769 143.445 138.223 144.069 137.678V134.247Z" fill="#314D48"/>
<path d="M149.604 139.548L147.343 133.779C147.265 133.624 147.187 133.624 147.032 133.546L146.486 133.39L146.642 132.688H149.448V133.39L148.513 133.468L150.306 138.457L152.177 133.468L151.241 133.39L151.397 132.688H153.97V133.39L153.502 133.468C153.346 133.546 153.268 133.546 153.19 133.701L150.93 139.548H149.604Z" fill="#314D48"/>
<path d="M158.881 139.549L158.726 138.691H158.648C158.024 139.315 157.244 139.705 156.231 139.705C154.594 139.705 154.36 138.535 154.36 137.834C154.36 136.508 155.217 135.885 156.777 135.729L158.57 135.573V134.871C158.57 133.858 158.414 133.39 157.244 133.39C156.465 133.39 155.841 133.39 155.841 134.403L154.672 134.247C154.672 132.61 156.231 132.376 157.244 132.376C159.115 132.376 159.817 132.922 159.817 134.793V138.301C159.817 138.535 159.817 138.535 160.051 138.535L160.753 138.613V139.315H158.881V139.549ZM158.648 136.43L157.166 136.586C155.997 136.664 155.685 137.054 155.685 137.756C155.685 138.457 155.997 138.769 156.621 138.769C157.4 138.769 158.258 138.145 158.648 137.756V136.43Z" fill="#314D48"/>
<path d="M166.054 139.549V138.769L166.677 138.691C166.833 138.691 166.911 138.613 166.911 138.457V135.261C166.911 134.403 166.755 133.546 165.742 133.546C164.962 133.546 164.26 133.935 163.637 134.403V138.457C163.637 138.691 163.637 138.691 163.871 138.691L164.65 138.769V139.471H161.61V138.769L162.311 138.691C162.467 138.691 162.545 138.613 162.545 138.457V133.935C162.545 133.78 162.467 133.702 162.389 133.624L161.61 133.39L161.766 132.688H163.481L163.559 133.468H163.637C164.338 133 165.118 132.532 166.131 132.532C167.691 132.532 168.236 133.546 168.236 134.949V138.457C168.236 138.691 168.236 138.691 168.47 138.691L169.25 138.769V139.471H166.054V139.549Z" fill="#314D48"/>
<path d="M175.486 139.081C174.941 139.393 174.083 139.627 173.225 139.627C170.965 139.627 169.951 138.224 169.951 136.119C169.951 133.546 171.432 132.455 173.459 132.455C174.473 132.455 175.174 132.688 175.486 132.844V134.637L174.551 134.559L174.395 133.702C174.395 133.624 174.317 133.546 174.239 133.546C174.083 133.468 173.693 133.39 173.303 133.39C172.134 133.39 171.199 134.092 171.199 135.963C171.199 137.834 172.056 138.535 173.381 138.535C174.083 138.535 174.707 138.302 175.096 138.068L175.486 139.081Z" fill="#314D48"/>
<path d="M181.958 139.081C181.256 139.471 180.477 139.704 179.541 139.704C177.124 139.704 176.345 138.145 176.345 136.118C176.345 133.702 177.748 132.532 179.385 132.532C181.022 132.532 182.114 133.39 182.114 135.729C182.114 135.884 182.114 136.196 182.114 136.43H177.592C177.67 137.755 178.216 138.691 179.619 138.691C180.399 138.691 180.866 138.535 181.568 138.223L181.958 139.081ZM180.944 135.417C180.944 133.858 180.243 133.468 179.385 133.468C178.45 133.468 177.748 133.935 177.67 135.417H180.944Z" fill="#314D48"/>
<path d="M186.246 142.355V141.653L186.791 141.575C186.947 141.575 187.025 141.498 187.025 141.342V133.935C187.025 133.78 186.947 133.702 186.869 133.624L186.09 133.39L186.246 132.688H188.039L188.195 133.468H188.273C188.974 132.922 189.754 132.532 190.689 132.532C192.171 132.532 193.184 133.468 193.184 135.884C193.184 137.911 192.482 139.704 190.378 139.704C189.598 139.704 188.974 139.549 188.351 139.003V141.342C188.351 141.575 188.351 141.575 188.585 141.575L189.832 141.653V142.355H186.246ZM188.273 137.833C188.74 138.301 189.364 138.691 190.144 138.691C191.391 138.691 191.859 137.6 191.859 135.962C191.859 134.169 191.157 133.546 190.3 133.546C189.442 133.546 188.662 134.091 188.273 134.403V137.833Z" fill="#314D48"/>
<path d="M198.562 139.549L198.406 138.691H198.328C197.704 139.315 196.925 139.705 195.911 139.705C194.274 139.705 194.04 138.535 194.04 137.834C194.04 136.508 194.898 135.885 196.457 135.729L198.25 135.573V134.871C198.25 133.858 198.094 133.39 196.925 133.39C196.145 133.39 195.521 133.39 195.521 134.403L194.352 134.247C194.352 132.61 195.911 132.376 196.925 132.376C198.796 132.376 199.497 132.922 199.497 134.793V138.301C199.497 138.535 199.497 138.535 199.731 138.535L200.433 138.613V139.315H198.562V139.549ZM198.328 136.43L196.847 136.586C195.677 136.664 195.365 137.054 195.365 137.756C195.365 138.457 195.677 138.769 196.301 138.769C197.08 138.769 197.938 138.145 198.328 137.756V136.43Z" fill="#314D48"/>
<path d="M201.603 142.356V141.654L202.538 141.498C202.694 141.498 202.772 141.42 202.85 141.186L203.63 139.393L201.213 133.702C201.135 133.546 201.057 133.546 200.901 133.468L200.355 133.312L200.511 132.611H203.318V133.312L202.46 133.39L204.253 137.912L206.124 133.39L205.189 133.312L205.345 132.611H207.995V133.312L207.528 133.39C207.372 133.39 207.294 133.468 207.216 133.624L203.942 141.42L205.267 141.576V142.278H201.603V142.356Z" fill="#314D48"/>
<path d="M216.883 139.549V138.769L217.507 138.691C217.663 138.691 217.741 138.613 217.741 138.457V135.261C217.741 134.403 217.585 133.624 216.571 133.624C215.87 133.624 215.246 134.013 214.778 134.247C214.778 134.481 214.856 134.793 214.856 135.027V138.457C214.856 138.691 214.856 138.691 215.09 138.691L215.714 138.769V139.471H212.829V138.769L213.453 138.691C213.609 138.691 213.687 138.613 213.687 138.457V135.183C213.687 134.403 213.609 133.546 212.673 133.546C211.972 133.546 211.27 133.935 210.725 134.403V138.457C210.725 138.691 210.725 138.691 210.958 138.691L211.66 138.769V139.471H208.62V138.769L209.321 138.691C209.477 138.691 209.555 138.613 209.555 138.457V133.935C209.555 133.78 209.477 133.702 209.399 133.624L208.62 133.39L208.776 132.688H210.491L210.569 133.468H210.647C211.348 132.922 212.05 132.532 212.985 132.532C213.609 132.532 214.311 132.766 214.622 133.39C215.246 133 216.026 132.532 216.961 132.532C218.52 132.532 218.91 133.468 218.91 135.027V138.457C218.91 138.691 218.91 138.691 219.144 138.691L219.924 138.769V139.471H216.883V139.549Z" fill="#314D48"/>
<path d="M226.471 139.081C225.77 139.471 224.99 139.704 224.055 139.704C221.638 139.704 220.858 138.145 220.858 136.118C220.858 133.702 222.262 132.532 223.899 132.532C225.536 132.532 226.627 133.39 226.627 135.729C226.627 135.884 226.627 136.196 226.627 136.43H222.106C222.184 137.755 222.729 138.691 224.133 138.691C224.912 138.691 225.38 138.535 226.082 138.223L226.471 139.081ZM225.458 135.417C225.458 133.858 224.756 133.468 223.899 133.468C222.963 133.468 222.262 133.935 222.184 135.417H225.458Z" fill="#314D48"/>
<path d="M232.163 139.549V138.769L232.787 138.691C232.943 138.691 233.02 138.613 233.02 138.457V135.261C233.02 134.403 232.865 133.546 231.851 133.546C231.071 133.546 230.37 133.935 229.746 134.403V138.457C229.746 138.691 229.746 138.691 229.98 138.691L230.76 138.769V139.471H227.719V138.769L228.421 138.691C228.577 138.691 228.655 138.613 228.655 138.457V133.935C228.655 133.78 228.577 133.702 228.499 133.624L227.719 133.39L227.875 132.688H229.59L229.668 133.468H229.746C230.448 133 231.227 132.532 232.241 132.532C233.8 132.532 234.346 133.546 234.346 134.949V138.457C234.346 138.691 234.346 138.691 234.58 138.691L235.359 138.769V139.471H232.163V139.549Z" fill="#314D48"/>
<path d="M240.66 139.237C240.114 139.471 239.491 139.627 238.789 139.627C237.542 139.627 236.918 139.003 236.918 137.834V133.624C236.918 133.546 236.918 133.468 236.84 133.468H235.827V132.688C236.84 132.532 237.152 132.143 237.308 130.739H238.087V132.376C238.087 132.454 238.087 132.532 238.165 132.532H240.114V133.468H238.01V137.444C238.01 138.301 238.243 138.613 238.945 138.613C239.335 138.613 239.803 138.457 240.192 138.379L240.66 139.237Z" fill="#314D48"/>
<rect x="125.515" y="189.443" width="256.486" height="95.1102" fill="url(#pattern2)"/>
<path d="M154.204 236.375V229.125C154.204 220.627 161.064 213.767 169.562 213.767H338.577C347.075 213.767 353.935 220.627 353.935 229.125V236.375C353.935 244.873 347.075 251.733 338.577 251.733H169.562C161.064 251.733 154.204 244.873 154.204 236.375Z" fill="#F3F2FF" stroke="#C0BCE3" stroke-width="2" stroke-miterlimit="10"/>
<path d="M175.251 236.608V235.907L176.109 235.829C176.265 235.829 176.343 235.751 176.343 235.595V228.111C176.343 227.877 176.343 227.877 176.109 227.877L175.251 227.799V226.863H179.383C181.878 226.863 182.58 228.189 182.58 229.748C182.58 232.087 181.176 232.944 178.916 232.944H177.512V235.517C177.512 235.751 177.512 235.751 177.746 235.751L179.695 235.829V236.53H175.251V236.608ZM178.838 231.931C180.163 231.931 181.332 231.619 181.332 229.748C181.332 228.345 180.553 227.799 178.994 227.799H177.512V231.853H178.838V231.931Z" fill="#544D9E"/>
<path d="M187.725 236.607L187.569 235.75H187.491C186.868 236.373 186.088 236.763 185.075 236.763C183.437 236.763 183.204 235.594 183.204 234.892C183.204 233.567 184.061 232.943 185.62 232.787L187.413 232.631V231.93C187.413 230.916 187.257 230.449 186.088 230.449C185.309 230.449 184.685 230.449 184.685 231.462L183.515 231.306C183.515 229.669 185.075 229.435 186.088 229.435C187.959 229.435 188.661 229.981 188.661 231.852V235.36C188.661 235.594 188.661 235.594 188.895 235.594L189.596 235.672V236.373H187.725V236.607ZM187.491 233.489L186.01 233.645C184.841 233.723 184.529 234.113 184.529 234.814C184.529 235.516 184.841 235.828 185.464 235.828C186.244 235.828 187.102 235.204 187.491 234.814V233.489Z" fill="#544D9E"/>
<path d="M190.687 239.414V238.713L191.623 238.557C191.779 238.557 191.857 238.479 191.935 238.245L192.714 236.452L190.297 230.761C190.22 230.605 190.142 230.605 189.986 230.527L189.44 230.371L189.596 229.669H192.402V230.371L191.545 230.449L193.338 234.971L195.209 230.449L194.273 230.371L194.429 229.669H197.08V230.371L196.612 230.449C196.456 230.449 196.378 230.527 196.3 230.683L193.026 238.479L194.351 238.635V239.336H190.687V239.414Z" fill="#544D9E"/>
<path d="M208.929 236.608V235.906L209.553 235.828C209.709 235.828 209.787 235.75 209.787 235.594V232.398C209.787 231.54 209.631 230.761 208.617 230.761C207.916 230.761 207.292 231.151 206.824 231.385C206.824 231.618 206.902 231.93 206.902 232.164V235.594C206.902 235.828 206.902 235.828 207.136 235.828L207.76 235.906V236.608H204.797V235.906L205.421 235.828C205.577 235.828 205.655 235.75 205.655 235.594V232.32C205.655 231.54 205.577 230.683 204.641 230.683C203.94 230.683 203.238 231.073 202.692 231.54V235.594C202.692 235.828 202.692 235.828 202.926 235.828L203.628 235.906V236.608H200.587V235.906L201.289 235.828C201.445 235.828 201.523 235.75 201.523 235.594V231.073C201.523 230.917 201.445 230.839 201.367 230.761L200.587 230.527L200.743 229.825H202.458L202.536 230.605H202.614C203.316 230.059 204.018 229.669 204.953 229.669C205.577 229.669 206.278 229.903 206.59 230.527C207.214 230.137 207.994 229.669 208.929 229.669C210.488 229.669 210.878 230.605 210.878 232.164V235.594C210.878 235.828 210.878 235.828 211.112 235.828L211.891 235.906V236.608H208.929Z" fill="#544D9E"/>
<path d="M218.519 236.14C217.817 236.53 217.038 236.764 216.102 236.764C213.685 236.764 212.906 235.204 212.906 233.177C212.906 230.761 214.309 229.591 215.946 229.591C217.583 229.591 218.675 230.449 218.675 232.788C218.675 232.944 218.675 233.255 218.675 233.489H214.153C214.231 234.815 214.777 235.75 216.18 235.75C216.96 235.75 217.427 235.594 218.129 235.282L218.519 236.14ZM217.505 232.476C217.505 230.917 216.804 230.527 215.946 230.527C215.011 230.527 214.309 230.995 214.231 232.476H217.505Z" fill="#544D9E"/>
<path d="M227.172 236.607V235.905L227.796 235.827C227.951 235.827 228.029 235.749 228.029 235.594V232.475C228.029 231.462 227.874 230.682 226.938 230.682C226.158 230.682 225.379 231.15 224.833 231.54V235.594C224.833 235.827 224.833 235.827 225.067 235.827L225.847 235.905V236.607H222.806V235.905L223.508 235.827C223.664 235.827 223.742 235.749 223.742 235.594V227.798C223.742 227.642 223.664 227.564 223.586 227.486L222.806 227.252L222.962 226.55H224.989V230.526C225.613 230.058 226.392 229.669 227.406 229.669C228.809 229.669 229.433 230.604 229.433 232.085V235.594C229.433 235.827 229.433 235.827 229.667 235.827L230.446 235.905V236.607H227.172Z" fill="#544D9E"/>
<path d="M236.762 236.14C236.06 236.53 235.28 236.764 234.345 236.764C231.928 236.764 231.148 235.204 231.148 233.177C231.148 230.761 232.552 229.591 234.189 229.591C235.826 229.591 236.917 230.449 236.917 232.788C236.917 232.944 236.917 233.255 236.917 233.489H232.396C232.474 234.815 233.019 235.75 234.423 235.75C235.202 235.75 235.67 235.594 236.372 235.282L236.762 236.14ZM235.748 232.476C235.748 230.917 235.046 230.527 234.189 230.527C233.253 230.527 232.552 230.995 232.474 232.476H235.748Z" fill="#544D9E"/>
<path d="M238.008 236.608V235.906L238.71 235.828C238.866 235.828 238.944 235.75 238.944 235.594V231.073C238.944 230.917 238.866 230.839 238.788 230.761L238.008 230.527L238.164 229.825H239.879L240.035 230.761H240.113C240.581 230.293 241.205 229.669 242.14 229.669C242.452 229.669 242.842 229.747 243.076 229.825V231.852L242.14 231.774L241.984 230.839C241.984 230.761 241.906 230.683 241.828 230.683C241.205 230.683 240.581 231.229 240.269 231.54V235.594C240.269 235.828 240.269 235.828 240.503 235.828L241.75 235.906V236.608H238.008Z" fill="#544D9E"/>
<path d="M249.312 236.14C248.611 236.53 247.831 236.764 246.896 236.764C244.479 236.764 243.699 235.204 243.699 233.177C243.699 230.761 245.102 229.591 246.74 229.591C248.377 229.591 249.468 230.449 249.468 232.788C249.468 232.944 249.468 233.255 249.468 233.489H244.947C245.025 234.815 245.57 235.75 246.973 235.75C247.753 235.75 248.221 235.594 248.922 235.282L249.312 236.14ZM248.299 232.476C248.299 230.917 247.597 230.527 246.74 230.527C245.804 230.527 245.102 230.995 245.025 232.476H248.299Z" fill="#544D9E"/>
<path d="M251.417 231.463C250.871 231.463 250.559 231.151 250.559 230.605C250.559 230.059 250.871 229.748 251.417 229.748C251.962 229.748 252.274 230.059 252.274 230.605C252.274 231.151 251.962 231.463 251.417 231.463ZM251.417 236.764C250.871 236.764 250.559 236.452 250.559 235.906C250.559 235.361 250.871 235.049 251.417 235.049C251.962 235.049 252.274 235.361 252.274 235.906C252.274 236.452 251.962 236.764 251.417 236.764Z" fill="#544D9E"/>
<path d="M256.174 239.414V238.322L256.719 238.244C256.875 238.244 256.953 238.166 256.953 237.932V231.15C256.953 230.994 256.875 230.916 256.797 230.838L256.096 230.604L256.252 229.513H258.59L258.746 230.214H258.824C259.448 229.669 260.305 229.357 261.085 229.357C262.566 229.357 263.658 230.292 263.658 232.787C263.658 234.424 263.112 236.607 260.929 236.607C260.228 236.607 259.604 236.373 258.98 235.905V237.854C258.98 238.088 258.98 238.088 259.214 238.088L260.617 238.244V239.336H256.174V239.414ZM258.902 234.658C259.214 234.892 259.682 235.204 260.15 235.204C261.085 235.204 261.397 234.346 261.397 233.021C261.397 231.618 260.929 231.072 260.228 231.072C259.682 231.072 259.136 231.384 258.824 231.54V234.658H258.902Z" fill="#29ABE2"/>
<path d="M265.216 239.414V238.323L266.23 238.167C266.386 238.167 266.464 238.089 266.542 237.855L267.087 236.607L264.515 230.994C264.437 230.838 264.359 230.838 264.203 230.761L263.657 230.605L263.891 229.513H267.399V230.605L266.542 230.683L268.023 234.191H268.101L269.504 230.683L268.647 230.605L268.803 229.513H271.765V230.605L271.375 230.683C271.219 230.683 271.141 230.761 271.063 230.916L268.101 238.089L269.504 238.245V239.336H265.216V239.414Z" fill="#29ABE2"/>
<path d="M277.767 236.218C277.221 236.53 276.364 236.764 275.584 236.764C274.025 236.764 273.401 236.14 273.401 234.581V231.073C273.401 230.995 273.401 230.917 273.323 230.917H272.388V229.747C273.557 229.591 274.025 229.046 274.181 227.564H275.428V229.435C275.428 229.513 275.428 229.591 275.506 229.591H277.377V230.917H275.35V234.113C275.35 234.893 275.506 235.204 276.286 235.204C276.675 235.204 277.065 235.126 277.377 234.971L277.767 236.218Z" fill="#29ABE2"/>
<path d="M283.381 236.608V232.242C283.381 231.852 283.303 231.073 282.679 231.073C282.211 231.073 281.588 231.306 281.276 231.54V235.126C281.276 235.36 281.276 235.36 281.51 235.36L282.133 235.438V236.53H278.469V235.438L279.093 235.36C279.249 235.36 279.327 235.282 279.327 235.126V228.032C279.327 227.876 279.249 227.798 279.171 227.72L278.469 227.486L278.625 226.395H281.354V230.215H281.432C282.055 229.747 282.757 229.435 283.537 229.435C284.94 229.435 285.486 230.215 285.486 231.618V235.126C285.486 235.36 285.486 235.36 285.719 235.36L286.421 235.438V236.53H283.381V236.608Z" fill="#29ABE2"/>
<path d="M286.811 236.608V235.516L287.435 235.438C287.591 235.438 287.669 235.36 287.669 235.204V231.306C287.669 231.151 287.591 231.073 287.513 230.995L286.811 230.761L286.967 229.669H289.306L289.462 230.761H289.54C290.007 230.059 290.553 229.591 291.411 229.591C291.722 229.591 292.346 229.669 292.58 229.747V232.164L290.943 232.086L290.787 231.384C290.787 231.228 290.709 231.228 290.631 231.228C290.319 231.228 289.851 231.54 289.696 231.696V235.204C289.696 235.438 289.696 235.438 289.929 235.438L291.255 235.516V236.608H286.811Z" fill="#29ABE2"/>
<path d="M298.428 236.608L298.35 235.906H298.272C297.726 236.296 297.024 236.842 295.855 236.842C294.452 236.842 293.906 236.062 293.906 234.503V231.229C293.906 230.995 293.906 230.995 293.672 230.917L293.048 230.761L293.204 229.669H295.933V234.113C295.933 234.893 296.089 235.205 296.634 235.205C297.258 235.205 297.726 234.893 298.038 234.581V231.151C298.038 230.917 298.038 230.917 297.804 230.917L297.258 230.761L297.414 229.669H300.065V235.205C300.065 235.36 300.065 235.438 300.221 235.438L300.922 235.516V236.608H298.428Z" fill="#29ABE2"/>
<path d="M301.233 237.777L304.975 226.473H306.846L303.104 237.777H301.233Z" fill="#29ABE2"/>
<path d="M312.771 236.607V235.594L313.863 235.438L312.07 233.021L310.277 235.438L311.29 235.594V236.607H307.47V235.594L308.25 235.438C308.406 235.36 308.484 235.36 308.562 235.204L311.134 231.929L308.484 228.421C308.406 228.265 308.328 228.265 308.172 228.187L307.47 228.032L307.626 227.018H311.836V228.032L310.822 228.187L312.538 230.604L314.331 228.187L313.317 228.032L313.473 227.018H316.981V228.032L316.358 228.187C316.202 228.265 316.124 228.343 316.046 228.421L313.551 231.696L316.28 235.282C316.358 235.438 316.436 235.516 316.591 235.516L317.293 235.672V236.685H312.771V236.607Z" fill="#29ABE2"/>
<path d="M319.164 236.608V235.517L320.489 235.439C320.645 235.439 320.723 235.361 320.723 235.205V233.022L318.072 228.345C317.994 228.189 317.916 228.189 317.76 228.111L317.137 227.955L317.293 226.941H321.347V227.955L320.333 228.111L321.97 231.307H322.048L323.685 228.111L322.672 227.955L322.828 226.941H326.258V227.955L325.712 228.111C325.556 228.189 325.478 228.189 325.4 228.345L322.984 232.944V235.205C322.984 235.361 322.984 235.439 323.218 235.439L324.621 235.517V236.608H319.164Z" fill="#29ABE2"/>
<path d="M326.648 236.608V235.283L331.638 228.345H328.675C328.519 228.345 328.519 228.345 328.441 228.5L328.208 229.748L326.726 229.826V226.863H334.055V228.189L329.143 235.127H332.417C332.573 235.127 332.573 235.127 332.651 234.971L332.885 233.568H334.366V236.608H326.648Z" fill="#29ABE2"/>
<rect x="222.963" y="325.872" width="153.58" height="95.1102" fill="url(#pattern3)"/>
<path d="M251.262 372.804V365.554C251.262 357.056 258.122 350.196 266.62 350.196H332.963C341.46 350.196 348.321 357.056 348.321 365.554V372.804C348.321 381.302 341.46 388.162 332.963 388.162H266.62C258.122 388.162 251.262 381.302 251.262 372.804Z" fill="#F3F2FF" stroke="#C0BCE3" stroke-width="2" stroke-miterlimit="10"/>
<path d="M273.715 373.036V372.335L275.118 372.257C275.274 372.257 275.352 372.179 275.352 372.023V364.383H273.247C273.091 364.383 273.091 364.383 273.013 364.539L272.779 365.708H271.844V363.292H279.874V365.552H279.094L278.86 364.383C278.86 364.227 278.782 364.227 278.626 364.227H276.521V371.867C276.521 372.023 276.521 372.101 276.755 372.101L278.236 372.179V372.88H273.715V373.036Z" fill="#544D9E"/>
<path d="M285.409 373.037V372.335L286.032 372.257C286.188 372.257 286.266 372.179 286.266 372.023V368.905C286.266 367.891 286.11 367.112 285.175 367.112C284.395 367.112 283.616 367.58 283.07 367.969V372.023C283.07 372.257 283.07 372.257 283.304 372.257L284.083 372.335V373.037H281.043V372.335L281.745 372.257C281.901 372.257 281.978 372.179 281.978 372.023V364.227C281.978 364.071 281.901 363.993 281.823 363.915L281.043 363.682L281.199 362.98H283.226V366.956C283.849 366.488 284.629 366.098 285.643 366.098C287.046 366.098 287.669 367.034 287.669 368.515V372.023C287.669 372.257 287.669 372.257 287.903 372.257L288.683 372.335V373.037H285.409Z" fill="#544D9E"/>
<path d="M293.906 373.037L293.75 372.179H293.673C293.049 372.803 292.269 373.192 291.256 373.192C289.619 373.192 289.385 372.023 289.385 371.321C289.385 369.996 290.242 369.372 291.801 369.217L293.595 369.061V368.359C293.595 367.345 293.439 366.878 292.269 366.878C291.49 366.878 290.866 366.878 290.866 367.891L289.697 367.735C289.697 366.098 291.256 365.864 292.269 365.864C294.14 365.864 294.842 366.41 294.842 368.281V371.789C294.842 372.023 294.842 372.023 295.076 372.023L295.777 372.101V372.803H293.906V373.037ZM293.673 369.918L292.191 370.074C291.022 370.152 290.71 370.542 290.71 371.243C290.71 371.945 291.022 372.257 291.646 372.257C292.425 372.257 293.283 371.633 293.673 371.243V369.918Z" fill="#544D9E"/>
<path d="M301.078 373.036V372.334L301.702 372.256C301.858 372.256 301.936 372.178 301.936 372.022V368.748C301.936 367.891 301.78 367.033 300.767 367.033C299.987 367.033 299.285 367.423 298.662 367.891V371.944C298.662 372.178 298.662 372.178 298.896 372.178L299.675 372.256V372.958H296.635V372.256L297.336 372.178C297.492 372.178 297.57 372.1 297.57 371.944V367.423C297.57 367.267 297.492 367.189 297.414 367.111L296.635 366.877L296.791 366.175H298.506L298.584 366.955H298.662C299.363 366.487 300.143 366.02 301.156 366.02C302.716 366.02 303.261 367.033 303.261 368.436V371.944C303.261 372.178 303.261 372.178 303.495 372.178L304.275 372.256V372.958H301.078V373.036Z" fill="#544D9E"/>
<path d="M309.108 373.037V372.335L309.966 372.257L308.329 369.45L307.237 370.698V371.945C307.237 372.179 307.237 372.179 307.471 372.179L308.251 372.257V372.959H304.977V372.257L305.834 372.179C305.99 372.179 306.068 372.101 306.068 371.945V364.149C306.068 363.993 305.99 363.915 305.912 363.837L305.132 363.603L305.288 362.902H307.393V369.372L310.2 366.176H311.681V366.878L310.901 367.034C310.746 367.034 310.668 367.112 310.59 367.268L309.342 368.671L311.369 372.023C311.447 372.179 311.525 372.179 311.759 372.257L312.461 372.413V373.115H309.108V373.037Z" fill="#544D9E"/>
<path d="M316.982 368.046L316.826 367.189C316.826 367.111 316.826 367.033 316.67 367.033C316.514 366.955 316.047 366.877 315.657 366.877C314.643 366.877 314.254 367.267 314.254 367.891C314.254 368.67 315.033 368.826 315.891 369.06C316.904 369.294 318.074 369.684 318.074 371.087C318.074 372.646 316.748 373.192 315.345 373.192C314.254 373.192 313.162 372.88 312.928 372.724V370.931L313.786 371.009L313.942 371.944C313.942 372.022 314.02 372.1 314.098 372.1C314.254 372.178 314.721 372.334 315.423 372.334C316.358 372.334 316.904 372.022 316.904 371.243C316.904 370.463 316.125 370.229 315.267 370.073C314.254 369.84 313.084 369.528 313.084 368.124C313.084 366.565 314.331 366.02 315.735 366.02C316.67 366.02 317.606 366.253 317.84 366.409V368.124L316.982 368.046Z" fill="#544D9E"/>
<path d="M319.944 373.193C319.399 373.193 319.087 372.881 319.087 372.335C319.087 371.789 319.399 371.478 319.944 371.478C320.49 371.478 320.802 371.789 320.802 372.335C320.802 372.881 320.49 373.193 319.944 373.193Z" fill="#544D9E"/>
<path d="M322.751 373.193C322.205 373.193 321.894 372.881 321.894 372.335C321.894 371.789 322.205 371.478 322.751 371.478C323.297 371.478 323.609 371.789 323.609 372.335C323.687 372.881 323.375 373.193 322.751 373.193Z" fill="#544D9E"/>
<path d="M325.635 373.193C325.09 373.193 324.778 372.881 324.778 372.335C324.778 371.789 325.09 371.478 325.635 371.478C326.181 371.478 326.493 371.789 326.493 372.335C326.493 372.881 326.181 373.193 325.635 373.193Z" fill="#544D9E"/>
<rect y="265.063" width="151.241" height="95.1102" fill="url(#pattern4)"/>
<path d="M28.0649 311.605V304.355C28.0649 295.857 34.9253 288.997 43.4229 288.997H107.661C116.159 288.997 123.019 295.857 123.019 304.355V311.605C123.019 320.103 116.159 326.963 107.661 326.963H43.4229C34.9253 326.963 28.0649 320.103 28.0649 311.605Z" fill="#F2FFFC" stroke="#A1C4BE" stroke-width="2" stroke-miterlimit="10"/>
<path d="M49.1924 311.84V311.139L50.0499 311.061C50.2059 311.061 50.2838 310.983 50.2838 310.827V303.265C50.2838 303.031 50.2838 303.031 50.0499 303.031L49.1924 302.953V302.251H53.3242C55.8189 302.251 56.5205 303.577 56.5205 305.136C56.5205 307.475 55.1173 308.332 52.8565 308.332H51.4532V310.905C51.4532 311.139 51.4532 311.139 51.6871 311.139L53.6361 311.217V311.918H49.1924V311.84ZM52.7785 307.163C54.1038 307.163 55.2732 306.851 55.2732 304.98C55.2732 303.577 54.4936 303.031 52.9344 303.031H51.4532V307.085H52.7785V307.163Z" fill="#314D48"/>
<path d="M61.588 311.84L61.4321 310.982H61.3542C60.7305 311.606 59.9509 311.996 58.9374 311.996C57.3003 311.996 57.0664 310.826 57.0664 310.125C57.0664 308.799 57.924 308.176 59.4831 308.02L61.2762 307.864V307.162C61.2762 306.149 61.1203 305.681 59.9509 305.681C59.1713 305.681 58.5476 305.681 58.5476 306.694L57.3782 306.539C57.3782 304.901 58.9374 304.667 59.9509 304.667C61.8219 304.667 62.5235 305.213 62.5235 307.084V310.592C62.5235 310.826 62.5235 310.826 62.7574 310.826L63.4591 310.904V311.606H61.588V311.84ZM61.3542 308.721L59.8729 308.877C58.7036 308.955 58.3917 309.345 58.3917 310.047C58.3917 310.748 58.7035 311.06 59.3272 311.06C60.1068 311.06 60.9644 310.436 61.3542 310.047V308.721Z" fill="#314D48"/>
<path d="M64.082 311.84V311.06L64.9396 310.982C65.0955 310.982 65.1735 310.904 65.1735 310.749V306.227C65.1735 306.071 65.0955 305.993 65.0175 305.915L64.238 305.681L64.3939 304.98H66.4208V310.749C66.4208 310.982 66.4208 310.982 66.6547 310.982L67.5122 311.06V311.762H64.082V311.84ZM65.6412 303.498C65.0955 303.498 64.7837 303.186 64.7837 302.641C64.7837 302.095 65.0955 301.783 65.6412 301.783C66.1869 301.783 66.4988 302.095 66.4988 302.641C66.4988 303.186 66.1869 303.498 65.6412 303.498Z" fill="#314D48"/>
<path d="M73.36 311.84L73.282 310.983H73.2041C72.5804 311.606 71.8788 312.074 70.8653 312.074C69.3061 312.074 68.3706 311.06 68.3706 308.644C68.3706 305.993 69.54 304.902 71.1771 304.902C71.9567 304.902 72.7363 305.136 73.2041 305.525V303.031C73.2041 302.875 73.1261 302.797 73.0482 302.797L72.2686 302.563L72.4245 301.861H74.4514V310.905C74.4514 311.138 74.4514 311.138 74.6853 311.138L75.3869 311.216V311.918H73.36V311.84ZM73.1261 306.539C72.7363 306.227 72.0347 305.837 71.2551 305.837C70.0078 305.837 69.54 306.929 69.54 308.566C69.54 310.437 70.1637 311.06 71.0992 311.06C71.8788 311.06 72.5024 310.515 73.1261 309.969V306.539Z" fill="#314D48"/>
<path d="M77.4137 311.996C76.868 311.996 76.5562 311.684 76.5562 311.138C76.5562 310.592 76.868 310.28 77.4137 310.28C77.9594 310.28 78.2713 310.592 78.2713 311.138C78.2713 311.684 77.9594 311.996 77.4137 311.996ZM76.868 309.345L76.7121 304.356V302.095H78.0374V304.356L77.8815 309.345H76.868Z" fill="#314D48"/>
<path d="M80.922 311.996C80.3763 311.996 80.0645 311.684 80.0645 311.138C80.0645 310.592 80.3763 310.28 80.922 310.28C81.4677 310.28 81.7796 310.592 81.7796 311.138C81.7796 311.684 81.4677 311.996 80.922 311.996ZM80.3763 309.345L80.2204 304.356V302.095H81.5457V304.356L81.3898 309.345H80.3763Z" fill="#314D48"/>
<path d="M96.2019 298.273L95.1105 298.507L89.5754 304.822L86.9248 309.655L87.6264 313.709L92.3819 316.36L95.8901 316.282L101.035 316.36L101.893 315.814L102.205 314.411L101.893 313.865L103.218 313.787L103.686 313.164L103.998 312.306L103.452 311.215L103.998 310.981L104.699 310.045L104.388 309.032L103.452 308.564L103.92 307.784L103.998 306.537L102.984 305.991L98.2289 305.835L97.917 305.602L97.6052 305.368H94.253V304.744L95.6562 301.236L96.2799 299.521L96.2019 298.273Z" fill="#FCF390"/>
<path d="M95.4997 315.971H92.2254C89.185 315.971 87.0801 313.554 87.0801 310.514C87.0801 308.721 87.7038 307.084 88.8731 305.758" stroke="black" stroke-linecap="round" stroke-linejoin="round"/>
<path d="M95.344 305.681H93.7068L96.2795 299.054C96.5913 298.275 95.266 297.651 94.4864 298.664L89.0293 305.603" stroke="black" stroke-linecap="round" stroke-linejoin="round"/>
<path d="M96.3569 307.006C96.4349 307.786 97.0586 308.331 97.8382 308.253H102.594C103.295 308.331 103.919 307.864 104.075 307.162C104.153 306.46 103.685 305.837 102.983 305.681C102.906 305.681 102.75 305.681 102.672 305.681H97.9161C97.0586 305.681 96.4349 306.226 96.3569 307.006Z" stroke="black" stroke-linecap="round" stroke-linejoin="round"/>
<path d="M96.6694 314.802C96.7474 315.581 97.3711 316.127 98.1507 316.049H100.723C101.425 316.127 102.049 315.659 102.205 314.958C102.282 314.256 101.815 313.632 101.113 313.477C101.035 313.477 100.879 313.477 100.801 313.477H98.2286C97.3711 313.477 96.7474 314.022 96.6694 314.802Z" stroke="black" stroke-linecap="round" stroke-linejoin="round"/>
<path d="M94.7988 309.657C94.8768 310.436 95.5005 310.982 96.2801 310.904H103.218C103.92 310.982 104.544 310.514 104.7 309.813C104.778 309.111 104.31 308.487 103.608 308.332C103.53 308.332 103.374 308.332 103.296 308.332H96.358C95.5005 308.332 94.8768 308.955 94.7988 309.657Z" stroke="black" stroke-linecap="round" stroke-linejoin="round"/>
<path d="M95.4995 312.229C95.5775 313.009 96.2011 313.554 96.9807 313.476H102.438C103.14 313.554 103.763 313.087 103.919 312.385C104.075 311.683 103.529 311.06 102.828 310.904C102.75 310.904 102.594 310.904 102.516 310.904H97.0587C96.2791 310.904 95.5775 311.45 95.4995 312.229Z" stroke="black" stroke-linecap="round" stroke-linejoin="round"/>
<path d="M87.7817 307.396C87.314 308.331 87.0801 309.267 87.0801 310.28C87.0801 313.398 88.7952 315.971 92.6152 315.971" stroke="black" stroke-miterlimit="10"/>
<path d="M107.818 427.295V426.671L109.066 426.593C109.222 426.593 109.222 426.515 109.222 426.359V419.577H107.351C107.195 419.577 107.195 419.577 107.195 419.733L107.039 420.746H106.259V418.719H113.354V420.746H112.574L112.418 419.733C112.418 419.577 112.34 419.577 112.262 419.577H110.391V426.359C110.391 426.515 110.391 426.593 110.547 426.593L111.872 426.671V427.295H107.818Z" fill="#CCCCCC"/>
<path d="M113.899 429.868V429.244L114.756 429.166C114.912 429.166 114.912 429.088 114.99 428.932L115.692 427.373L113.587 422.306C113.509 422.15 113.509 422.15 113.353 422.072L112.885 421.916L113.041 421.292H115.458V421.916L114.678 421.994L116.238 425.97L117.875 421.994L117.095 421.916L117.251 421.292H119.59V421.916L119.2 421.994C119.044 421.994 118.966 422.072 118.888 422.228L116.004 429.166L117.173 429.322V429.946H113.899V429.868Z" fill="#CCCCCC"/>
<path d="M120.214 429.868V429.244L120.682 429.166C120.838 429.166 120.916 429.088 120.916 428.932V422.384C120.916 422.228 120.916 422.15 120.76 422.15L120.058 421.916L120.136 421.292H121.695L121.773 421.994C122.397 421.526 123.099 421.214 123.878 421.214C125.203 421.214 126.139 422.072 126.139 424.177C126.139 425.97 125.515 427.607 123.644 427.607C122.943 427.607 122.397 427.451 121.851 426.983V429.01C121.851 429.166 121.851 429.244 122.007 429.244L123.099 429.322V429.946H120.214V429.868ZM122.007 425.814C122.397 426.204 123.021 426.594 123.644 426.594C124.736 426.594 125.203 425.658 125.203 424.177C125.203 422.54 124.58 422.072 123.8 422.072C123.021 422.072 122.319 422.54 122.007 422.774V425.814Z" fill="#CCCCCC"/>
<path d="M132.297 426.906C131.674 427.217 130.972 427.451 130.114 427.451C127.932 427.451 127.23 426.048 127.23 424.255C127.23 422.072 128.477 421.059 129.959 421.059C131.44 421.059 132.375 421.838 132.375 423.865C132.375 424.021 132.375 424.255 132.375 424.489H128.399C128.399 425.658 128.945 426.516 130.192 426.516C130.894 426.516 131.284 426.36 131.908 426.126L132.297 426.906ZM131.362 423.709C131.362 422.384 130.738 421.994 130.037 421.994C129.257 421.994 128.555 422.384 128.477 423.709H131.362Z" fill="#CCCCCC"/>
<path d="M139.938 427.295V426.672L140.483 426.594C140.639 426.594 140.717 426.516 140.717 426.36V423.631C140.717 422.774 140.561 422.072 139.704 422.072C139.002 422.072 138.301 422.462 137.833 422.852V426.438C137.833 426.594 137.833 426.672 137.989 426.672L138.69 426.75V427.373H135.962V426.75L136.585 426.672C136.741 426.672 136.741 426.594 136.741 426.438V419.577C136.741 419.421 136.741 419.343 136.585 419.343L135.884 419.11L135.962 418.486H137.755V421.994C138.301 421.604 139.002 421.214 139.86 421.214C141.107 421.214 141.653 421.994 141.653 423.397V426.516C141.653 426.672 141.653 426.75 141.809 426.75L142.51 426.827V427.451H139.938V427.295Z" fill="#CCCCCC"/>
<path d="M148.436 426.906C147.812 427.217 147.11 427.451 146.253 427.451C144.07 427.451 143.368 426.048 143.368 424.255C143.368 422.072 144.616 421.059 146.097 421.059C147.578 421.059 148.513 421.838 148.513 423.865C148.513 424.021 148.513 424.255 148.513 424.489H144.538C144.538 425.658 145.083 426.516 146.331 426.516C147.032 426.516 147.422 426.36 148.046 426.126L148.436 426.906ZM147.5 423.709C147.5 422.384 146.876 421.994 146.175 421.994C145.395 421.994 144.693 422.384 144.616 423.709H147.5Z" fill="#CCCCCC"/>
<path d="M149.526 427.295V426.672L150.15 426.594C150.306 426.594 150.306 426.516 150.306 426.36V422.306C150.306 422.15 150.306 422.072 150.15 422.072L149.448 421.838L149.526 421.215H151.085L151.241 421.994C151.631 421.526 152.177 421.059 153.034 421.059C153.268 421.059 153.658 421.137 153.892 421.137V422.93H153.034L152.878 422.15C152.878 422.072 152.878 421.994 152.723 421.994C152.177 421.994 151.553 422.462 151.319 422.774V426.36C151.319 426.516 151.319 426.594 151.475 426.594L152.567 426.672V427.295H149.526Z" fill="#CCCCCC"/>
<path d="M159.583 426.906C158.96 427.217 158.258 427.451 157.401 427.451C155.218 427.451 154.516 426.048 154.516 424.255C154.516 422.072 155.763 421.059 157.245 421.059C158.726 421.059 159.661 421.838 159.661 423.865C159.661 424.021 159.661 424.255 159.661 424.489H155.686C155.686 425.658 156.231 426.516 157.479 426.516C158.18 426.516 158.57 426.36 159.194 426.126L159.583 426.906ZM158.648 423.709C158.648 422.384 158.024 421.994 157.323 421.994C156.543 421.994 155.841 422.384 155.763 423.709H158.648Z" fill="#CCCCCC"/>
<path d="M161.299 427.451C160.753 427.451 160.52 427.217 160.52 426.671C160.52 426.203 160.753 425.892 161.299 425.892C161.767 425.892 162.079 426.125 162.079 426.671C162.079 427.217 161.845 427.451 161.299 427.451Z" fill="#CCCCCC"/>
<path d="M163.871 427.451C163.326 427.451 163.092 427.217 163.092 426.671C163.092 426.203 163.326 425.892 163.871 425.892C164.339 425.892 164.651 426.125 164.651 426.671C164.651 427.217 164.339 427.451 163.871 427.451Z" fill="#CCCCCC"/>
<path d="M166.366 427.451C165.82 427.451 165.586 427.217 165.586 426.671C165.586 426.203 165.82 425.892 166.366 425.892C166.834 425.892 167.146 426.125 167.146 426.671C167.146 427.217 166.834 427.451 166.366 427.451Z" fill="#CCCCCC"/>
<path d="M269.037 435.013H257.889C254.926 435.013 252.51 432.597 252.51 429.634V418.486C252.51 415.524 254.926 413.107 257.889 413.107H269.037C272 413.107 274.416 415.524 274.416 418.486V429.634C274.416 432.597 272 435.013 269.037 435.013Z" fill="#80CDED"/>
<path d="M264.594 419.422H262.489V428.777H264.594V419.422Z" fill="white"/>
<path d="M268.18 425.191V423.086H258.825V425.191H268.18Z" fill="white"/>
<defs>
<pattern id="pattern0" patternContentUnits="objectBoundingBox" width="1" height="1">
<use xlink:href="#image0"/>
</pattern>
<pattern id="pattern1" patternContentUnits="objectBoundingBox" width="1" height="1">
<use xlink:href="#image1"/>
</pattern>
<pattern id="pattern2" patternContentUnits="objectBoundingBox" width="1" height="1">
<use xlink:href="#image2"/>
</pattern>
<pattern id="pattern3" patternContentUnits="objectBoundingBox" width="1" height="1">
<use xlink:href="#image3"/>
</pattern>
<pattern id="pattern4" patternContentUnits="objectBoundingBox" width="1" height="1">
<use xlink:href="#image4"/>
</pattern>
<image id="image0" xlink:href="data:image/png;base64,iVBORw0KGgoAAAANSUhEUgAAAUkAAAB5CAYAAAC0h9OxAAAACXBIWXMAAAsSAAALEgHS3X78AAAA"/>
<image id="image1" xlink:href="data:image/png;base64,iVBORw0KGgoAAAANSUhEUgAAAXYAAAB6CAYAAACr63iqAAAACXBIWXMAAAsSAAALEgHS3X78AAAA"/>
<image id="image2" xlink:href="data:image/png;base64,iVBORw0KGgoAAAANSUhEUgAAAUkAAAB6CAYAAAAyE6EfAAAACXBIWXMAAAsSAAALEgHS3X78AAAA"/>
<image id="image3" xlink:href="data:image/png;base64,iVBORw0KGgoAAAANSUhEUgAAAMUAAAB6CAYAAAAPpJdQAAAACXBIWXMAAAsSAAALEgHS3X78AAAA"/>
<image id="image4" xlink:href="data:image/png;base64,iVBORw0KGgoAAAANSUhEUgAAAMIAAAB6CAYAAADteIwpAAAACXBIWXMAAAsSAAALEgHS3X78AAAA"/>
</defs>
</svg>
