<svg width="14" height="25" viewBox="0 0 14 25" fill="none" xmlns="http://www.w3.org/2000/svg">
<path d="M13.0857 0C12.8306 0 12.5754 0 12.3203 0C11.1174 0.0359517 9.87808 0 8.67521 0.107855C7.32655 0.251662 6.19658 0.862841 5.28532 1.86949C4.30116 2.98399 3.9002 4.27825 3.8273 5.71632C3.79085 6.68702 3.8273 7.69366 3.8273 8.70031V8.98792H3.49925C2.55153 8.98792 1.60382 8.98792 0.656109 8.98792C0.182252 8.98792 0 9.16768 0 9.63505C0 10.9293 0 12.1876 0 13.4819C0 13.9493 0.182252 14.129 0.656109 14.129H3.79085V14.3807C3.79085 17.6523 3.79085 20.9598 3.79085 24.2314C3.79085 24.555 3.9002 24.7707 4.1918 24.9145H8.74811C9.07617 24.7707 9.14907 24.5191 9.14907 24.1955C9.14907 20.9239 9.14907 17.6523 9.14907 14.3807V14.0931H12.8306C13.3044 14.0931 13.4867 13.9133 13.4867 13.4459V9.63505C13.4867 9.13173 13.3044 8.95197 12.7941 8.95197C11.6642 8.95197 10.5342 8.95197 9.40422 8.95197H9.14907C9.14907 7.98128 9.14907 7.08248 9.14907 6.14774C9.14907 5.89608 9.22197 5.64442 9.33132 5.42871C9.55002 4.99729 9.98743 4.85348 10.4613 4.85348C11.3361 4.81753 12.1745 4.81753 13.0493 4.81753C13.4502 4.81753 13.6325 4.63777 13.6325 4.2423C13.6325 3.01994 13.6325 1.76163 13.6325 0.539275C13.6325 0.21571 13.4502 0.0359517 13.0857 0Z" fill="white"/>
</svg>
