<svg width="34" height="34" viewBox="0 0 34 34" fill="none" xmlns="http://www.w3.org/2000/svg">
<path d="M11.5557 0C14.8644 0 18.1387 0 21.4474 0C22.2057 0.0344659 22.9984 0.0689317 23.7566 0.137863C25.1008 0.206795 26.445 0.448056 27.6857 0.99951C30.7187 2.37815 32.3386 4.79076 32.8212 8.03055C32.9246 8.61647 32.959 9.16792 33.028 9.75384C33.028 14.1999 33.028 18.646 33.028 23.0577C32.9935 23.1955 32.9935 23.3679 32.959 23.5057C32.8556 24.2295 32.8212 24.9533 32.6833 25.6771C32.0629 28.8824 30.2707 31.1227 27.2377 32.2945C25.7901 32.846 24.2392 33.0183 22.6882 33.0183C19.1727 33.0528 15.6916 33.0872 12.1761 33.0872C10.4528 33.0872 8.72952 33.0872 7.04069 32.6736C4.31788 31.9843 2.2844 30.4334 1.04363 27.8829C0.285377 26.2975 0.0785822 24.6086 0.0441163 22.8853C0.0441163 19.3009 -0.0248154 15.7164 0.00965044 12.132C0.00965044 10.6155 0.113048 9.09899 0.319843 7.61696C0.664502 5.30774 1.76741 3.37766 3.66303 1.96455C5.28293 0.758249 7.17855 0.275727 9.14311 0.137863C9.97029 0.0689317 10.763 0.0344659 11.5557 0ZM16.5533 30.1921V30.1576C17.4149 30.1576 18.311 30.1921 19.1727 30.1576C21.0338 30.0887 22.9295 30.1232 24.7906 29.8819C27.3411 29.5717 29.0644 28.0897 29.6848 25.5737C29.926 24.5397 30.0294 23.4713 30.0294 22.4028C30.0984 19.0596 30.0984 15.7509 30.0639 12.4077C30.0639 11.0635 29.995 9.71938 29.8226 8.37521C29.478 5.72133 27.8236 3.92911 25.2042 3.41212C24.0668 3.17086 22.895 3.10193 21.7231 3.10193C18.828 3.06746 15.9329 3.06746 13.0377 3.06746C11.3834 3.06746 9.72903 3.06746 8.07466 3.34319C5.55866 3.79125 3.83536 5.37668 3.31837 7.89268C3.11158 8.96113 3.00818 10.0985 3.00818 11.2014C3.00818 13.7863 2.97372 16.4402 3.00818 19.0941C3.04265 20.9552 3.07711 22.8509 3.24944 24.712C3.42177 26.5387 4.28342 28.0208 5.86885 29.0203C6.93729 29.6751 8.1436 29.9508 9.41883 29.9853C11.797 30.0887 14.1751 30.1232 16.5533 30.1921Z" fill="white"/>
<path d="M8.04016 16.5433C8.04016 11.8559 11.8659 8.03022 16.5532 8.06468C21.2751 8.09915 25.0663 11.8904 25.0318 16.5778C25.0318 21.2651 21.2406 25.0564 16.5532 25.0564C11.8659 25.0564 8.04016 21.2306 8.04016 16.5433ZM11.0387 16.5433C11.0387 19.5763 13.4858 22.0578 16.5188 22.0578C19.5862 22.0578 22.0333 19.6108 22.0333 16.5778C22.0678 13.5103 19.6207 11.0287 16.5532 11.0287C13.4858 11.0287 11.0387 13.5103 11.0387 16.5433Z" fill="white"/>
<path d="M25.4109 5.72168C26.5139 5.75615 27.3755 6.65226 27.341 7.75517C27.3066 8.85807 26.4105 9.68525 25.3076 9.68525C24.2046 9.68525 23.343 8.75468 23.3775 7.65177C23.4119 6.58333 24.3425 5.72168 25.4109 5.72168Z" fill="white"/>
</svg>
