<svg width="60" height="60" viewBox="0 0 60 60" fill="none" xmlns="http://www.w3.org/2000/svg">
<path d="M45.9701 47.589L3.29883 39.9097L30.5325 12.2803L35.045 16.7928L15.8865 35.8722L47.0785 41.4139L45.9701 47.589Z" fill="#B8B0FF"/>
<path d="M8.44408 44.6606C12.1605 44.6606 15.1733 41.6478 15.1733 37.9314C15.1733 34.2149 12.1605 31.2021 8.44408 31.2021C4.72763 31.2021 1.71484 34.2149 1.71484 37.9314C1.71484 41.6478 4.72763 44.6606 8.44408 44.6606Z" fill="#7C6FF5"/>
<path d="M32.7478 24.7104C38.388 24.7104 42.9604 20.138 42.9604 14.4978C42.9604 8.8575 38.388 4.28516 32.7478 4.28516C27.1075 4.28516 22.5352 8.8575 22.5352 14.4978C22.5352 20.138 27.1075 24.7104 32.7478 24.7104Z" fill="#7C6FF5"/>
<path d="M46.523 55.6651C52.6879 55.6651 57.6856 50.6674 57.6856 44.5025C57.6856 38.3375 52.6879 33.3398 46.523 33.3398C40.358 33.3398 35.3604 38.3375 35.3604 44.5025C35.3604 50.6674 40.358 55.6651 46.523 55.6651Z" fill="#7C6FF5"/>
</svg>
