<svg width="61" height="56" viewBox="0 0 61 56" fill="none" xmlns="http://www.w3.org/2000/svg">
<path d="M27.9288 55.8576C43.3534 55.8576 55.8576 43.3534 55.8576 27.9288C55.8576 12.5041 43.3534 0 27.9288 0C12.5042 0 0 12.5041 0 27.9288C0 43.3534 12.5042 55.8576 27.9288 55.8576Z" fill="#DDEAFB"/>
<path d="M27.929 40.7408C35.0048 40.7408 40.7408 35.0048 40.7408 27.929C40.7408 20.8532 35.0048 15.1172 27.929 15.1172C20.8533 15.1172 15.1172 20.8532 15.1172 27.929C15.1172 35.0048 20.8533 40.7408 27.929 40.7408Z" fill="#A2C6F5"/>
<path d="M34.1616 35.7796L58.8999 29.8664C59.969 29.6159 60.6371 28.5301 60.3866 27.4444L56.979 13.196C56.7284 12.127 55.6427 11.4588 54.5569 11.7094L29.8186 17.6225C28.7495 17.8731 28.0814 18.9588 28.3319 20.0446L31.7395 34.2929C32.0068 35.3787 33.0925 36.0468 34.1616 35.7796Z" fill="#140F7D"/>
<path d="M54.1382 24.254V38.6861C54.1382 39.7885 53.2362 40.6905 52.1337 40.6905H27.0279C25.9254 40.6905 25.0234 39.7885 25.0234 38.6861V24.254C25.0234 23.1515 25.9254 22.2495 27.0279 22.2495H52.1337C53.2362 22.2495 54.1382 23.1515 54.1382 24.254Z" fill="#3852BA"/>
<path opacity="0.3" d="M46.9388 22.2495C41.7774 25.9578 32.2061 32.8397 25.0234 38.0179V24.254C25.0234 23.1515 25.9254 22.2495 27.0279 22.2495H46.9388Z" fill="#DDEAFB"/>
</svg>
