<svg width="63" height="63" viewBox="0 0 63 63" fill="none" xmlns="http://www.w3.org/2000/svg">
<path d="M27.9 62.5002C43.3 62.5002 55.8 50.0002 55.8 34.6002C55.8 19.2002 43.3 6.7002 27.9 6.7002C12.5 6.7002 0 19.2002 0 34.6002C0 50.0002 12.5 62.5002 27.9 62.5002Z" fill="#DDEAFB"/>
<path d="M27.8996 47.4003C34.9996 47.4003 40.6996 41.7003 40.6996 34.6003C40.6996 27.5003 34.9996 21.8003 27.8996 21.8003C20.7996 21.8003 15.0996 27.5003 15.0996 34.6003C15.0996 41.7003 20.7996 47.4003 27.8996 47.4003Z" fill="#A2C6F5"/>
<path d="M49.0992 12.2H46.0992V8.2C46.0992 5.3 43.7992 3 40.8992 3C37.9992 3 35.6992 5.3 35.6992 8.2V20.6H32.6992V8.2C32.6992 3.7 36.3992 0 40.8992 0C45.3992 0 49.0992 3.7 49.0992 8.2V12.2Z" fill="#140F7D"/>
<path d="M30.6992 19.7002H37.5992L33.8992 23.4002L30.6992 19.7002Z" fill="#140F7D"/>
<path d="M44 11.2998H50.9L47.3 14.8998L44 11.2998Z" fill="#140F7D"/>
<path d="M44.3 36.3C44.3 42.6 39.2 47.7 32.9 47.7C28.8 47.7 25.1 45.5 23.1 42.2C22.1 40.5 21.5 38.5 21.5 36.4C21.5 30.1 26.6 25 32.9 25C36 25 38.8 26.3 40.9 28.3C43 30.3 44.3 33.2 44.3 36.3Z" fill="#140F7D"/>
<path d="M33.3996 35.8002C33.8996 36.0002 34.2996 36.1002 34.6996 36.3002C34.9996 36.5002 35.2996 36.7002 35.4996 37.0002C35.6996 37.3002 35.7996 37.7002 35.7996 38.2002C35.7996 38.6002 35.6996 38.9002 35.4996 39.3002C35.2996 39.6002 34.9996 39.9002 34.5996 40.1002C34.1996 40.3002 33.6996 40.4002 33.0996 40.4002V41.3002H32.6996V40.4002C31.9996 40.3002 31.2996 40.1002 30.8996 39.7002C30.3996 39.3002 30.1996 38.8002 30.0996 38.1002H31.6996C31.6996 38.4002 31.7996 38.6002 31.9996 38.8002C32.1996 39.0002 32.3996 39.1002 32.6996 39.2002V37.1002L32.4996 37.0002C31.9996 36.8002 31.5996 36.7002 31.1996 36.6002C30.8996 36.5002 30.5996 36.2002 30.3996 35.9002C30.1996 35.6002 30.0996 35.2002 30.0996 34.7002C30.0996 34.3002 30.1996 33.9002 30.3996 33.6002C30.5996 33.3002 30.8996 33.0002 31.2996 32.9002C31.6996 32.7002 32.0996 32.6002 32.6996 32.6002V31.7002H33.0996V32.6002C33.7996 32.7002 34.3996 32.9002 34.8996 33.3002C35.2996 33.7002 35.5996 34.2002 35.5996 34.8002H33.9996C33.9996 34.6002 33.8996 34.4002 33.6996 34.2002C33.4996 34.0002 33.2996 33.9002 33.0996 33.9002V35.9002L33.3996 35.8002ZM31.9996 35.1002C32.1996 35.3002 32.3996 35.4002 32.6996 35.5002V33.6002C32.3996 33.6002 32.0996 33.7002 31.9996 33.8002C31.7996 34.0002 31.6996 34.2002 31.6996 34.4002C31.6996 34.8002 31.7996 35.0002 31.9996 35.1002ZM33.8996 38.8002C34.0996 38.6002 34.1996 38.4002 34.1996 38.1002C34.1996 37.8002 34.0996 37.6002 33.8996 37.5002C33.6996 37.3002 33.4996 37.2002 33.0996 37.1002V39.1002C33.3996 39.1002 33.6996 39.0002 33.8996 38.8002Z" fill="white"/>
<path d="M62.8992 30.8998C62.8992 38.1998 56.9993 43.9998 49.7993 43.9998C44.9993 43.9998 40.7992 41.3998 38.4992 37.5998C37.2992 35.5998 36.6992 33.2998 36.6992 30.8998C36.6992 23.5998 42.5993 17.7998 49.7993 17.7998C53.3993 17.7998 56.6992 19.2998 58.9992 21.5998C61.3992 23.8998 62.8992 27.1998 62.8992 30.8998Z" fill="#3852BA"/>
<path d="M52.3992 26.6996V27.9996H53.9992V29.2996H52.2993C52.1993 30.2996 51.7992 30.9996 51.0992 31.4996C50.3992 31.9996 49.3992 32.1996 47.9992 32.1996V33.1996C47.9992 34.2996 48.4992 34.8996 49.3992 34.8996C49.7992 34.8996 50.1992 34.7996 50.3992 34.4996C50.5992 34.1996 50.6992 33.7996 50.6992 33.2996H52.7993C52.7993 34.3996 52.4992 35.1996 51.8992 35.7996C51.2992 36.3996 50.4992 36.6996 49.4992 36.6996C48.2992 36.6996 47.4992 36.3996 46.8992 35.7996C46.2992 35.1996 45.9992 34.2996 45.9992 33.0996V30.9996C47.1992 30.9996 47.9992 30.9996 48.5992 30.8996C49.1992 30.7996 49.5993 30.6996 49.7993 30.4996C49.9993 30.2996 50.1993 29.9996 50.2993 29.5996H45.6992V27.9996H50.3992V26.5996H45.6992V25.0996H54.0992V26.5996H52.3992V26.6996Z" fill="white"/>
<path opacity="0.3" d="M58.9992 21.5998C52.0992 36.7998 38.4992 37.5998 38.4992 37.5998C37.2992 35.5998 36.6992 33.2998 36.6992 30.8998C36.6992 23.5998 42.5993 17.7998 49.7993 17.7998C53.3993 17.7998 56.6992 19.1998 58.9992 21.5998Z" fill="#DDEAFB"/>
</svg>
