<svg width="35" height="35" viewBox="0 0 35 35" fill="none" xmlns="http://www.w3.org/2000/svg">
<path d="M17.5 35C27.2 35 35 27.2 35 17.5C35 7.8 27.2 0 17.5 0C7.8 0 0 7.8 0 17.5C0 27.2 7.8 35 17.5 35Z" fill="#FCF1E4"/>
<path d="M23.9996 21.5999H11.8996L13.1996 19.2999L8.99961 10.9999L5.59961 10.3999" stroke="#C07211" stroke-miterlimit="10" stroke-linecap="round"/>
<path d="M13 13L16.1 19.1H24.3L27.2 13H13Z" stroke="#C07211" stroke-miterlimit="10"/>
<path d="M15.5996 26.2C16.428 26.2 17.0996 25.5284 17.0996 24.7C17.0996 23.8715 16.428 23.2 15.5996 23.2C14.7712 23.2 14.0996 23.8715 14.0996 24.7C14.0996 25.5284 14.7712 26.2 15.5996 26.2Z" stroke="#C07211" stroke-miterlimit="10"/>
<path d="M21.3994 26.2C22.2278 26.2 22.8994 25.5284 22.8994 24.7C22.8994 23.8715 22.2278 23.2 21.3994 23.2C20.571 23.2 19.8994 23.8715 19.8994 24.7C19.8994 25.5284 20.571 26.2 21.3994 26.2Z" stroke="#C07211" stroke-miterlimit="10"/>
</svg>
