<svg width="35" height="35" viewBox="0 0 35 35" fill="none" xmlns="http://www.w3.org/2000/svg">
<path d="M17.5 35C27.2 35 35 27.2 35 17.5C35 7.8 27.2 0 17.5 0C7.8 0 0 7.8 0 17.5C0 27.2 7.8 35 17.5 35Z" fill="#E1F8E2"/>
<path d="M27.6004 25.3001C27.6004 25.3001 21.8004 24.3001 18.8004 27.2001H16.2004C13.3004 24.3001 7.40039 25.3001 7.40039 25.3001" stroke="#1F8B24" stroke-miterlimit="10" stroke-linecap="round"/>
<path d="M7.80078 9.80005V22.1C7.80078 22.1 13.5008 21.1 16.3008 23.9V12.7C16.2008 12.8 13.4008 9.80005 7.80078 9.80005Z" stroke="#1F8B24" stroke-miterlimit="10" stroke-linejoin="round"/>
<path d="M27.3008 9.80005V22.1C27.3008 22.1 21.6008 21.1 18.8008 23.9V12.7C18.8008 12.8 21.6008 9.80005 27.3008 9.80005Z" stroke="#1F8B24" stroke-miterlimit="10" stroke-linejoin="round"/>
</svg>
