<svg width="35" height="35" viewBox="0 0 35 35" fill="none" xmlns="http://www.w3.org/2000/svg">
<path d="M17.5 35C27.165 35 35 27.165 35 17.5C35 7.83502 27.165 0 17.5 0C7.83502 0 0 7.83502 0 17.5C0 27.165 7.83502 35 17.5 35Z" fill="#E1F8E2"/>
<path d="M25.1395 10H9.86176C7.63954 10 5.83398 11.8056 5.83398 14.0278V20.9722C5.83398 23.1944 7.63954 25 9.86176 25H25.1395C27.3617 25 29.1673 23.1944 29.1673 20.9722V14.0278C29.1673 11.8056 27.3617 10 25.1395 10ZM27.7784 20.9722C27.7784 22.4167 26.584 23.6111 25.1395 23.6111H9.86176C8.41732 23.6111 7.22287 22.4167 7.22287 20.9722V14.0278C7.22287 12.5833 8.41732 11.3889 9.86176 11.3889H25.1395C26.584 11.3889 27.7784 12.5833 27.7784 14.0278V20.9722Z" fill="#1F8B24"/>
<path d="M14.6664 14.6394C15.1109 14.9727 15.4164 15.4449 15.5553 16.0282H14.3609C14.2498 15.7782 14.0831 15.556 13.8331 15.4171C13.5831 15.2505 13.3053 15.1949 12.972 15.1949C12.6387 15.1949 12.3609 15.2782 12.1109 15.4171C11.8609 15.556 11.6664 15.7782 11.5276 16.056C11.3887 16.3338 11.3053 16.6671 11.3053 17.0282C11.3053 17.6116 11.472 18.0838 11.7776 18.4171C12.1109 18.7505 12.5276 18.9171 13.0831 18.9171C13.4998 18.9171 13.8331 18.806 14.1387 18.556C14.4442 18.306 14.6109 17.9727 14.6942 17.556H12.7776V16.7505H15.6664V17.8338C15.5831 18.2227 15.4164 18.556 15.1942 18.8616C14.972 19.1671 14.6664 19.4449 14.2776 19.6116C13.8887 19.806 13.472 19.8893 12.972 19.8893C12.4164 19.8893 11.9164 19.7782 11.4998 19.5282C11.0831 19.2782 10.7498 18.9449 10.4998 18.5005C10.2776 18.056 10.1387 17.556 10.1387 17.0005C10.1387 16.4449 10.2498 15.9449 10.4998 15.5005C10.722 15.056 11.0553 14.7227 11.4998 14.4727C11.9164 14.2227 12.4164 14.1116 12.972 14.1116C13.6387 14.1116 14.1942 14.306 14.6664 14.6394Z" fill="#1F8B24"/>
<path d="M20.1663 19.1113C20.0275 19.3613 19.8052 19.5557 19.5275 19.6946C19.2497 19.8335 18.8886 19.9168 18.4997 19.9168C18.083 19.9168 17.7497 19.8613 17.4163 19.7224C17.1108 19.5835 16.833 19.3891 16.6663 19.1391C16.4719 18.8891 16.3608 18.5835 16.333 18.2502H17.5552C17.583 18.4724 17.6663 18.6668 17.833 18.8335C17.9997 19.0002 18.1941 19.0557 18.4719 19.0557C18.7219 19.0557 18.8886 19.0002 19.0275 18.8613C19.1663 18.7224 19.2219 18.5835 19.2219 18.3613C19.2219 18.1946 19.1663 18.0279 19.0552 17.9168C18.9441 17.8057 18.833 17.7224 18.6663 17.6391C18.4997 17.5557 18.3052 17.5002 18.0274 17.3891C17.6663 17.2779 17.3886 17.1668 17.1663 17.0279C16.9441 16.889 16.7497 16.7502 16.583 16.5279C16.4163 16.3057 16.333 16.0279 16.333 15.6668C16.333 15.1668 16.4997 14.8057 16.8608 14.5002C17.2219 14.2224 17.6663 14.0835 18.2497 14.0835C18.8608 14.0835 19.333 14.2224 19.6941 14.5279C20.0552 14.8057 20.2497 15.1946 20.3052 15.6946H19.083C19.0552 15.5002 18.9719 15.3335 18.833 15.1946C18.6941 15.0557 18.4997 15.0002 18.2497 15.0002C18.0275 15.0002 17.8608 15.0557 17.7497 15.1668C17.6386 15.2779 17.5552 15.4446 17.5552 15.639C17.5552 15.8057 17.6108 15.9446 17.6941 16.0557C17.7775 16.1668 17.9163 16.2502 18.083 16.3335C18.2497 16.4168 18.4441 16.4724 18.6941 16.5557C19.0552 16.6946 19.3608 16.8057 19.583 16.9168C19.8052 17.0279 19.9997 17.1946 20.1663 17.4168C20.333 17.6391 20.4163 17.9446 20.4163 18.3057C20.3886 18.6113 20.333 18.8613 20.1663 19.1113Z" fill="#1F8B24"/>
<path d="M25.1108 14.1672V15.0561H23.5274V19.8339H22.3886V15.0561H20.833V14.1672H25.1108Z" fill="#1F8B24"/>
</svg>
