<svg width="35" height="35" viewBox="0 0 35 35" fill="none" xmlns="http://www.w3.org/2000/svg">
<path d="M17.3356 35C26.9097 35 34.6711 27.2386 34.6711 17.6644C34.6711 8.09025 26.9097 0.328857 17.3356 0.328857C7.76139 0.328857 0 8.09025 0 17.6644C0 27.2386 7.76139 35 17.3356 35Z" fill="#F6DCFB"/>
<path d="M21.518 25.5068H13.1529C11.1442 25.5068 9.49316 23.8558 9.49316 21.8471V13.482C9.49316 11.4733 11.1442 9.82227 13.1529 9.82227H21.518C23.5267 9.82227 25.1777 11.4733 25.1777 13.482V21.8471C25.1777 23.8558 23.5267 25.5068 21.518 25.5068ZM13.1529 11.1981C11.8871 11.1981 10.869 12.2162 10.869 13.482V21.8471C10.869 23.1129 11.8871 24.131 13.1529 24.131H21.518C22.7838 24.131 23.8019 23.1129 23.8019 21.8471V13.482C23.8019 12.2162 22.7838 11.1981 21.518 11.1981H13.1529Z" fill="#9E43B6"/>
<path d="M15.4367 20.8841L13.2354 17.1969C13.0428 16.8667 13.1529 16.4539 13.4831 16.2613C13.8133 16.0687 14.226 16.1788 14.4186 16.509L15.7945 18.8204L20.4173 14.9956C20.72 14.7479 21.1327 14.8029 21.3804 15.0781C21.628 15.3808 21.573 15.7935 21.2978 16.0412L15.4367 20.8841Z" fill="#9E43B6"/>
</svg>
