<svg width="32" height="45" viewBox="0 0 32 45" fill="none" xmlns="http://www.w3.org/2000/svg">
<path d="M15.8535 0C7.1047 0 0 7.1047 0 15.8535C0 22.1361 3.64043 27.5968 8.98364 30.1216V35.9933H22.6646V30.1216C28.0665 27.5968 31.7069 22.1361 31.7069 15.8535C31.7069 7.1047 24.6022 0 15.8535 0ZM22.782 15.1489L8.92492 24.2499L14.8553 17.1452H8.92492L22.782 7.28085L15.6773 15.2076H22.782V15.1489Z" fill="#FBC42D"/>
<path d="M11.9185 40.3969H12.5057V44.6245H19.2581V40.3969H19.8452C21.4893 40.3969 22.8398 39.0464 22.8398 37.4023H8.86523C8.92395 39.1051 10.2157 40.3969 11.9185 40.3969Z" fill="#FBC42D"/>
</svg>
