<svg width="43" height="39" viewBox="0 0 43 39" fill="none" xmlns="http://www.w3.org/2000/svg">
<path d="M9.48537 0.987305H3.16179V11.7374H0V14.2668V19.3257H3.16179H9.48537H12.6472V14.2668V11.7374H9.48537V0.987305Z" fill="#FBC42D"/>
<path d="M9.48569 21.8545H3.16211V38.2958H9.48569V21.8545Z" fill="#FBC42D"/>
<path d="M24.6621 0.987305H18.3385V21.2228H15.1768V23.7522V28.8111H18.3385H24.6621H27.8239V23.7522V21.2228H24.6621V0.987305Z" fill="#FBC42D"/>
<path d="M24.6624 31.3408H18.3389V38.2968H24.6624V31.3408Z" fill="#FBC42D"/>
<path d="M39.8382 15.5312H33.5146V38.2961H39.8382V15.5312Z" fill="#FBC42D"/>
<path d="M39.8389 5.41381V0.987305H33.5153V5.41381H30.3535V7.94324V13.0021H33.5153H39.8389H43.0007V7.94324V5.41381H39.8389Z" fill="#FBC42D"/>
</svg>
