<svg width="45" height="46" viewBox="0 0 45 46" fill="none" xmlns="http://www.w3.org/2000/svg">
<path d="M35.1714 29.9453C32.0594 32.9986 27.8906 34.9362 23.252 35.2298L31.5897 43.5676C33.8209 45.7988 37.4026 45.7988 39.6339 43.5676L44.2138 38.9877L35.1714 29.9453Z" fill="#FBC42D"/>
<path d="M0 38.9291L4.57989 43.509C6.81112 45.7402 10.3928 45.7402 12.6241 43.509L20.9618 35.1712C16.3232 34.8776 12.1543 32.94 9.04235 29.8867L0 38.9291Z" fill="#FBC42D"/>
<path d="M38.5766 16.4406C38.5766 7.33957 31.237 0 22.1359 0C13.0349 0 5.69531 7.33957 5.69531 16.4406C5.69531 25.5417 13.0349 32.8813 22.1359 32.8813C31.237 32.8813 38.5766 25.5417 38.5766 16.4406ZM32.2352 11.0974L18.7304 25.7766L12.2129 17.3214C11.6257 16.5581 11.8018 15.5012 12.5064 14.914C13.2697 14.3268 14.3266 14.503 14.9138 15.2076L18.9653 20.4921L29.7691 8.74877C30.415 8.04417 31.4719 7.98545 32.1765 8.63134C32.8224 9.27722 32.8811 10.3928 32.2352 11.0974Z" fill="#FBC42D"/>
</svg>
