<svg width="43" height="44" viewBox="0 0 43 44" fill="none" xmlns="http://www.w3.org/2000/svg">
<path d="M21.3886 17.2471L23.6224 24.2277H18.9873L21.3328 17.2471H21.3886Z" fill="#FBC42D"/>
<path d="M39.7614 30.0908L36.5783 24.7297L33.1159 30.2025C32.7809 30.7609 32.1666 30.9843 31.5523 30.9843C30.3795 30.9843 29.6536 30.2583 29.6536 29.309C29.6536 28.9181 29.7094 28.4713 30.212 27.8012L34.4004 21.7141L30.6029 16.0179C30.3795 15.627 30.212 15.2919 30.212 14.7893C30.212 13.7283 31.0497 12.9465 32.2224 12.9465C33.1718 12.9465 33.6185 13.5049 33.8419 13.8958L36.7458 18.866L39.8173 13.8958C40.2082 13.2815 40.4874 13.0023 41.2134 12.9465C37.751 5.46327 30.2678 0.213867 21.5002 0.213867C12.6209 0.213867 5.02603 5.57496 1.73119 13.2815H12.2858C13.4027 13.2815 14.3521 13.84 14.3521 14.9569C14.3521 16.0738 13.4586 16.6322 12.2858 16.6322H8.54425V29.0297C8.54425 30.2025 7.76242 31.0402 6.53383 31.0402C5.30525 31.0402 4.52343 30.2583 4.52343 29.0297V16.6322H0.781831C0.725987 16.6322 0.67014 16.6322 0.614295 16.6322C0.223382 18.2517 0 19.9829 0 21.7699C0 33.6649 9.60529 43.2701 21.5002 43.2701C30.0445 43.2701 37.4718 38.2441 40.9342 31.0402C40.4874 30.8726 40.0965 30.6492 39.7614 30.0908ZM27.3081 30.9843C26.4146 30.9843 25.8003 30.6492 25.521 29.8674L24.5158 26.9635H18.1495L17.0885 29.8674C16.8093 30.6492 16.2508 30.9843 15.3015 30.9843C14.1846 30.9843 13.4586 30.3142 13.4586 29.2531C13.4586 28.8064 13.682 28.1362 13.8495 27.7453L18.9872 14.175C19.3223 13.2815 19.9366 12.9465 20.9418 12.9465H21.8911C22.7846 12.9465 23.5665 13.1698 24.0132 14.3984L28.8159 27.7453C28.9834 28.1362 29.2068 28.8622 29.2068 29.2531C29.151 30.2583 28.3133 30.9843 27.3081 30.9843Z" fill="#FBC42D"/>
<path d="M42.9997 21.7139C42.9997 23.5009 42.7763 25.288 42.3296 26.9633L38.8672 21.7139L42.3854 16.5762C42.7763 18.2515 42.9997 19.9269 42.9997 21.7139Z" fill="#FBC42D"/>
</svg>
