<svg width="358" height="374" viewBox="0 0 358 374" fill="none" xmlns="http://www.w3.org/2000/svg">
<path opacity="0.7" d="M320.4 147.6V261.4C320.4 270 313.4 277 304.8 277H92.6C84 277 77 270 77 261.4V147.6C77 139 84 132 92.6 132H304.9C313.4 132 320.4 139 320.4 147.6Z" fill="#F0971A"/>
<path opacity="0.7" d="M340 147.6V261.4C340 270 333 277 324.4 277H112.2C103.6 277 96.5996 270 96.5996 261.4V147.6C96.5996 139 103.6 132 112.2 132H324.5C333 132 340 139 340 147.6Z" fill="#F0971A"/>
<path d="M358 94V140C358 146.6 352.6 152 346 152H71C64.4 152 59 146.6 59 140V94C59 87.4 64.4 82 71 82H346C352.6 82 358 87.4 358 94Z" fill="#CF8118"/>
<path d="M358 89V135C358 141.6 352.6 147 346 147H71C64.4 147 59 141.6 59 135V89C59 82.4 64.4 77 71 77H346C352.6 77 358 82.4 358 89Z" fill="#E38E18"/>
<path d="M261.5 213H155.5C148.9 213 143.5 207.6 143.5 201V191C143.5 184.4 148.9 179 155.5 179H261.5C268.1 179 273.5 184.4 273.5 191V201C273.5 207.6 268.1 213 261.5 213Z" fill="white"/>
<path opacity="0.7" d="M258.5 210H158.5C152.7 210 148 205.3 148 199.5V192.5C148 186.7 152.7 182 158.5 182H258.5C264.3 182 269 186.7 269 192.5V199.5C269 205.3 264.3 210 258.5 210Z" fill="#F0971A"/>
<path d="M241 192H175V201H241V192Z" fill="#D98817"/>
<path d="M231.2 277H175.7C175.2 273.4 175 269.7 175 266V201H229.4V266C229.4 269.8 230.1 273.5 231.2 277Z" fill="#CF8118"/>
<path d="M357 330.5L336.5 352.1L316 373.8V358.7H273.9C222.4 358.7 180.5 316.8 180.5 265.3V196H235.4V265.3C235.4 286.6 252.7 303.8 273.9 303.8H316V287.2L336.5 308.8L357 330.5Z" fill="#8FEBA2"/>
<path d="M235.4 100.3L219.4 115.4L203.3 130.6L171.3 100.3H183.6V77H224.2V100.3H235.4Z" fill="#CF8118"/>
<path d="M209.3 130.6L225.3 115.4L241.3 100.2H230.1V69.1C230.1 31 199.1 0 161 0H113V40.6H161.1C176.8 40.6 189.6 53.4 189.6 69.1V100.2H177.3L193.3 115.4L209.3 130.6Z" fill="#86ABEB"/>
<path d="M62.6 188.9L55.3 196.6L48 204.3V199H33.1C14.9 198.9 0 184 0 165.8V141.2H19.5V165.8C19.5 173.3 25.6 179.5 33.2 179.5H48V173.6L55.3 181.3L62.6 188.9Z" fill="#F2F2F2"/>
</svg>
