<svg width="71" height="70" viewBox="0 0 71 70" fill="none" xmlns="http://www.w3.org/2000/svg">
<path d="M60.7998 70H10.7998C5.2998 70 0.799805 65.5 0.799805 60V10C0.799805 4.5 5.2998 0 10.7998 0H60.7998C66.2998 0 70.7998 4.5 70.7998 10V60C70.7998 65.5 66.2998 70 60.7998 70Z" fill="#F2F4FF"/>
<path d="M28.2998 30V47" stroke="#4C2BCF" stroke-width="5" stroke-miterlimit="10" stroke-linecap="round"/>
<path d="M36.7998 20V47" stroke="#4C2BCF" stroke-width="5" stroke-miterlimit="10" stroke-linecap="round"/>
<path d="M45.2998 37V47" stroke="#4C2BCF" stroke-width="5" stroke-miterlimit="10" stroke-linecap="round"/>
<path d="M17.7998 42V50H53.7998V31.5" stroke="#4C2BCF" stroke-width="5" stroke-miterlimit="10" stroke-linecap="round"/>
</svg>
