<svg width="486" height="264" viewBox="0 0 486 264" fill="none" xmlns="http://www.w3.org/2000/svg">
<path d="M328.112 238.133H129.731C117.632 238.133 107.665 228.219 107.665 216.067V31.0113C107.665 18.9123 117.579 8.94531 129.731 8.94531H328.165C340.264 8.94531 350.231 18.859 350.231 31.0113V216.12C350.178 228.219 340.264 238.133 328.112 238.133Z" fill="#F0F6FF" stroke="#C7D6ED" stroke-width="5" stroke-miterlimit="10"/>
<path d="M350.178 62.7778H107.665V31.0113C107.665 18.9123 117.579 8.94531 129.731 8.94531H328.165C340.264 8.94531 350.231 18.859 350.231 31.0113V62.7778H350.178Z" fill="#427EDA"/>
<path d="M155.581 40.392H150.731C147.213 40.392 144.335 37.5138 144.335 33.996V25.5214C144.335 22.0037 147.213 19.1255 150.731 19.1255H155.581C159.099 19.1255 161.977 22.0037 161.977 25.5214V33.996C161.977 37.5138 159.099 40.392 155.581 40.392Z" fill="#0D53BD"/>
<path d="M153.129 29.5187C151.69 29.5187 150.518 28.3461 150.518 26.907V3.56187C150.518 2.12278 151.69 0.950195 153.129 0.950195C154.568 0.950195 155.741 2.12278 155.741 3.56187V26.907C155.741 28.3461 154.568 29.5187 153.129 29.5187Z" fill="#093880"/>
<path d="M193.477 40.392H188.626C185.109 40.392 182.23 37.5138 182.23 33.996V25.5214C182.23 22.0037 185.109 19.1255 188.626 19.1255H193.477C196.994 19.1255 199.873 22.0037 199.873 25.5214V33.996C199.873 37.5138 196.994 40.392 193.477 40.392Z" fill="#0D53BD"/>
<path d="M191.025 29.5187C189.586 29.5187 188.414 28.3461 188.414 26.907V3.56187C188.414 2.12278 189.586 0.950195 191.025 0.950195C192.464 0.950195 193.637 2.12278 193.637 3.56187V26.907C193.637 28.3461 192.464 29.5187 191.025 29.5187Z" fill="#093880"/>
<path d="M231.373 40.392H226.523C223.005 40.392 220.127 37.5138 220.127 33.996V25.5214C220.127 22.0037 223.005 19.1255 226.523 19.1255H231.373C234.891 19.1255 237.769 22.0037 237.769 25.5214V33.996C237.769 37.5138 234.891 40.392 231.373 40.392Z" fill="#0D53BD"/>
<path d="M228.921 29.5187C227.482 29.5187 226.31 28.3461 226.31 26.907V3.56187C226.31 2.12278 227.482 0.950195 228.921 0.950195C230.36 0.950195 231.533 2.12278 231.533 3.56187V26.907C231.533 28.3461 230.36 29.5187 228.921 29.5187Z" fill="#093880"/>
<path d="M269.216 40.392H264.366C260.848 40.392 257.97 37.5138 257.97 33.996V25.5214C257.97 22.0037 260.848 19.1255 264.366 19.1255H269.216C272.734 19.1255 275.612 22.0037 275.612 25.5214V33.996C275.612 37.5138 272.734 40.392 269.216 40.392Z" fill="#0D53BD"/>
<path d="M266.817 29.5187C265.378 29.5187 264.206 28.3461 264.206 26.907V3.56187C264.206 2.12278 265.378 0.950195 266.817 0.950195C268.256 0.950195 269.429 2.12278 269.429 3.56187V26.907C269.376 28.3461 268.256 29.5187 266.817 29.5187Z" fill="#093880"/>
<path d="M307.111 40.392H302.261C298.743 40.392 295.865 37.5138 295.865 33.996V25.5214C295.865 22.0037 298.743 19.1255 302.261 19.1255H307.111C310.629 19.1255 313.507 22.0037 313.507 25.5214V33.996C313.507 37.5138 310.629 40.392 307.111 40.392Z" fill="#0D53BD"/>
<path d="M304.713 29.5187C303.274 29.5187 302.102 28.3461 302.102 26.907V3.56187C302.102 2.12278 303.274 0.950195 304.713 0.950195C306.152 0.950195 307.325 2.12278 307.325 3.56187V26.907C307.272 28.3461 306.099 29.5187 304.713 29.5187Z" fill="#093880"/>
<path d="M195.555 104.244L192.624 97.9549C192.41 97.5285 192.304 97.2088 192.197 96.9423H192.091C192.091 97.2621 192.037 97.6351 191.984 98.1681L190.918 108.348C190.865 108.828 190.438 109.041 189.532 109.041H188.999C188.573 109.041 188.253 108.988 188.04 108.881C187.827 108.775 187.773 108.615 187.773 108.348L189.426 92.3052C189.479 91.8255 189.959 91.6123 190.812 91.6123H191.984C192.677 91.6123 193.157 91.8255 193.317 92.1986L196.728 99.5539C196.888 99.927 197.048 100.247 197.154 100.62C197.314 100.3 197.527 99.9803 197.794 99.6072L202.804 92.1986C203.07 91.8255 203.55 91.6123 204.19 91.6123H205.309C205.735 91.6123 206.055 91.6656 206.268 91.7722C206.482 91.8788 206.535 92.0387 206.535 92.3052L204.829 108.348C204.776 108.828 204.35 109.041 203.444 109.041H202.911C202.484 109.041 202.164 108.988 201.951 108.881C201.738 108.775 201.685 108.615 201.685 108.348L202.751 98.2214C202.804 97.6351 202.857 97.262 202.911 96.9955H202.804C202.591 97.3686 202.378 97.6351 202.271 97.8483L198.007 104.191C197.794 104.457 197.474 104.617 197.101 104.617H196.301C195.982 104.671 195.715 104.564 195.555 104.244Z" fill="#ABC0DE"/>
<path d="M206.748 108.668C206.748 108.561 206.801 108.401 206.908 108.242L214.263 92.1984C214.37 91.8786 214.85 91.7188 215.542 91.7188H216.608C217.355 91.7188 217.728 91.8786 217.834 92.1984L221.832 108.295C221.885 108.401 221.885 108.508 221.885 108.668C221.885 108.828 221.779 108.988 221.565 109.041C221.352 109.148 221.032 109.201 220.659 109.201H219.913C219.167 109.201 218.794 109.041 218.687 108.721L217.834 105.31H211.385L209.839 108.721C209.68 109.041 209.306 109.201 208.72 109.201H208.027C207.174 109.094 206.748 108.934 206.748 108.668ZM217.195 102.485L215.916 96.9954C215.809 96.5157 215.756 96.036 215.756 95.4497H215.649C215.489 96.0893 215.276 96.569 215.116 96.9954L212.611 102.485H217.195Z" fill="#ABC0DE"/>
<path d="M224.017 108.934C223.804 108.828 223.75 108.668 223.75 108.401L225.403 92.6248C225.456 92.305 225.509 92.0918 225.669 91.9319C225.829 91.772 226.042 91.7188 226.362 91.7188H230.946C234.73 91.7188 236.596 93.0512 236.596 95.6629C236.596 96.7822 236.276 97.7416 235.69 98.5411C235.103 99.3406 234.25 99.9269 233.238 100.3V100.407C233.611 100.513 233.877 100.833 234.197 101.259C234.464 101.739 234.73 102.272 234.89 102.965L236.436 108.188L236.489 108.561C236.436 108.881 236.009 109.041 235.103 109.041H234.357C233.664 109.041 233.238 108.881 233.131 108.561L231.745 103.711C231.532 103.018 231.212 102.539 230.839 102.325C230.466 102.059 229.827 101.952 229.027 101.952H227.641L226.948 108.401C226.895 108.881 226.469 109.094 225.563 109.094H224.976C224.497 109.094 224.177 109.041 224.017 108.934ZM230.573 99.1807C231.266 99.1807 231.905 98.9142 232.438 98.3812C232.971 97.8482 233.238 97.2086 233.238 96.4624C233.238 95.8228 233.025 95.3431 232.652 95.0233C232.225 94.7035 231.692 94.4903 230.946 94.4903H228.441L227.961 99.1807H230.573Z" fill="#ABC0DE"/>
<path d="M240.593 107.549C239.421 106.43 238.834 104.671 238.834 102.272C238.834 99.1276 239.527 96.5159 240.966 94.5439C242.406 92.5718 244.751 91.5591 248.002 91.5591C248.748 91.5591 249.494 91.6124 250.294 91.7723C251.04 91.9322 251.626 92.0921 252.106 92.3586C252.586 92.6251 252.852 92.8916 252.852 93.1581C252.852 93.318 252.746 93.5845 252.586 93.9576C252.426 94.3307 252.159 94.5972 251.946 94.8636C251.68 95.1301 251.52 95.2367 251.36 95.2367C251.307 95.2367 251.093 95.1301 250.774 94.9702C250.4 94.8103 249.974 94.6505 249.494 94.4906C248.961 94.384 248.375 94.2774 247.682 94.2774C245.87 94.2774 244.484 94.917 243.525 96.2494C242.619 97.5286 242.139 99.3941 242.139 101.793C242.139 104.937 243.525 106.483 246.35 106.483C247.789 106.483 249.228 106.11 250.667 105.417C250.933 105.31 251.093 105.204 251.147 105.204C251.307 105.204 251.413 105.31 251.413 105.524C251.413 105.843 251.36 106.27 251.253 106.803C251.147 107.336 251.04 107.762 250.88 107.975C250.507 108.402 249.814 108.722 248.855 108.935C247.842 109.148 246.936 109.255 246.03 109.255C243.631 109.255 241.766 108.668 240.593 107.549Z" fill="#ABC0DE"/>
<path d="M254.345 108.402L256.05 92.3589C256.104 91.8792 256.53 91.666 257.436 91.666H258.076C258.875 91.666 259.302 91.8792 259.302 92.3589L258.609 98.8082H266.124L266.817 92.3589C266.87 91.8792 267.297 91.666 268.203 91.666H268.842C269.642 91.666 270.068 91.8792 270.068 92.3589L268.362 108.402C268.309 108.882 267.883 109.095 266.977 109.095H266.337C265.538 109.095 265.111 108.882 265.111 108.402L265.804 101.58H258.289L257.596 108.402C257.543 108.882 257.116 109.095 256.21 109.095H255.571C254.771 109.095 254.345 108.882 254.345 108.402Z" fill="#ABC0DE"/>
<path d="M233.239 161.435C233.239 170.922 230.147 179.131 224.018 185.953C217.622 193.042 209.733 196.559 200.299 196.559C190.865 196.559 182.977 193.042 176.634 185.953C170.452 179.131 167.36 170.976 167.36 161.435C167.36 151.894 170.452 143.74 176.634 136.971C182.977 129.988 190.865 126.524 200.299 126.524C209.733 126.524 217.622 129.988 223.964 136.971C230.147 143.793 233.239 151.948 233.239 161.435ZM212.718 161.435C212.718 157.651 211.599 154.346 209.414 151.521C207.068 148.537 204.03 147.044 200.299 147.044C196.515 147.044 193.424 148.537 191.132 151.468C188.947 154.186 187.881 157.491 187.881 161.435C187.881 165.273 188.947 168.631 191.132 171.455C193.477 174.493 196.568 176.039 200.299 176.039C203.924 176.039 206.962 174.493 209.36 171.349C211.599 168.471 212.718 165.166 212.718 161.435Z" fill="#ABC0DE"/>
<path d="M290.535 171.722C290.535 188.191 280.355 196.453 260.048 196.453C257.117 196.453 253.172 196.133 248.216 195.493C241.82 194.694 238.408 193.681 238.089 192.562C237.929 192.082 237.875 190.43 237.875 187.658C237.875 186.113 238.035 184.034 238.408 181.476C238.888 178.171 239.421 176.519 240.061 176.519C240.221 176.519 240.54 176.625 241.02 176.839C245.444 179.077 250.454 180.143 256.104 180.143C264.259 180.143 268.31 177.478 268.31 172.201C268.31 169.27 266.817 167.085 263.832 165.646C261.487 164.473 258.716 163.887 255.464 163.887C254.079 163.887 252.053 164.047 249.335 164.366C246.617 164.686 244.591 164.846 243.205 164.846C241.926 164.846 241.287 164.26 241.287 163.087C241.287 159.569 241.447 154.133 241.766 146.884C242.086 139.635 242.246 134.199 242.246 130.681C242.246 129.988 242.513 129.242 243.046 128.496C243.579 127.75 244.165 127.27 244.858 127.163C245.657 127.003 250.774 126.95 260.208 126.95C270.921 126.95 278.17 127.004 281.848 127.057C282.86 127.11 283.34 127.536 283.34 128.336C283.34 130.415 283.127 133.293 282.7 136.971C282.167 141.661 281.474 144.006 280.728 144.006L280.142 143.953C271.827 143.207 266.604 142.833 264.525 142.833C260.474 142.833 258.289 143.047 258.023 143.473C257.383 144.592 257.063 146.671 257.063 149.709C257.063 150.189 257.17 150.562 257.33 150.828C258.236 150.828 259.728 150.722 261.7 150.562C263.566 150.402 265.058 150.295 266.071 150.295C272.947 150.295 278.65 152.108 283.18 155.785C288.084 159.623 290.535 164.953 290.535 171.722Z" fill="#ABC0DE"/>
<path d="M392.87 107.975H385.675V121.94H392.87V107.975Z" fill="#3A2E87"/>
<path d="M398.52 109.788H380.025C376.668 109.788 373.949 107.069 373.949 103.711C373.949 100.354 376.668 97.6353 380.025 97.6353H398.52C401.878 97.6353 404.596 100.354 404.596 103.711C404.65 107.016 401.878 109.788 398.52 109.788Z" fill="#3A2E87"/>
<path d="M353.603 121.512L335.832 131.772L342.388 143.127L360.158 132.867L353.603 121.512Z" fill="#3A2E87"/>
<path d="M364.835 115.651L325.126 138.57L319.423 128.656C314.626 120.341 317.451 109.735 325.766 104.938L335.413 99.3414C343.728 94.5445 354.335 97.3693 359.132 105.684L364.835 115.651Z" fill="#FFB65F"/>
<path d="M418.442 132.919L436.213 143.179L442.769 131.824L424.998 121.564L418.442 132.919Z" fill="#3A2E87"/>
<path d="M413.817 115.651L453.526 138.569L459.229 128.656C464.025 120.341 461.201 109.734 452.886 104.937L443.239 99.3409C434.924 94.544 424.317 97.3688 419.52 105.684L413.817 115.651Z" fill="#FFB65F"/>
<path d="M331.044 232.003L327.206 263.45L359.026 254.389L331.044 232.003Z" fill="#3A2E87"/>
<path d="M447.555 232.003L451.446 263.45L419.573 254.389L447.555 232.003Z" fill="#3A2E87"/>
<path d="M389.299 263.45C428.626 263.45 460.507 231.569 460.507 192.242C460.507 152.915 428.626 121.034 389.299 121.034C349.972 121.034 318.091 152.915 318.091 192.242C318.091 231.569 349.972 263.45 389.299 263.45Z" fill="#624DE3"/>
<path d="M389.3 249.006C420.65 249.006 446.064 223.592 446.064 192.242C446.064 160.892 420.65 135.478 389.3 135.478C357.95 135.478 332.536 160.892 332.536 192.242C332.536 223.592 357.95 249.006 389.3 249.006Z" fill="white"/>
<path d="M396.068 185.473H382.53V199.011H396.068V185.473Z" fill="#E6E6E6"/>
<path d="M390.632 193.148H387.008V167.031C387.008 166.019 387.807 165.219 388.82 165.219C389.833 165.219 390.632 166.019 390.632 167.031V193.148Z" fill="#3A2E87"/>
<path d="M386.475 192.988L390.312 189.151L407.848 206.686C408.914 207.752 408.914 209.458 407.848 210.524C406.782 211.59 405.076 211.59 404.01 210.524L386.475 192.988Z" fill="#3A2E87"/>
<path d="M390.045 144.486H388.02V153.6H390.045V144.486Z" fill="#3A2E87"/>
<path d="M366.096 150.487L364.342 151.5L368.899 159.393L370.653 158.38L366.096 150.487Z" fill="#E6E6E6"/>
<path d="M348.283 167.721L347.271 169.475L355.163 174.032L356.176 172.278L348.283 167.721Z" fill="#E6E6E6"/>
<path d="M341.512 191.492L341.512 193.518L350.626 193.518L350.626 191.492L341.512 191.492Z" fill="#3A2E87"/>
<path d="M347.542 215.495L348.555 217.249L356.448 212.691L355.435 210.937L347.542 215.495Z" fill="#E6E6E6"/>
<path d="M364.75 233.248L366.504 234.261L371.061 226.368L369.307 225.355L364.75 233.248Z" fill="#E6E6E6"/>
<path d="M388.537 239.993L390.562 239.993L390.563 230.878L388.537 230.878L388.537 239.993Z" fill="#3A2E87"/>
<path d="M412.517 233.989L414.271 232.976L409.713 225.083L407.959 226.096L412.517 233.989Z" fill="#E6E6E6"/>
<path d="M430.296 216.787L431.309 215.033L423.416 210.476L422.403 212.23L430.296 216.787Z" fill="#E6E6E6"/>
<path d="M437.072 193.001L437.072 190.975L427.958 190.975L427.958 193.001L437.072 193.001Z" fill="#3A2E87"/>
<path d="M431.063 169.001L430.051 167.247L422.158 171.804L423.171 173.558L431.063 169.001Z" fill="#E6E6E6"/>
<path d="M413.817 151.235L412.062 150.223L407.505 158.116L409.259 159.128L413.817 151.235Z" fill="#E6E6E6"/>
<path d="M389.513 193.574C388.66 193.574 387.914 192.882 387.914 191.975C387.914 191.123 388.607 190.376 389.513 190.376C390.366 190.376 391.112 191.069 391.112 191.975C391.112 192.882 390.419 193.574 389.513 193.574Z" fill="#FFB65F"/>
<path d="M474.898 158.983C479.167 158.983 482.627 155.523 482.627 151.255C482.627 146.987 479.167 143.526 474.898 143.526C470.63 143.526 467.17 146.987 467.17 151.255C467.17 155.523 470.63 158.983 474.898 158.983Z" stroke="#B9E381" stroke-width="5" stroke-miterlimit="10"/>
<path d="M439.987 68.3739L450.807 57.3409L445.371 47.747L450.807 43.0566" stroke="#81ABE3" stroke-width="5" stroke-miterlimit="10"/>
<path d="M17.5889 80.1533L26.4899 88.8944L34.2716 84.5239L38.0559 88.8944" stroke="#81E390" stroke-width="5" stroke-miterlimit="10"/>
<path d="M396.374 47.8507L386.952 38.4287L377.53 47.8507L386.952 57.2727L396.374 47.8507Z" stroke="#D081E3" stroke-width="5" stroke-miterlimit="10"/>
<path d="M79.0958 40.2319C79.0425 41.7243 78.7227 43.1634 78.3496 44.5492C77.9765 45.935 77.4968 47.2675 76.9105 48.5467C76.3242 49.8258 75.6846 51.105 74.9384 52.3309C74.1922 53.5568 73.3394 54.7294 72.2734 55.7954C72.3267 54.303 72.6465 52.8639 73.0196 51.4781C73.3927 50.0923 73.8724 48.7599 74.4587 47.4807C75.045 46.2015 75.6846 44.9223 76.4308 43.6964C77.2303 42.4705 78.0298 41.2979 79.0958 40.2319Z" fill="#AEC9DA"/>
<path d="M83.52 51.3716C82.0276 51.3183 80.5885 50.9986 79.2027 50.6255C77.817 50.2524 76.4845 49.7727 75.2053 49.1864C73.9261 48.6001 72.6469 47.9605 71.421 47.2143C70.1951 46.4681 69.0225 45.6153 67.9565 44.5493C69.4489 44.6026 70.888 44.9224 72.2738 45.2955C73.6596 45.6686 74.9921 46.1483 76.2713 46.7346C77.5505 47.3209 78.8296 47.9605 80.0555 48.7067C81.2281 49.5062 82.454 50.3057 83.52 51.3716Z" fill="#AEC9DA"/>
<path d="M475.006 215.96C475.112 217.079 475.006 218.092 474.792 219.105C474.579 220.117 474.259 221.023 473.886 221.93C473.513 222.836 473.034 223.688 472.447 224.541C471.861 225.394 471.221 226.14 470.315 226.833C470.209 225.714 470.315 224.701 470.528 223.688C470.742 222.676 471.061 221.77 471.435 220.864C471.808 219.957 472.287 219.105 472.874 218.252C473.46 217.452 474.1 216.653 475.006 215.96Z" fill="#AEC9DA"/>
<path d="M478.097 223.795C476.977 223.902 475.965 223.795 474.952 223.582C473.939 223.369 473.033 223.049 472.127 222.676C471.221 222.303 470.368 221.823 469.516 221.237C468.663 220.65 467.917 220.011 467.224 219.105C468.343 218.998 469.356 219.105 470.368 219.318C471.381 219.531 472.287 219.851 473.193 220.224C474.099 220.597 474.952 221.077 475.805 221.663C476.604 222.249 477.404 222.889 478.097 223.795Z" fill="#AEC9DA"/>
<path d="M74.9925 110.055C75.1524 111.067 75.0991 111.973 74.9392 112.826C74.7793 113.679 74.5128 114.532 74.193 115.278C73.8732 116.078 73.4468 116.824 72.9138 117.517C72.3808 118.21 71.7946 118.902 70.9418 119.435C70.7819 118.423 70.8352 117.517 70.9951 116.664C71.155 115.811 71.4215 114.958 71.7413 114.212C72.0611 113.413 72.4874 112.666 73.0204 111.973C73.5534 111.281 74.1397 110.641 74.9925 110.055Z" fill="#DAA653"/>
<path d="M77.6571 116.824C76.6444 116.983 75.7383 116.93 74.8855 116.77C74.0327 116.61 73.1799 116.344 72.4337 116.024C71.6342 115.704 70.888 115.278 70.1951 114.745C69.5023 114.212 68.8094 113.626 68.2764 112.773C69.2891 112.613 70.1951 112.666 71.0479 112.826C71.9007 112.986 72.7535 113.253 73.4997 113.572C74.2992 113.892 75.0454 114.318 75.7383 114.851C76.4312 115.384 77.0708 115.971 77.6571 116.824Z" fill="#DAA653"/>
<path d="M153.876 235.254H13.5381V262.331H153.876V235.254Z" fill="#00A99D"/>
<path d="M153.929 235.254H135.487V262.331H153.929V235.254Z" fill="#00B8AA"/>
<path d="M97.0052 234.188H53.0864V263.45H97.0052V234.188Z" fill="#FCCD92"/>
<path d="M93.2208 234.188H56.9238V263.45H93.2208V234.188Z" fill="#FCB760"/>
<path opacity="0.5" d="M140.338 235.254H13.5381V241.224H140.338V235.254Z" fill="#008C82"/>
<path d="M140.338 208.179H0V235.255H140.338V208.179Z" fill="#00A99D"/>
<path d="M140.391 208.179H121.949V235.255H140.391V208.179Z" fill="#00B8AA"/>
<path d="M83.4671 207.113H39.5483V236.374H83.4671V207.113Z" fill="#FCCD92"/>
<path d="M79.6295 207.113H43.3325V236.374H79.6295V207.113Z" fill="#FCB760"/>
<path opacity="0.5" d="M140.391 208.179H21.6929V214.148H140.391V208.179Z" fill="#008C82"/>
<path d="M162.031 181.102H21.6934V208.178H162.031V181.102Z" fill="#00A99D"/>
<path d="M162.031 181.102H143.589V208.178H162.031V181.102Z" fill="#00B8AA"/>
<path d="M105.16 179.983H61.2417V209.244H105.16V179.983Z" fill="#FCCD92"/>
<path d="M101.323 179.983H65.0259V209.244H101.323V179.983Z" fill="#FCB760"/>
<path opacity="0.5" d="M143.056 181.102H21.6929V187.072H143.056V181.102Z" fill="#008C82"/>
<path d="M143.056 153.973H2.71826V181.049H143.056V153.973Z" fill="#00A99D"/>
<path d="M143.056 153.973H124.614V181.049H143.056V153.973Z" fill="#00B8AA"/>
<path d="M86.1854 152.907H42.2666V182.168H86.1854V152.907Z" fill="#FCCD92"/>
<path d="M82.3477 152.907H46.0508V182.168H82.3477V152.907Z" fill="#FCB760"/>
</svg>
