<svg width="51" height="51" viewBox="0 0 51 51" fill="none" xmlns="http://www.w3.org/2000/svg">
<path d="M43.8445 50.3447H6.92503C3.21748 50.3447 0.212402 47.3396 0.212402 43.632V6.71262C0.212402 3.00507 3.21748 0 6.92503 0H43.8445C47.552 0 50.5571 3.00507 50.5571 6.71262V43.632C50.5571 47.3396 47.552 50.3447 43.8445 50.3447Z" fill="#171B2F"/>
<path d="M25.3848 24.8208C28.9196 24.8208 31.7852 21.9553 31.7852 18.4204C31.7852 14.8856 28.9196 12.02 25.3848 12.02C21.8499 12.02 18.9844 14.8856 18.9844 18.4204C18.9844 21.9553 21.8499 24.8208 25.3848 24.8208Z" fill="#FBC42D"/>
<path d="M25.3848 26.5771C18.399 26.5771 12.623 31.6897 11.5303 38.3633H39.2394C38.1856 31.6506 32.3706 26.5771 25.3848 26.5771Z" fill="white"/>
</svg>
