<svg width="51" height="51" viewBox="0 0 51 51" fill="none" xmlns="http://www.w3.org/2000/svg">
<path d="M43.3288 50.0814H6.75254C3.03864 50.0814 0 47.0427 0 43.3288V6.75254C0 3.03864 3.03864 0 6.75254 0H43.3288C47.0427 0 50.0814 3.03864 50.0814 6.75254V43.3288C50.0814 47.0427 47.0427 50.0814 43.3288 50.0814Z" fill="#FAF1FF"/>
<path d="M29.2049 19.5262V21.3269H31.3432V23.015H29.1487C28.9798 24.253 28.4734 25.2096 27.5731 25.8848C26.6727 26.5038 25.3222 26.8414 23.5215 26.8414V28.1357C23.5215 29.5987 24.1405 30.3303 25.3222 30.3303C25.8849 30.3303 26.3351 30.1614 26.6165 29.7675C26.8978 29.4299 27.0666 28.8672 27.0666 28.1357H29.8239C29.7676 29.5425 29.3737 30.6116 28.6422 31.3994C27.9107 32.1872 26.8415 32.5811 25.491 32.5811C23.9717 32.5811 22.79 32.1872 22.0022 31.3994C21.2144 30.6116 20.8205 29.3736 20.8205 27.7981V24.9845C22.3398 24.9845 23.4653 24.9282 24.2531 24.872C24.9846 24.7594 25.5473 24.5906 25.8849 24.3092C26.2226 24.0279 26.3914 23.634 26.5039 23.0713H20.2578V21.3831H26.4476V19.5825H20.2578V17.613H31.3432V19.5825H29.2049V19.5262Z" fill="#6E48CF"/>
<path d="M23.7463 41.5845C23.7463 40.7404 23.7463 39.8963 23.7463 38.9397C28.4168 39.1085 32.4683 37.6455 35.5632 34.0441C37.589 31.737 38.6581 29.036 38.8832 25.9973C39.3334 20.0326 35.732 14.3492 30.1612 12.1546C24.9842 10.1289 18.4005 11.4794 15.193 15.4184C16.0934 16.2624 16.9937 17.1065 18.0629 18.1194C15.193 18.5695 12.6046 19.0197 9.79102 19.5262C10.0724 16.6563 10.3537 13.8428 10.6914 10.8604C11.5354 11.817 12.2669 12.6611 13.0547 13.5614C16.8249 9.90378 21.1015 8.21565 26.0534 8.497C29.9924 8.72209 33.4249 10.2414 36.351 12.8862C41.6968 17.7255 43.2161 25.716 40.0086 32.2997C36.6886 39.1648 29.3734 42.1472 23.7463 41.5845Z" fill="#6E48CF"/>
<path d="M14.2356 37.1953C13.4478 37.1953 12.8851 36.6326 12.9414 35.7885C12.9414 35.0007 13.5604 34.438 14.2919 34.438C15.0797 34.438 15.7549 35.1695 15.6987 35.901C15.6424 36.6326 14.9671 37.1953 14.2356 37.1953Z" fill="#6E48CF"/>
<path d="M9.84625 23.6902C10.634 23.6902 11.1968 24.2529 11.1968 25.0407C11.1968 25.8285 10.5778 26.3349 9.78998 26.3349C9.05845 26.3349 8.49574 25.7159 8.49574 24.9844C8.43947 24.3092 9.05845 23.6902 9.84625 23.6902Z" fill="#6E48CF"/>
<path d="M12.3211 30.8367C12.3211 31.5682 11.6459 32.2434 10.9143 32.2434C10.1828 32.2434 9.56383 31.6245 9.56383 30.9492C9.50756 30.2177 10.1828 29.5424 10.9143 29.4861C11.6459 29.4861 12.3211 30.1051 12.3211 30.8367Z" fill="#6E48CF"/>
<path d="M19.1887 37.7581C19.9203 37.7581 20.5955 38.377 20.6518 39.0523C20.7081 39.7838 19.9765 40.5153 19.245 40.5153C18.4572 40.4591 18.0071 40.0089 17.9508 39.2211C17.8382 38.4896 18.4572 37.7581 19.1887 37.7581Z" fill="#6E48CF"/>
</svg>
