<svg width="70" height="70" viewBox="0 0 70 70" fill="none" xmlns="http://www.w3.org/2000/svg">
<rect width="70" height="70" rx="10" fill="#F2F4FF"/>
<path d="M50.6958 54.6154H19.0082C16.7931 54.6154 15.0088 52.8342 15.0088 50.6231V18.9922C15.0088 16.7812 16.7931 15 19.0082 15H50.6958C52.9108 15 54.6952 16.7812 54.6952 18.9922V50.6231C54.6952 52.8342 52.9108 54.6154 50.6958 54.6154Z" fill="#4C2BCF"/>
<path d="M48.3885 50.4693H21.3156C20.1158 50.4693 19.1621 49.5173 19.1621 48.3196V21.2952C19.1621 20.0975 20.1158 19.1455 21.3156 19.1455H48.3885C49.5883 19.1455 50.542 20.0975 50.542 21.2952V48.3196C50.542 49.4866 49.5576 50.4693 48.3885 50.4693Z" fill="#DCD4FF"/>
<path d="M35.7437 33.9175H33.9593C31.9904 33.9175 30.3906 32.3206 30.3906 30.3552V27.407C30.3906 25.4416 31.9904 23.8447 33.9593 23.8447H35.7437C37.7126 23.8447 39.3124 25.4416 39.3124 27.407V30.3552C39.2816 32.3206 37.6818 33.9175 35.7437 33.9175Z" fill="#4C2BCF"/>
<path d="M39.7429 45.7407H29.9905C28.2677 45.7407 26.8525 44.3281 26.8525 42.6083V38.8003C26.8525 37.0806 28.2677 35.668 29.9905 35.668H39.7429C41.4657 35.668 42.8809 37.0806 42.8809 38.8003V42.639C42.8501 44.3588 41.435 45.7407 39.7429 45.7407Z" fill="#4C2BCF"/>
</svg>
