<svg width="164" height="154" viewBox="0 0 164 154" fill="none" xmlns="http://www.w3.org/2000/svg">
<path d="M83.5021 122.891C75.1122 122.891 68.3108 129.736 68.3108 138.179C68.3108 146.622 75.1122 153.467 83.5021 153.467C91.892 153.467 98.6934 146.622 98.6934 138.179C98.6934 129.736 91.892 122.891 83.5021 122.891Z" fill="#F5F5F5"/>
<path d="M82.8761 85.8482C74.4862 85.8482 67.6849 92.6928 67.6849 101.136C67.6849 109.579 74.4862 116.424 82.8761 116.424C91.266 116.424 98.0674 109.579 98.0674 101.136C98.0674 92.6928 91.266 85.8482 82.8761 85.8482Z" fill="#F5F5F5"/>
<path d="M82.4044 48.8042C74.0145 48.8042 67.2132 55.6488 67.2132 64.0921C67.2132 72.5353 74.0145 79.3799 82.4045 79.3799C90.7944 79.3799 97.5957 72.5353 97.5957 64.0921C97.5957 55.6488 90.7943 48.8042 82.4044 48.8042Z" fill="#F5F5F5"/>
<path d="M81.9347 -0.000443084C73.5448 -0.000442351 66.7435 6.84415 66.7435 15.2874C66.7435 23.7306 73.5448 30.5752 81.9347 30.5752C90.3246 30.5752 97.126 23.7306 97.126 15.2874C97.126 6.84414 90.3246 -0.000443818 81.9347 -0.000443084Z" fill="#F5F5F5"/>
<path d="M15.5324 45.3941C7.14246 45.3941 0.34111 52.2387 0.341111 60.6819C0.341112 69.1251 7.14247 75.9697 15.5324 75.9697C23.9223 75.9697 30.7236 69.1251 30.7236 60.6819C30.7236 52.2387 23.9223 45.3941 15.5324 45.3941Z" fill="#F5F5F5"/>
<path d="M45.758 20.6978C37.3681 20.6978 30.5667 27.5424 30.5667 35.9856C30.5667 44.4288 37.3681 51.2734 45.758 51.2734C54.1479 51.2734 60.9492 44.4288 60.9492 35.9856C60.9492 27.5424 54.1479 20.6978 45.758 20.6978Z" fill="#F5F5F5"/>
<path d="M120.463 18.9341C112.073 18.9341 105.272 25.7787 105.272 34.2219C105.272 42.6652 112.073 49.5098 120.463 49.5098C128.853 49.5098 135.654 42.6652 135.654 34.2219C135.654 25.7787 128.853 18.9341 120.463 18.9341Z" fill="#F5F5F5"/>
<path d="M148.809 43.6304C140.419 43.6304 133.617 50.475 133.617 58.9182C133.617 67.3615 140.419 74.2061 148.809 74.2061C157.199 74.2061 164 67.3615 164 58.9182C164 50.475 157.199 43.6304 148.809 43.6304Z" fill="#F5F5F5"/>
</svg>
