<svg width="64" height="64" viewBox="0 0 64 64" fill="none" xmlns="http://www.w3.org/2000/svg">
<path d="M43.9249 59.606C54.6736 54.8228 62.1742 44.0713 62.1742 31.5871C62.1742 14.7142 48.46 1 31.5871 1C15.2635 1 1.89831 13.8164 1.05005 29.9414C0.999982 30.5049 0.999991 31.0609 1 31.5672L1 31.5871C1 48.46 14.7142 62.1742 31.5871 62.1742C35.9687 62.1742 40.1645 61.2881 43.9249 59.606Z" fill="#FFE8F1" stroke="#FF5497" stroke-width="2"/>
<path d="M35.8818 29.2491V16.269C35.8818 13.4057 38.2202 11.0674 41.0835 11.0674H46.4282C49.2915 11.0674 51.6298 13.4057 51.6298 16.269V29.2491C51.6298 32.1124 49.2915 34.4507 46.4282 34.4507H41.0835C38.2202 34.4507 35.8818 32.1124 35.8818 29.2491Z" fill="#FFC9DF"/>
<path d="M31.348 48.2901H14.6933C12.3073 48.2901 10.3984 46.3336 10.3984 43.9952V42.6113C10.3984 40.2253 12.355 38.3164 14.6933 38.3164H31.348C33.7341 38.3164 35.6429 40.273 35.6429 42.6113V43.9952C35.6429 46.3813 33.6864 48.2901 31.348 48.2901Z" fill="#FFDBE9"/>
<path d="M20.9449 50.3909C18.8929 50.3909 17.2227 48.7207 17.2227 46.6687V18.8472C17.2227 16.7952 18.8929 15.125 20.9449 15.125H43.517C45.569 15.125 47.2392 16.7952 47.2392 18.8472V46.6687C47.2392 48.7207 45.569 50.3909 43.517 50.3909H20.9449Z" fill="white"/>
<path d="M43.5172 16.1255C45.0443 16.1255 46.2373 17.3663 46.2373 18.8456V46.6671C46.2373 48.1941 44.9966 49.3872 43.5172 49.3872H20.9451C19.418 49.3872 18.225 48.1464 18.225 46.6671V18.8456C18.225 17.3185 19.4658 16.1255 20.9451 16.1255H43.5172ZM43.5172 14.1689H20.9451C18.3682 14.1689 16.2207 16.2687 16.2207 18.8933V46.7148C16.2207 49.2917 18.3204 51.4392 20.9451 51.4392H43.5172C46.0942 51.4392 48.2416 49.3394 48.2416 46.7148V18.8456C48.2416 16.2687 46.0942 14.1689 43.5172 14.1689Z" fill="#FF5497"/>
<path d="M41.2739 46.523H40.8921C39.4127 46.523 38.2197 45.33 38.2197 43.8506V39.7466C38.2197 38.2673 39.4127 37.0742 40.8921 37.0742H41.2739C42.7532 37.0742 43.9463 38.2673 43.9463 39.7466V43.8506C43.9463 45.2823 42.7532 46.523 41.2739 46.523Z" fill="#FF5497"/>
<path d="M20.7529 33.1628C20.7529 32.1129 21.6119 31.2539 22.6618 31.2539H26.0977C27.1476 31.2539 28.0066 32.1129 28.0066 33.1628C28.0066 34.2126 27.1476 35.0716 26.0977 35.0716H22.6618C21.6119 35.0716 20.7529 34.2126 20.7529 33.1628Z" fill="#FFC9DF"/>
<path d="M20.7529 38.8883C20.7529 37.8385 21.6119 36.9795 22.6618 36.9795H26.0977C27.1476 36.9795 28.0066 37.8385 28.0066 38.8883C28.0066 39.9382 27.1476 40.7972 26.0977 40.7972H22.6618C21.6119 40.7972 20.7529 39.9382 20.7529 38.8883Z" fill="#FFC9DF"/>
<path d="M20.7529 44.6159C20.7529 43.566 21.6119 42.707 22.6618 42.707H26.0977C27.1476 42.707 28.0066 43.566 28.0066 44.6159C28.0066 45.6657 27.1476 46.5247 26.0977 46.5247H22.6618C21.6119 46.5247 20.7529 45.6657 20.7529 44.6159Z" fill="#FFC9DF"/>
<path d="M29.1045 33.1628C29.1045 32.1129 29.9635 31.2539 31.0133 31.2539H34.4493C35.4991 31.2539 36.3581 32.1129 36.3581 33.1628C36.3581 34.2126 35.4991 35.0716 34.4493 35.0716H31.0133C29.9635 35.0716 29.1045 34.2126 29.1045 33.1628Z" fill="#FFC9DF"/>
<path d="M38.2207 33.3545V32.925C38.2207 31.9706 38.9842 31.207 39.9387 31.207H42.3247C43.2791 31.207 44.0427 31.9706 44.0427 32.925V33.3545C44.0427 34.3089 43.2791 35.0724 42.3247 35.0724H39.9387C38.9842 35.0724 38.2207 34.3089 38.2207 33.3545Z" fill="#FFC9DF"/>
<path d="M29.1045 38.8903C29.1045 37.8404 29.9635 36.9814 31.0133 36.9814H34.4493C35.4991 36.9814 36.3581 37.8404 36.3581 38.8903C36.3581 39.9402 35.4991 40.7991 34.4493 40.7991H31.0133C29.9635 40.7991 29.1045 39.9402 29.1045 38.8903Z" fill="#FFC9DF"/>
<path d="M29.1045 44.6169C29.1045 43.567 29.9635 42.708 31.0133 42.708H34.4493C35.4991 42.708 36.3581 43.567 36.3581 44.6169C36.3581 45.6667 35.4991 46.5257 34.4493 46.5257H31.0133C29.9635 46.5257 29.1045 45.6667 29.1045 44.6169Z" fill="#FFC9DF"/>
<path d="M23.236 26.5279C22.5679 26.5279 22.043 26.003 22.043 25.3349V21.1354C22.043 20.4673 22.5679 19.9424 23.236 19.9424H41.2746C41.9427 19.9424 42.4676 20.4673 42.4676 21.1354V25.3349C42.4676 26.003 41.9427 26.5279 41.2746 26.5279H23.236Z" fill="white"/>
<path d="M41.2748 20.8989C41.3702 20.8989 41.4657 20.9944 41.4657 21.0898V25.2893C41.4657 25.3847 41.3702 25.4802 41.2748 25.4802H23.2362C23.1407 25.4802 23.0453 25.3847 23.0453 25.2893V21.0898C23.0453 20.9944 23.1407 20.8989 23.2362 20.8989H41.2748ZM41.2748 18.9424H23.2362C22.0431 18.9424 21.041 19.9445 21.041 21.1376V25.337C21.041 26.53 22.0431 27.5322 23.2362 27.5322H41.2748C42.4678 27.5322 43.47 26.53 43.47 25.337V21.1376C43.47 19.8968 42.4678 18.9424 41.2748 18.9424Z" fill="#FF5497"/>
</svg>
