<svg width="107" height="107" viewBox="0 0 107 107" fill="none" xmlns="http://www.w3.org/2000/svg">
<path d="M95 107H12C5.4 107 0 101.6 0 95V12C0 5.4 5.4 0 12 0H95C101.6 0 107 5.4 107 12V95C107 101.6 101.6 107 95 107Z" fill="#E8EFFF"/>
<path d="M67.6992 27.2998H39.1992C32.5992 27.2998 27.1992 32.6998 27.1992 39.2998V67.7998C27.1992 74.3998 32.5992 79.7998 39.1992 79.7998H67.6992C74.2992 79.7998 79.6992 74.3998 79.6992 67.7998V39.2998C79.6992 32.6998 74.2992 27.2998 67.6992 27.2998ZM63.8992 48.3998C63.1992 49.1998 62.4992 50.0998 61.7992 50.8998C55.9992 57.7998 50.1992 64.6998 44.3992 71.4998C44.2992 71.6998 44.0992 71.7998 43.9992 71.9998C43.7992 72.1998 43.4992 72.1998 43.2992 72.0998C42.9992 71.8998 42.8992 71.6998 43.0992 71.3998C43.1992 71.0998 43.2992 70.7998 43.4992 70.4998C45.5992 65.3998 47.7992 60.2998 49.8992 55.1998C49.9992 55.0998 49.9992 54.9998 50.0992 54.7998H43.8992C43.0992 54.7998 42.8992 54.3998 43.1992 53.6998C46.2992 47.5998 49.2992 41.4998 52.3992 35.3998C52.4992 35.1998 52.6992 34.9998 52.8992 34.8998H63.2992C63.7992 35.2998 63.7992 35.4998 63.4992 36.0998C61.1992 39.6998 58.8992 43.2998 56.6992 46.8998C56.5992 46.9998 56.4992 47.1998 56.3992 47.3998H63.3992C63.4992 47.3998 63.5992 47.3998 63.6992 47.3998C63.9992 47.3998 64.1992 47.4998 64.3992 47.7998C64.0992 47.8998 64.0992 48.1998 63.8992 48.3998Z" fill="#4173E7"/>
</svg>
