<svg width="107" height="107" viewBox="0 0 107 107" fill="none" xmlns="http://www.w3.org/2000/svg">
<path d="M95 107H12C5.4 107 0 101.6 0 95V12C0 5.4 5.4 0 12 0H95C101.6 0 107 5.4 107 12V95C107 101.6 101.6 107 95 107Z" fill="#E8EFFF"/>
<path d="M67 43.7998H39.5C32.9 43.7998 27.5 49.1998 27.5 55.7998V70.8998C27.5 77.4998 32.9 82.8998 39.5 82.8998H67C73.6 82.8998 79 77.4998 79 70.8998V55.7998C79 49.1998 73.6 43.7998 67 43.7998ZM55.2 67.2998L49.2 71.7998V53.8998L55.2 58.3998L61.2 62.8998L55.2 67.2998Z" fill="#4173E7"/>
<path d="M38.7999 40.7997L33.3999 41.5997C31.2999 41.8997 29.2999 40.8997 28.8999 39.2997L27.4999 33.8997C27.0999 32.2997 28.3999 30.7997 30.4999 30.4997L35.8999 29.6997L38.7999 40.7997Z" fill="#4173E7"/>
<path d="M52.5996 38.7997L43.4996 40.0997L40.5996 28.9997L49.6996 27.6997L52.5996 38.7997Z" fill="#4173E7"/>
<path d="M66.4004 36.7001L57.3004 38.1001L54.4004 27.0001L63.5004 25.6001L66.4004 36.7001Z" fill="#4173E7"/>
<path d="M76.4992 35.1999L71.0992 35.9999L68.1992 24.8999L73.5992 24.0999C75.6992 23.7999 77.6992 24.7999 78.0992 26.3999L79.4992 31.7999C79.8992 33.3999 78.4992 34.8999 76.4992 35.1999Z" fill="#4173E7"/>
</svg>
