<svg width="52" height="42" viewBox="0 0 52 42" fill="none" xmlns="http://www.w3.org/2000/svg">
<path d="M34.0604 41.52C43.4374 41.52 51.0388 33.9869 51.0388 24.6943C51.0388 15.4018 43.4374 7.86865 34.0604 7.86865C24.6835 7.86865 17.082 15.4018 17.082 24.6943C17.082 33.9869 24.6835 41.52 34.0604 41.52Z" fill="#F5E9C6"/>
<path d="M22.9574 37.7699C12.601 37.7699 4.13672 29.3818 4.13672 19.1186C4.13672 16.9475 4.53503 14.7765 5.28189 12.7535C5.58063 11.964 6.42705 11.5693 7.17391 11.8653C7.97055 12.1614 8.36887 13.0002 8.07012 13.7403C7.42285 15.4673 7.12413 17.2436 7.12413 19.1186C7.12413 27.7535 14.2441 34.8094 22.9574 34.8094C31.6707 34.8094 38.7907 27.7535 38.7907 19.1186C38.7907 10.4837 31.6707 3.42781 22.9574 3.42781C22.111 3.42781 21.4637 2.78636 21.4637 1.94755C21.4637 1.10873 22.111 0.467285 22.9574 0.467285C33.3138 0.467285 41.7781 8.85544 41.7781 19.1186C41.7781 29.3818 33.3138 37.7699 22.9574 37.7699Z" fill="#24170B"/>
<path d="M29.0802 21.9308H19.6699V11.9143C19.6699 11.0755 20.3172 10.4341 21.1636 10.4341C22.0101 10.4341 22.6573 11.0755 22.6573 11.9143V18.9209H29.0802C29.9267 18.9209 30.5739 19.5624 30.5739 20.4012C30.5739 21.24 29.9267 21.9308 29.0802 21.9308Z" fill="#24170B"/>
<path d="M10.559 18.9215C10.0611 18.9215 9.613 18.6748 9.31426 18.2307L6.6754 14.2833L2.29388 16.8985C1.59682 17.3425 0.650791 17.0958 0.252471 16.405C-0.19564 15.7143 0.0533105 14.7768 0.750371 14.382L7.57161 10.2866L11.754 16.6024C12.2021 17.2932 12.0029 18.1814 11.3059 18.6748C11.1067 18.8228 10.8578 18.9215 10.559 18.9215Z" fill="#24170B"/>
</svg>
