<svg width="57" height="57" viewBox="0 0 57 57" fill="none" xmlns="http://www.w3.org/2000/svg">
<path d="M23.86 55.0806C18.9816 55.0806 14.9902 51.0892 14.9902 46.2108V23.859C14.9902 18.9806 18.9816 14.9893 23.86 14.9893H46.3005C51.1789 14.9893 55.1702 18.9806 55.1702 23.859V46.2995C55.1702 51.1779 51.1789 55.1693 46.3005 55.1693H23.86V55.0806Z" fill="#71EFCE"/>
<path d="M46.2131 16.7637C50.1158 16.7637 53.3089 19.9568 53.3089 23.8595V46.3C53.3089 50.2027 50.1158 53.3958 46.2131 53.3958H23.7726C19.8699 53.3958 16.6768 50.2027 16.6768 46.3V23.8595C16.6768 19.9568 19.8699 16.7637 23.7726 16.7637H46.2131ZM46.2131 13.2158H23.7726C17.9186 13.2158 13.1289 18.0055 13.1289 23.8595V46.3C13.1289 52.1541 17.9186 56.9437 23.7726 56.9437H46.2131C52.0672 56.9437 56.8568 52.1541 56.8568 46.3V23.8595C56.8568 18.0055 52.0672 13.2158 46.2131 13.2158Z" fill="#02B569"/>
<path d="M17.2077 48.5179C12.3293 48.5179 8.33789 44.5265 8.33789 39.6481V17.2077C8.33789 12.3293 12.3293 8.33789 17.2077 8.33789H39.6481C44.5265 8.33789 48.5179 12.3293 48.5179 17.2077V39.6481C48.5179 44.5265 44.5265 48.5179 39.6481 48.5179H17.2077Z" fill="#71EFCE"/>
<path d="M39.6487 10.1124C43.5514 10.1124 46.7445 13.3055 46.7445 17.2082V39.6487C46.7445 43.5514 43.5514 46.7445 39.6487 46.7445H17.2082C13.3055 46.7445 10.1124 43.5514 10.1124 39.6487V17.2082C10.1124 13.3055 13.3055 10.1124 17.2082 10.1124H39.6487ZM39.6487 6.56445H17.2082C11.3541 6.56445 6.56445 11.3541 6.56445 17.2082V39.6487C6.56445 45.5027 11.3541 50.2924 17.2082 50.2924H39.6487C45.5027 50.2924 50.2924 45.5027 50.2924 39.6487V17.2082C50.2924 11.3541 45.5027 6.56445 39.6487 6.56445Z" fill="#02B569"/>
<path d="M10.6452 41.9544C5.76678 41.9544 1.77539 37.963 1.77539 33.0847V10.6442C1.77539 5.76581 5.76678 1.77441 10.6452 1.77441H33.0856C37.964 1.77441 41.9554 5.76581 41.9554 10.6442V33.0847C41.9554 37.963 37.964 41.9544 33.0856 41.9544H10.6452Z" fill="white"/>
<path d="M33.0842 3.5479C36.9869 3.5479 40.18 6.74102 40.18 10.6437V33.0842C40.18 36.9869 36.9869 40.18 33.0842 40.18H10.6437C6.74102 40.18 3.5479 36.9869 3.5479 33.0842V10.6437C3.5479 6.74102 6.74102 3.5479 10.6437 3.5479H33.0842ZM33.0842 0H10.6437C4.78967 0 0 4.78967 0 10.6437V33.0842C0 38.9382 4.78967 43.7279 10.6437 43.7279H33.0842C38.9382 43.7279 43.7279 38.9382 43.7279 33.0842V10.6437C43.7279 4.78967 38.9382 0 33.0842 0Z" fill="#02B569"/>
</svg>
