<svg width="50" height="62" viewBox="0 0 50 62" fill="none" xmlns="http://www.w3.org/2000/svg">
<path d="M5.412 59.7823C3.37195 59.7823 1.77539 58.1858 1.77539 56.1457V15.9657C1.77539 13.9257 3.37195 12.3291 5.412 12.3291H20.9341L37.4318 27.319V56.057C37.4318 58.0971 35.8353 59.6936 33.7952 59.6936H5.412V59.7823Z" fill="#FFBED3"/>
<path d="M20.3117 14.1036L35.7451 28.1178V56.0575C35.7451 57.0332 34.8582 57.9202 33.8825 57.9202H5.49926C4.52359 57.9202 3.63661 57.0332 3.63661 56.0575V15.9662C3.63661 14.9905 4.52359 14.1036 5.49926 14.1036H20.3117ZM21.6422 10.5557H5.41056C2.39484 10.5557 0 12.9505 0 15.9662V56.0575C0 59.0732 2.39484 61.4681 5.41056 61.4681H33.7938C36.8095 61.4681 39.2043 59.0732 39.2043 56.0575V26.6099L21.6422 10.5557Z" fill="#EF6E97"/>
<path d="M19.4258 11.0869V29.0925H38.7619" fill="#FFBED3"/>
<path d="M19.4258 11.0869V29.0925H38.7619" stroke="#EF6E97" stroke-width="4" stroke-miterlimit="10" stroke-linejoin="round"/>
<path d="M16.0546 49.1389C14.0145 49.1389 12.418 47.5424 12.418 45.5023V5.41102C12.418 3.37097 14.0145 1.77441 16.0546 1.77441H31.5767L48.0744 16.7643V45.5023C48.0744 47.5424 46.4779 49.1389 44.4378 49.1389H16.0546Z" fill="white"/>
<path d="M30.8676 3.5479L46.301 17.5621V45.5019C46.301 46.4775 45.414 47.3645 44.4383 47.3645H16.0551C15.0794 47.3645 14.1924 46.4775 14.1924 45.5019V5.41055C14.1924 4.43488 15.0794 3.5479 16.0551 3.5479H30.8676ZM32.2867 0H16.0551C13.0394 0 10.6445 2.39483 10.6445 5.41055V45.5019C10.6445 48.5176 13.0394 50.9124 16.0551 50.9124H44.4383C47.454 50.9124 49.8489 48.5176 49.8489 45.5019V16.0543L32.2867 0Z" fill="#EF6E97"/>
<path d="M29.9805 0.443359V18.449H49.4052" stroke="#EF6E97" stroke-width="4" stroke-miterlimit="10" stroke-linejoin="round"/>
</svg>
