<svg width="668" height="301" viewBox="0 0 668 301" fill="none" xmlns="http://www.w3.org/2000/svg">
<path d="M438.618 277.776L152.333 209.12C137.93 205.674 128.917 191.007 132.452 176.604L169.828 20.649C173.274 6.24632 187.942 -2.76638 202.344 0.768011L488.63 69.4236C503.033 72.8696 512.045 87.5373 508.511 101.94L471.135 257.895C467.6 272.298 453.021 281.222 438.618 277.776Z" fill="#2330FF"/>
<path d="M450.193 291.295H202.786C187.941 291.295 175.836 279.189 175.836 264.345V127.387C175.836 112.543 187.941 100.438 202.786 100.438H450.193C465.038 100.438 477.143 112.543 477.143 127.387V264.345C477.143 279.189 465.038 291.295 450.193 291.295Z" fill="url(#paint0_linear)"/>
<path d="M12.8105 187.03H175.834" stroke="white" stroke-width="2" stroke-miterlimit="10"/>
<path d="M59.1992 103.973L84.3818 167.15H175.834" stroke="white" stroke-width="2" stroke-miterlimit="10"/>
<path d="M175.836 248.97L158.871 248.705L129.535 219.281H50.8066" stroke="white" stroke-width="2" stroke-miterlimit="10"/>
<path d="M59.2001 124.736C70.668 124.736 79.9646 115.44 79.9646 103.972C79.9646 92.5036 70.668 83.207 59.2001 83.207C47.7322 83.207 38.4355 92.5036 38.4355 103.972C38.4355 115.44 47.7322 124.736 59.2001 124.736Z" fill="#2330FF"/>
<path d="M59.2024 83.6492C70.4241 83.6492 79.5252 92.7503 79.5252 103.972C79.5252 115.194 70.4241 124.295 59.2024 124.295C47.9808 124.295 38.8797 115.194 38.8797 103.972C38.8797 92.7503 47.9808 83.6492 59.2024 83.6492ZM59.2024 82.7656C47.4506 82.7656 37.9961 92.2201 37.9961 103.972C37.9961 115.724 47.4506 125.178 59.2024 125.178C70.9543 125.178 80.4088 115.724 80.4088 103.972C80.4088 92.2201 70.9543 82.7656 59.2024 82.7656Z" fill="white"/>
<path d="M12.8118 199.4C19.6437 199.4 25.1821 193.862 25.1821 187.03C25.1821 180.198 19.6437 174.659 12.8118 174.659C5.97981 174.659 0.441406 180.198 0.441406 187.03C0.441406 193.862 5.97981 199.4 12.8118 199.4Z" fill="#2330FF"/>
<path d="M12.8122 175.101C19.3508 175.101 24.7407 180.491 24.7407 187.03C24.7407 193.569 19.3508 198.959 12.8122 198.959C6.27354 198.959 0.883598 193.657 0.883598 187.03C0.883598 180.403 6.27354 175.101 12.8122 175.101ZM12.8122 174.218C5.74339 174.218 0 179.961 0 187.03C0 194.099 5.74339 199.842 12.8122 199.842C19.881 199.842 25.6243 194.099 25.6243 187.03C25.6243 179.961 19.881 174.218 12.8122 174.218Z" fill="white"/>
<path d="M50.8059 231.652C57.6379 231.652 63.1763 226.113 63.1763 219.282C63.1763 212.45 57.6379 206.911 50.8059 206.911C43.9739 206.911 38.4355 212.45 38.4355 219.282C38.4355 226.113 43.9739 231.652 50.8059 231.652Z" fill="#2330FF"/>
<path d="M50.8083 207.352C57.3469 207.352 62.7368 212.742 62.7368 219.281C62.7368 225.82 57.3469 231.21 50.8083 231.21C44.2696 231.21 38.8797 225.908 38.8797 219.281C38.8797 212.654 44.2696 207.352 50.8083 207.352ZM50.8083 206.469C43.7395 206.469 37.9961 212.212 37.9961 219.281C37.9961 226.35 43.7395 232.093 50.8083 232.093C57.877 232.093 63.6204 226.35 63.6204 219.281C63.6204 212.212 57.877 206.469 50.8083 206.469Z" fill="white"/>
<path d="M510.277 245.437H570.274" stroke="white" stroke-width="2" stroke-miterlimit="10"/>
<path d="M570.627 257.275C576.922 257.275 582.025 252.172 582.025 245.877C582.025 239.582 576.922 234.479 570.627 234.479C564.332 234.479 559.229 239.582 559.229 245.877C559.229 252.172 564.332 257.275 570.627 257.275Z" fill="#2330FF"/>
<path d="M570.627 234.922C576.636 234.922 581.584 239.87 581.584 245.878C581.584 251.887 576.636 256.835 570.627 256.835C564.619 256.835 559.671 251.887 559.671 245.878C559.671 239.87 564.53 234.922 570.627 234.922ZM570.627 234.038C564.089 234.038 558.787 239.34 558.787 245.878C558.787 252.417 564.089 257.719 570.627 257.719C577.166 257.719 582.468 252.417 582.468 245.878C582.379 239.34 577.166 234.038 570.627 234.038Z" fill="white"/>
<path d="M510.277 140.288H568.595" stroke="white" stroke-width="2" stroke-miterlimit="10"/>
<path d="M568.949 152.129C575.244 152.129 580.348 147.026 580.348 140.73C580.348 134.435 575.244 129.332 568.949 129.332C562.654 129.332 557.551 134.435 557.551 140.73C557.551 147.026 562.654 152.129 568.949 152.129Z" fill="#2330FF"/>
<path d="M568.95 129.773C574.958 129.773 579.906 134.721 579.906 140.73C579.906 146.738 574.958 151.686 568.95 151.686C562.941 151.686 557.993 146.738 557.993 140.73C557.993 134.721 562.941 129.773 568.95 129.773ZM568.95 128.89C562.411 128.89 557.109 134.191 557.109 140.73C557.109 147.268 562.411 152.57 568.95 152.57C575.488 152.57 580.79 147.268 580.79 140.73C580.79 134.191 575.488 128.89 568.95 128.89Z" fill="white"/>
<path d="M510.277 167.856L539.966 195.866H601.818" stroke="white" stroke-width="2" stroke-miterlimit="10"/>
<path d="M601.555 207.53C607.85 207.53 612.953 202.427 612.953 196.132C612.953 189.837 607.85 184.733 601.555 184.733C595.259 184.733 590.156 189.837 590.156 196.132C590.156 202.427 595.259 207.53 601.555 207.53Z" fill="#2330FF"/>
<path d="M601.553 185.175C607.562 185.175 612.51 190.123 612.51 196.131C612.51 202.14 607.562 207.088 601.553 207.088C595.545 207.088 590.596 202.14 590.596 196.131C590.596 190.123 595.545 185.175 601.553 185.175ZM601.553 184.291C595.014 184.291 589.713 189.593 589.713 196.131C589.713 202.67 595.014 207.971 601.553 207.971C608.092 207.971 613.393 202.67 613.393 196.131C613.393 189.593 608.092 184.291 601.553 184.291Z" fill="white"/>
<path d="M510.277 99.5544H575.929L617.546 57.8486H653.95" stroke="white" stroke-width="2" stroke-miterlimit="10"/>
<path d="M656.158 68.9814C662.453 68.9814 667.557 63.8781 667.557 57.583C667.557 51.2878 662.453 46.1846 656.158 46.1846C649.863 46.1846 644.76 51.2878 644.76 57.583C644.76 63.8781 649.863 68.9814 656.158 68.9814Z" fill="#2330FF"/>
<path d="M656.159 46.6268C662.167 46.6268 667.115 51.5749 667.115 57.5834C667.115 63.5918 662.167 68.54 656.159 68.54C650.15 68.54 645.202 63.5918 645.202 57.5834C645.202 51.5749 650.15 46.6268 656.159 46.6268ZM656.159 45.7432C649.62 45.7432 644.318 51.0447 644.318 57.5834C644.318 64.122 649.62 69.4236 656.159 69.4236C662.697 69.4236 667.999 64.122 667.999 57.5834C667.999 51.0447 662.697 45.7432 656.159 45.7432Z" fill="white"/>
<path d="M401.595 151.332H247.672V265.404H401.595V151.332Z" fill="#4268F9"/>
<path d="M427.571 134.014H411.225L326.488 79.2311L241.751 134.014H225.404L326.488 68.6279L427.571 134.014Z" fill="#D1DAFD"/>
<path d="M411.226 134.014H405.306L326.489 83.0299L247.672 134.014H241.752L326.489 79.2305L411.226 134.014Z" fill="#4268F9"/>
<path d="M405.306 134.014H247.672L326.489 83.0303L405.306 134.014Z" fill="#8CA2FB"/>
<path d="M427.571 134.014H225.404V144.617H427.571V134.014Z" fill="#D1DAFD"/>
<path d="M427.571 270.088H225.404V280.691H427.571V270.088Z" fill="#6886FA"/>
<path d="M418.649 144.616H234.33V152.304H418.649V144.616Z" fill="#6886FA"/>
<path d="M418.649 262.489H234.33V270.177H418.649V262.489Z" fill="#8CA2FB"/>
<path d="M264.017 157.429V152.216H260.748H242.015H238.746V157.429H242.015V257.276H238.746V262.489H242.015H260.748H264.017V257.276H260.748V157.429H264.017Z" fill="#D1DAFD"/>
<path d="M314.117 157.428V152.215H310.848H292.027H288.758V157.428H292.027V257.275H288.758V262.488H292.027H310.848H314.117V257.275H310.848V157.428H314.117Z" fill="#D1DAFD"/>
<path d="M364.219 157.428V152.215H360.949H342.129H338.859V157.428H342.129V257.275H338.859V262.488H342.129H360.949H364.219V257.275H360.949V157.428H364.219Z" fill="#D1DAFD"/>
<path d="M414.23 157.428V152.215H410.961H392.228H388.959V157.428H392.228V257.275H388.959V262.488H392.228H410.961H414.23V257.275H410.961V157.428H414.23Z" fill="#D1DAFD"/>
<path d="M342.569 111.659C342.569 120.495 335.412 127.74 326.488 127.74C317.652 127.74 310.406 120.583 310.406 111.659C310.406 102.823 317.563 95.5771 326.488 95.5771C335.324 95.5771 342.569 102.823 342.569 111.659Z" fill="#EAEFF5"/>
<path d="M326.489 125.442C334.102 125.442 340.273 119.271 340.273 111.658C340.273 104.045 334.102 97.874 326.489 97.874C318.876 97.874 312.705 104.045 312.705 111.658C312.705 119.271 318.876 125.442 326.489 125.442Z" fill="#4268F9"/>
<path d="M331.789 111.482C330.994 110.775 329.58 110.245 327.548 109.803C327.459 109.803 327.283 109.715 327.194 109.715V106.976C327.548 107.064 327.813 107.152 328.078 107.329C328.255 107.417 328.431 107.594 328.52 107.771C328.873 108.213 329.403 108.478 330.022 108.389L330.552 108.301C331.701 108.124 332.142 106.71 331.347 105.827C331.082 105.562 330.817 105.297 330.464 105.12C329.668 104.59 328.52 104.325 327.106 104.236V100.702C327.106 100.172 326.664 99.8184 326.222 99.8184C325.692 99.8184 325.339 100.26 325.339 100.702V104.148C323.66 104.236 322.423 104.678 321.539 105.385C320.567 106.269 320.037 107.329 320.037 108.566C320.037 109.98 320.567 111.04 321.716 111.835C322.334 112.277 323.483 112.719 325.339 113.161V116.342C324.985 116.253 324.632 116.077 324.367 115.9C324.102 115.723 323.925 115.458 323.748 115.193C323.395 114.663 322.865 114.309 322.158 114.398L321.451 114.486C320.302 114.663 319.772 115.988 320.479 116.872C320.832 117.314 321.274 117.667 321.716 118.02C322.6 118.639 323.837 119.081 325.25 119.169V122.615C325.25 123.145 325.692 123.499 326.134 123.499C326.664 123.499 327.018 123.057 327.018 122.615V119.169C328.785 119.081 330.198 118.639 331.17 117.755C332.231 116.783 332.849 115.635 332.849 114.309C332.938 113.161 332.584 112.189 331.789 111.482ZM323.925 108.743C323.66 108.566 323.572 108.301 323.572 108.036C323.572 107.682 323.748 107.417 324.013 107.241C324.278 107.064 324.72 106.887 325.339 106.887V109.273C324.632 109.096 324.102 108.919 323.925 108.743ZM328.608 115.9C328.255 116.165 327.724 116.342 327.106 116.43V113.602C327.283 113.602 327.371 113.691 327.548 113.691C328.166 113.868 328.608 114.044 328.785 114.221C328.961 114.398 329.05 114.663 329.05 114.928C329.138 115.281 328.961 115.635 328.608 115.9Z" fill="#EAEFF5"/>
<path d="M485.979 285.376C485.979 288.645 473.786 291.296 458.853 291.296C443.832 291.296 431.727 288.645 431.727 285.376V279.544H485.979V285.376Z" fill="#B58527"/>
<path d="M485.979 284.14C485.979 287.41 473.786 290.06 458.853 290.06C443.832 290.06 431.727 287.41 431.727 284.14V278.309H485.979V284.14Z" fill="#F5C02B"/>
<path opacity="0.5" d="M447.808 278.309H431.727V284.14C431.727 286.526 438.354 288.558 447.808 289.53V278.309Z" fill="#B89020"/>
<path opacity="0.5" d="M462.299 278.309V289.972C469.191 289.795 475.288 289 479.617 287.94V278.309H462.299Z" fill="#F7D085"/>
<path d="M458.853 284.228C473.835 284.228 485.979 281.577 485.979 278.308C485.979 275.038 473.835 272.388 458.853 272.388C443.871 272.388 431.727 275.038 431.727 278.308C431.727 281.577 443.871 284.228 458.853 284.228Z" fill="#F8D47B"/>
<path d="M480.59 278.307C480.59 280.251 470.871 281.93 458.854 281.93C446.837 281.93 437.117 280.34 437.117 278.307C437.117 276.363 446.837 274.685 458.854 274.685C470.871 274.685 480.59 276.275 480.59 278.307Z" fill="#F5C02B"/>
<path d="M485.979 277.158C485.979 280.427 473.786 283.078 458.853 283.078C443.832 283.078 431.727 280.427 431.727 277.158V271.326H485.979V277.158Z" fill="#B58527"/>
<path d="M485.979 275.922C485.979 279.191 473.786 281.842 458.853 281.842C443.832 281.842 431.727 279.191 431.727 275.922V270.09H485.979V275.922Z" fill="#F5C02B"/>
<path opacity="0.5" d="M447.808 270.09H431.727V275.922C431.727 278.307 438.354 280.34 447.808 281.312V270.09Z" fill="#B89020"/>
<path opacity="0.5" d="M462.299 270.09V281.753C469.191 281.577 475.288 280.781 479.617 279.721V270.09H462.299Z" fill="#F7D085"/>
<path d="M458.853 276.01C473.835 276.01 485.979 273.36 485.979 270.09C485.979 266.82 473.835 264.17 458.853 264.17C443.871 264.17 431.727 266.82 431.727 270.09C431.727 273.36 443.871 276.01 458.853 276.01Z" fill="#F8D47B"/>
<path d="M480.59 270.09C480.59 272.033 470.871 273.712 458.854 273.712C446.837 273.712 437.117 272.122 437.117 270.09C437.117 268.146 446.837 266.467 458.854 266.467C470.871 266.467 480.59 268.057 480.59 270.09Z" fill="#F5C02B"/>
<path d="M485.979 268.941C485.979 272.21 473.786 274.861 458.853 274.861C443.832 274.861 431.727 272.21 431.727 268.941V263.109H485.979V268.941Z" fill="#B58527"/>
<path d="M485.979 267.616C485.979 270.885 473.786 273.536 458.853 273.536C443.832 273.536 431.727 270.885 431.727 267.616V261.784H485.979V267.616Z" fill="#F5C02B"/>
<path opacity="0.5" d="M447.808 261.784H431.727V267.616C431.727 270.002 438.354 272.034 447.808 273.006V261.784Z" fill="#B89020"/>
<path opacity="0.5" d="M462.299 261.784V273.448C469.191 273.271 475.288 272.476 479.617 271.415V261.784H462.299Z" fill="#F7D085"/>
<path d="M458.853 267.704C473.835 267.704 485.979 265.054 485.979 261.784C485.979 258.515 473.835 255.864 458.853 255.864C443.871 255.864 431.727 258.515 431.727 261.784C431.727 265.054 443.871 267.704 458.853 267.704Z" fill="#F8D47B"/>
<path d="M458.854 265.407C470.858 265.407 480.59 263.785 480.59 261.784C480.59 259.783 470.858 258.161 458.854 258.161C446.849 258.161 437.117 259.783 437.117 261.784C437.117 263.785 446.849 265.407 458.854 265.407Z" fill="#F5C02B"/>
<path d="M485.979 260.635C485.979 263.905 473.786 266.556 458.853 266.556C443.832 266.556 431.727 263.905 431.727 260.635V254.804H485.979V260.635Z" fill="#B58527"/>
<path d="M485.979 259.399C485.979 262.668 473.786 265.319 458.853 265.319C443.832 265.319 431.727 262.668 431.727 259.399V253.567H485.979V259.399Z" fill="#F5C02B"/>
<path opacity="0.5" d="M447.808 253.567H431.727V259.399C431.727 261.785 438.354 263.817 447.808 264.789V253.567Z" fill="#B89020"/>
<path opacity="0.5" d="M462.299 253.567V265.231C469.191 265.054 475.288 264.259 479.617 263.199V253.567H462.299Z" fill="#F7D085"/>
<path d="M458.853 259.488C473.835 259.488 485.979 256.837 485.979 253.568C485.979 250.298 473.835 247.647 458.853 247.647C443.871 247.647 431.727 250.298 431.727 253.568C431.727 256.837 443.871 259.488 458.853 259.488Z" fill="#F8D47B"/>
<path d="M458.854 257.19C470.858 257.19 480.59 255.568 480.59 253.567C480.59 251.566 470.858 249.944 458.854 249.944C446.849 249.944 437.117 251.566 437.117 253.567C437.117 255.568 446.849 257.19 458.854 257.19Z" fill="#F5C02B"/>
<path d="M485.979 252.417C485.979 255.686 473.786 258.337 458.853 258.337C443.832 258.337 431.727 255.686 431.727 252.417V246.585H485.979V252.417Z" fill="#B58527"/>
<path d="M485.979 251.18C485.979 254.45 473.786 257.1 458.853 257.1C443.832 257.1 431.727 254.45 431.727 251.18V245.349H485.979V251.18Z" fill="#F5C02B"/>
<path opacity="0.5" d="M447.808 245.349H431.727V251.18C431.727 253.566 438.354 255.598 447.808 256.57V245.349Z" fill="#B89020"/>
<path opacity="0.5" d="M462.299 245.349V257.012C469.191 256.835 475.288 256.04 479.617 254.98V245.349H462.299Z" fill="#F7D085"/>
<path d="M458.853 251.269C473.835 251.269 485.979 248.618 485.979 245.349C485.979 242.079 473.835 239.429 458.853 239.429C443.871 239.429 431.727 242.079 431.727 245.349C431.727 248.618 443.871 251.269 458.853 251.269Z" fill="#F8D47B"/>
<path d="M458.854 248.971C470.858 248.971 480.59 247.349 480.59 245.348C480.59 243.348 470.858 241.726 458.854 241.726C446.849 241.726 437.117 243.348 437.117 245.348C437.117 247.349 446.849 248.971 458.854 248.971Z" fill="#F5C02B"/>
<path d="M485.979 244.2C485.979 247.469 473.786 250.12 458.853 250.12C443.832 250.12 431.727 247.469 431.727 244.2V238.368H485.979V244.2Z" fill="#B58527"/>
<path d="M485.979 242.964C485.979 246.233 473.786 248.884 458.853 248.884C443.832 248.884 431.727 246.233 431.727 242.964V237.132H485.979V242.964Z" fill="#F5C02B"/>
<path opacity="0.5" d="M447.808 237.132H431.727V242.964C431.727 245.349 438.354 247.382 447.808 248.354V237.132Z" fill="#B89020"/>
<path opacity="0.5" d="M462.299 237.132V248.795C469.191 248.619 475.288 247.823 479.617 246.763V237.132H462.299Z" fill="#F7D085"/>
<path d="M458.853 243.052C473.835 243.052 485.979 240.402 485.979 237.132C485.979 233.862 473.835 231.212 458.853 231.212C443.871 231.212 431.727 233.862 431.727 237.132C431.727 240.402 443.871 243.052 458.853 243.052Z" fill="#F8D47B"/>
<path d="M458.854 240.754C470.858 240.754 480.59 239.132 480.59 237.132C480.59 235.131 470.858 233.509 458.854 233.509C446.849 233.509 437.117 235.131 437.117 237.132C437.117 239.132 446.849 240.754 458.854 240.754Z" fill="#F5C02B"/>
<path d="M485.979 235.983C485.979 239.252 473.786 241.903 458.853 241.903C443.832 241.903 431.727 239.252 431.727 235.983V230.151H485.979V235.983Z" fill="#B58527"/>
<path d="M485.979 234.658C485.979 237.927 473.786 240.578 458.853 240.578C443.832 240.578 431.727 237.927 431.727 234.658V228.826H485.979V234.658Z" fill="#F5C02B"/>
<path opacity="0.5" d="M447.808 228.826H431.727V234.658C431.727 237.044 438.354 239.076 447.808 240.048V228.826Z" fill="#B89020"/>
<path opacity="0.5" d="M462.299 228.826V240.49C469.191 240.313 475.288 239.518 479.617 238.457V228.826H462.299Z" fill="#F7D085"/>
<path d="M458.853 234.746C473.835 234.746 485.979 232.096 485.979 228.826C485.979 225.557 473.835 222.906 458.853 222.906C443.871 222.906 431.727 225.557 431.727 228.826C431.727 232.096 443.871 234.746 458.853 234.746Z" fill="#F8D47B"/>
<path d="M458.854 232.449C470.858 232.449 480.59 230.827 480.59 228.826C480.59 226.825 470.858 225.203 458.854 225.203C446.849 225.203 437.117 226.825 437.117 228.826C437.117 230.827 446.849 232.449 458.854 232.449Z" fill="#F5C02B"/>
<path d="M485.979 227.676C485.979 230.946 473.786 233.597 458.853 233.597C443.832 233.597 431.727 230.946 431.727 227.676V221.845H485.979V227.676Z" fill="#B58527"/>
<path d="M485.979 226.44C485.979 229.709 473.786 232.36 458.853 232.36C443.832 232.36 431.727 229.709 431.727 226.44V220.608H485.979V226.44Z" fill="#F5C02B"/>
<path opacity="0.5" d="M447.808 220.608H431.727V226.44C431.727 228.826 438.354 230.858 447.808 231.83V220.608Z" fill="#B89020"/>
<path opacity="0.5" d="M462.299 220.608V232.272C469.191 232.095 475.288 231.3 479.617 230.24V220.608H462.299Z" fill="#F7D085"/>
<path d="M458.853 226.529C473.835 226.529 485.979 223.878 485.979 220.609C485.979 217.339 473.835 214.688 458.853 214.688C443.871 214.688 431.727 217.339 431.727 220.609C431.727 223.878 443.871 226.529 458.853 226.529Z" fill="#F8D47B"/>
<path d="M458.854 224.231C470.858 224.231 480.59 222.609 480.59 220.608C480.59 218.607 470.858 216.985 458.854 216.985C446.849 216.985 437.117 218.607 437.117 220.608C437.117 222.609 446.849 224.231 458.854 224.231Z" fill="#F5C02B"/>
<path d="M485.979 219.459C485.979 222.728 473.786 225.379 458.853 225.379C443.832 225.379 431.727 222.728 431.727 219.459V213.627H485.979V219.459Z" fill="#B58527"/>
<path d="M485.979 218.222C485.979 221.492 473.786 224.142 458.853 224.142C443.832 224.142 431.727 221.492 431.727 218.222V212.391H485.979V218.222Z" fill="#F5C02B"/>
<path opacity="0.5" d="M447.808 212.391H431.727V218.222C431.727 220.608 438.354 222.64 447.808 223.612V212.391Z" fill="#B89020"/>
<path opacity="0.5" d="M462.299 212.391V224.054C469.191 223.877 475.288 223.082 479.617 222.022V212.391H462.299Z" fill="#F7D085"/>
<path d="M458.853 218.311C473.835 218.311 485.979 215.66 485.979 212.391C485.979 209.121 473.835 206.471 458.853 206.471C443.871 206.471 431.727 209.121 431.727 212.391C431.727 215.66 443.871 218.311 458.853 218.311Z" fill="#F8D47B"/>
<path d="M458.854 216.013C470.858 216.013 480.59 214.391 480.59 212.39C480.59 210.39 470.858 208.768 458.854 208.768C446.849 208.768 437.117 210.39 437.117 212.39C437.117 214.391 446.849 216.013 458.854 216.013Z" fill="#F5C02B"/>
<path d="M485.979 211.242C485.979 214.511 473.786 217.162 458.853 217.162C443.832 217.162 431.727 214.511 431.727 211.242V205.41H485.979V211.242Z" fill="#B58527"/>
<path d="M485.979 210.006C485.979 213.275 473.786 215.926 458.853 215.926C443.832 215.926 431.727 213.275 431.727 210.006V204.174H485.979V210.006Z" fill="#F5C02B"/>
<path opacity="0.5" d="M447.808 204.174H431.727V210.006C431.727 212.391 438.354 214.424 447.808 215.396V204.174Z" fill="#B89020"/>
<path opacity="0.5" d="M462.299 204.174V215.837C469.191 215.661 475.288 214.865 479.617 213.805V204.174H462.299Z" fill="#F7D085"/>
<path d="M458.853 210.093C473.835 210.093 485.979 207.443 485.979 204.173C485.979 200.903 473.835 198.253 458.853 198.253C443.871 198.253 431.727 200.903 431.727 204.173C431.727 207.443 443.871 210.093 458.853 210.093Z" fill="#F8D47B"/>
<path d="M458.854 207.796C470.858 207.796 480.59 206.174 480.59 204.174C480.59 202.173 470.858 200.551 458.854 200.551C446.849 200.551 437.117 202.173 437.117 204.174C437.117 206.174 446.849 207.796 458.854 207.796Z" fill="#F5C02B"/>
<path d="M528.655 290.588C528.655 293.857 516.462 296.508 501.529 296.508C486.508 296.508 474.402 293.857 474.402 290.588V284.756H528.744V290.588H528.655Z" fill="#B58527"/>
<path d="M528.655 289.35C528.655 292.62 516.462 295.27 501.529 295.27C486.508 295.27 474.402 292.62 474.402 289.35V283.519H528.744V289.35H528.655Z" fill="#F5C02B"/>
<path opacity="0.5" d="M490.396 283.519H474.314V289.35C474.314 291.736 480.941 293.768 490.396 294.74V283.519Z" fill="#B89020"/>
<path opacity="0.5" d="M504.887 283.519V295.182C511.779 295.005 517.876 294.21 522.205 293.15V283.519H504.887Z" fill="#F7D085"/>
<path d="M501.529 289.439C516.51 289.439 528.655 286.788 528.655 283.519C528.655 280.249 516.51 277.599 501.529 277.599C486.547 277.599 474.402 280.249 474.402 283.519C474.402 286.788 486.547 289.439 501.529 289.439Z" fill="#F8D47B"/>
<path d="M501.529 287.141C513.534 287.141 523.266 285.519 523.266 283.518C523.266 281.517 513.534 279.896 501.529 279.896C489.525 279.896 479.793 281.517 479.793 283.518C479.793 285.519 489.525 287.141 501.529 287.141Z" fill="#F5C02B"/>
<path d="M528.655 282.369C528.655 285.638 516.462 288.289 501.529 288.289C486.508 288.289 474.402 285.638 474.402 282.369V276.537H528.744V282.369H528.655Z" fill="#B58527"/>
<path d="M528.655 281.044C528.655 284.313 516.462 286.964 501.529 286.964C486.508 286.964 474.402 284.313 474.402 281.044V275.212H528.744V281.044H528.655Z" fill="#F5C02B"/>
<path opacity="0.5" d="M490.396 275.212H474.314V281.044C474.314 283.429 480.941 285.462 490.396 286.434V275.212Z" fill="#B89020"/>
<path opacity="0.5" d="M504.887 275.212V286.875C511.779 286.699 517.876 285.903 522.205 284.843V275.212H504.887Z" fill="#F7D085"/>
<path d="M501.529 281.132C516.51 281.132 528.655 278.482 528.655 275.212C528.655 271.943 516.51 269.292 501.529 269.292C486.547 269.292 474.402 271.943 474.402 275.212C474.402 278.482 486.547 281.132 501.529 281.132Z" fill="#F8D47B"/>
<path d="M501.529 278.834C513.534 278.834 523.266 277.212 523.266 275.212C523.266 273.211 513.534 271.589 501.529 271.589C489.525 271.589 479.793 273.211 479.793 275.212C479.793 277.212 489.525 278.834 501.529 278.834Z" fill="#F5C02B"/>
<path d="M528.655 274.063C528.655 277.333 516.462 279.983 501.529 279.983C486.508 279.983 474.402 277.333 474.402 274.063V268.231H528.744V274.063H528.655Z" fill="#B58527"/>
<path d="M528.655 272.826C528.655 276.095 516.462 278.746 501.529 278.746C486.508 278.746 474.402 276.095 474.402 272.826V266.994H528.744V272.826H528.655Z" fill="#F5C02B"/>
<path opacity="0.5" d="M490.396 266.994H474.314V272.826C474.314 275.212 480.941 277.244 490.396 278.216V266.994Z" fill="#B89020"/>
<path opacity="0.5" d="M504.887 266.994V278.658C511.779 278.481 517.876 277.686 522.205 276.625V266.994H504.887Z" fill="#F7D085"/>
<path d="M501.529 272.914C516.51 272.914 528.655 270.264 528.655 266.994C528.655 263.725 516.51 261.074 501.529 261.074C486.547 261.074 474.402 263.725 474.402 266.994C474.402 270.264 486.547 272.914 501.529 272.914Z" fill="#F8D47B"/>
<path d="M501.529 270.617C513.534 270.617 523.266 268.995 523.266 266.994C523.266 264.993 513.534 263.371 501.529 263.371C489.525 263.371 479.793 264.993 479.793 266.994C479.793 268.995 489.525 270.617 501.529 270.617Z" fill="#F5C02B"/>
<path d="M528.655 265.846C528.655 269.116 516.462 271.767 501.529 271.767C486.508 271.767 474.402 269.116 474.402 265.846V260.015H528.744V265.846H528.655Z" fill="#B58527"/>
<path d="M528.655 264.609C528.655 267.878 516.462 270.529 501.529 270.529C486.508 270.529 474.402 267.878 474.402 264.609V258.777H528.744V264.609H528.655Z" fill="#F5C02B"/>
<path opacity="0.5" d="M490.396 258.777H474.314V264.609C474.314 266.995 480.941 269.027 490.396 269.999V258.777Z" fill="#B89020"/>
<path opacity="0.5" d="M504.887 258.777V270.441C511.779 270.264 517.876 269.469 522.205 268.409V258.777H504.887Z" fill="#F7D085"/>
<path d="M501.529 264.698C516.51 264.698 528.655 262.047 528.655 258.778C528.655 255.508 516.51 252.857 501.529 252.857C486.547 252.857 474.402 255.508 474.402 258.778C474.402 262.047 486.547 264.698 501.529 264.698Z" fill="#F8D47B"/>
<path d="M501.529 262.4C513.534 262.4 523.266 260.778 523.266 258.777C523.266 256.776 513.534 255.154 501.529 255.154C489.525 255.154 479.793 256.776 479.793 258.777C479.793 260.778 489.525 262.4 501.529 262.4Z" fill="#F5C02B"/>
<path d="M528.655 257.629C528.655 260.898 516.462 263.549 501.529 263.549C486.508 263.549 474.402 260.898 474.402 257.629V251.797H528.744V257.629H528.655Z" fill="#B58527"/>
<path d="M528.655 256.391C528.655 259.661 516.462 262.311 501.529 262.311C486.508 262.311 474.402 259.661 474.402 256.391V250.56H528.744V256.391H528.655Z" fill="#F5C02B"/>
<path opacity="0.5" d="M490.396 250.56H474.314V256.391C474.314 258.777 480.941 260.809 490.396 261.781V250.56Z" fill="#B89020"/>
<path opacity="0.5" d="M504.887 250.56V262.223C511.779 262.046 517.876 261.251 522.205 260.191V250.56H504.887Z" fill="#F7D085"/>
<path d="M501.529 256.48C516.51 256.48 528.655 253.829 528.655 250.56C528.655 247.29 516.51 244.64 501.529 244.64C486.547 244.64 474.402 247.29 474.402 250.56C474.402 253.829 486.547 256.48 501.529 256.48Z" fill="#F8D47B"/>
<path d="M501.529 254.182C513.534 254.182 523.266 252.56 523.266 250.559C523.266 248.558 513.534 246.937 501.529 246.937C489.525 246.937 479.793 248.558 479.793 250.559C479.793 252.56 489.525 254.182 501.529 254.182Z" fill="#F5C02B"/>
<path d="M528.655 249.412C528.655 252.681 516.462 255.332 501.529 255.332C486.508 255.332 474.402 252.681 474.402 249.412V243.58H528.744V249.412H528.655Z" fill="#B58527"/>
<path d="M528.655 248.175C528.655 251.444 516.462 254.095 501.529 254.095C486.508 254.095 474.402 251.444 474.402 248.175V242.343H528.744V248.175H528.655Z" fill="#F5C02B"/>
<path opacity="0.5" d="M490.396 242.255H474.314V248.087C474.314 250.472 480.941 252.505 490.396 253.477V242.255Z" fill="#B89020"/>
<path opacity="0.5" d="M504.887 242.255V253.918C511.779 253.742 517.876 252.946 522.205 251.886V242.255H504.887Z" fill="#F7D085"/>
<path d="M501.529 248.175C516.51 248.175 528.655 245.525 528.655 242.255C528.655 238.985 516.51 236.335 501.529 236.335C486.547 236.335 474.402 238.985 474.402 242.255C474.402 245.525 486.547 248.175 501.529 248.175Z" fill="#F8D47B"/>
<path d="M501.529 245.877C513.534 245.877 523.266 244.255 523.266 242.255C523.266 240.254 513.534 238.632 501.529 238.632C489.525 238.632 479.793 240.254 479.793 242.255C479.793 244.255 489.525 245.877 501.529 245.877Z" fill="#F5C02B"/>
<path d="M528.655 241.195C528.655 244.464 516.462 247.115 501.529 247.115C486.508 247.115 474.402 244.464 474.402 241.195V235.363H528.744V241.195H528.655Z" fill="#B58527"/>
<path d="M528.655 239.87C528.655 243.139 516.462 245.79 501.529 245.79C486.508 245.79 474.402 243.139 474.402 239.87V234.038H528.744V239.87H528.655Z" fill="#F5C02B"/>
<path opacity="0.5" d="M490.396 234.038H474.314V239.87C474.314 242.256 480.941 244.288 490.396 245.26V234.038Z" fill="#B89020"/>
<path opacity="0.5" d="M504.887 234.038V245.702C511.779 245.525 517.876 244.73 522.205 243.669V234.038H504.887Z" fill="#F7D085"/>
<path d="M501.529 239.958C516.51 239.958 528.655 237.308 528.655 234.038C528.655 230.769 516.51 228.118 501.529 228.118C486.547 228.118 474.402 230.769 474.402 234.038C474.402 237.308 486.547 239.958 501.529 239.958Z" fill="#F8D47B"/>
<path d="M501.529 237.661C513.534 237.661 523.266 236.039 523.266 234.038C523.266 232.037 513.534 230.415 501.529 230.415C489.525 230.415 479.793 232.037 479.793 234.038C479.793 236.039 489.525 237.661 501.529 237.661Z" fill="#F5C02B"/>
<path d="M528.655 232.888C528.655 236.158 516.462 238.808 501.529 238.808C486.508 238.808 474.402 236.158 474.402 232.888V227.057H528.744V232.888H528.655Z" fill="#B58527"/>
<path d="M528.655 231.651C528.655 234.92 516.462 237.571 501.529 237.571C486.508 237.571 474.402 234.92 474.402 231.651V225.819H528.744V231.651H528.655Z" fill="#F5C02B"/>
<path opacity="0.5" d="M490.396 225.819H474.314V231.651C474.314 234.037 480.941 236.069 490.396 237.041V225.819Z" fill="#B89020"/>
<path opacity="0.5" d="M504.887 225.819V237.483C511.779 237.306 517.876 236.511 522.205 235.451V225.819H504.887Z" fill="#F7D085"/>
<path d="M501.529 231.74C516.51 231.74 528.655 229.089 528.655 225.82C528.655 222.55 516.51 219.899 501.529 219.899C486.547 219.899 474.402 222.55 474.402 225.82C474.402 229.089 486.547 231.74 501.529 231.74Z" fill="#F8D47B"/>
<path d="M501.529 229.442C513.534 229.442 523.266 227.82 523.266 225.819C523.266 223.818 513.534 222.196 501.529 222.196C489.525 222.196 479.793 223.818 479.793 225.819C479.793 227.82 489.525 229.442 501.529 229.442Z" fill="#F5C02B"/>
<path d="M528.655 224.672C528.655 227.941 516.462 230.592 501.529 230.592C486.508 230.592 474.402 227.941 474.402 224.672V218.84H528.744V224.672H528.655Z" fill="#B58527"/>
<path d="M528.655 223.434C528.655 226.704 516.462 229.354 501.529 229.354C486.508 229.354 474.402 226.704 474.402 223.434V217.603H528.744V223.434H528.655Z" fill="#F5C02B"/>
<path opacity="0.5" d="M490.396 217.603H474.314V223.434C474.314 225.82 480.941 227.852 490.396 228.824V217.603Z" fill="#B89020"/>
<path opacity="0.5" d="M504.887 217.603V229.266C511.779 229.089 517.876 228.294 522.205 227.234V217.603H504.887Z" fill="#F7D085"/>
<path d="M501.529 223.523C516.51 223.523 528.655 220.872 528.655 217.603C528.655 214.333 516.51 211.683 501.529 211.683C486.547 211.683 474.402 214.333 474.402 217.603C474.402 220.872 486.547 223.523 501.529 223.523Z" fill="#F8D47B"/>
<path d="M501.529 221.225C513.534 221.225 523.266 219.603 523.266 217.602C523.266 215.601 513.534 213.979 501.529 213.979C489.525 213.979 479.793 215.601 479.793 217.602C479.793 219.603 489.525 221.225 501.529 221.225Z" fill="#F5C02B"/>
<path d="M528.655 216.454C528.655 219.723 516.462 222.374 501.529 222.374C486.508 222.374 474.402 219.723 474.402 216.454V210.622H528.744V216.454H528.655Z" fill="#B58527"/>
<path d="M528.655 215.217C528.655 218.486 516.462 221.137 501.529 221.137C486.508 221.137 474.402 218.486 474.402 215.217V209.385H528.744V215.217H528.655Z" fill="#F5C02B"/>
<path opacity="0.5" d="M490.396 209.385H474.314V215.217C474.314 217.602 480.941 219.634 490.396 220.606V209.385Z" fill="#B89020"/>
<path opacity="0.5" d="M504.887 209.385V221.048C511.779 220.872 517.876 220.076 522.205 219.016V209.385H504.887Z" fill="#F7D085"/>
<path d="M501.529 215.305C516.51 215.305 528.655 212.655 528.655 209.385C528.655 206.115 516.51 203.465 501.529 203.465C486.547 203.465 474.402 206.115 474.402 209.385C474.402 212.655 486.547 215.305 501.529 215.305Z" fill="#F8D47B"/>
<path d="M501.529 213.007C513.534 213.007 523.266 211.385 523.266 209.384C523.266 207.384 513.534 205.762 501.529 205.762C489.525 205.762 479.793 207.384 479.793 209.384C479.793 211.385 489.525 213.007 501.529 213.007Z" fill="#F5C02B"/>
<path d="M528.655 207.884C528.655 211.153 516.462 213.804 501.529 213.804C486.508 213.804 474.402 211.153 474.402 207.884V202.052H528.744V207.884H528.655Z" fill="#B58527"/>
<path d="M528.655 206.646C528.655 209.916 516.462 212.566 501.529 212.566C486.508 212.566 474.402 209.916 474.402 206.646V200.814H528.744V206.646H528.655Z" fill="#F5C02B"/>
<path opacity="0.5" d="M490.396 200.814H474.314V206.646C474.314 209.032 480.941 211.064 490.396 212.036V200.814Z" fill="#B89020"/>
<path opacity="0.5" d="M504.887 200.814V212.478C511.779 212.301 517.876 211.506 522.205 210.446V200.814H504.887Z" fill="#F7D085"/>
<path d="M501.529 206.735C516.51 206.735 528.655 204.084 528.655 200.815C528.655 197.545 516.51 194.895 501.529 194.895C486.547 194.895 474.402 197.545 474.402 200.815C474.402 204.084 486.547 206.735 501.529 206.735Z" fill="#F8D47B"/>
<path d="M523.176 200.814C523.176 202.758 513.457 204.437 501.44 204.437C489.423 204.437 479.703 202.846 479.703 200.814C479.703 198.87 489.423 197.191 501.44 197.191C513.457 197.191 523.176 198.87 523.176 200.814Z" fill="#F5C02B"/>
<path d="M528.655 199.666C528.655 202.935 516.462 205.586 501.529 205.586C486.508 205.586 474.402 202.935 474.402 199.666V193.834H528.744V199.666H528.655Z" fill="#B58527"/>
<path d="M528.655 198.428C528.655 201.698 516.462 204.349 501.529 204.349C486.508 204.349 474.402 201.698 474.402 198.428V192.597H528.744V198.428H528.655Z" fill="#F5C02B"/>
<path opacity="0.5" d="M490.396 192.597H474.314V198.428C474.314 200.814 480.941 202.846 490.396 203.818V192.597Z" fill="#B89020"/>
<path opacity="0.5" d="M504.887 192.597V204.26C511.779 204.083 517.876 203.288 522.205 202.228V192.597H504.887Z" fill="#F7D085"/>
<path d="M501.529 198.517C516.51 198.517 528.655 195.866 528.655 192.597C528.655 189.327 516.51 186.677 501.529 186.677C486.547 186.677 474.402 189.327 474.402 192.597C474.402 195.866 486.547 198.517 501.529 198.517Z" fill="#F8D47B"/>
<path d="M523.176 192.596C523.176 194.54 513.457 196.219 501.44 196.219C489.423 196.219 479.703 194.629 479.703 192.596C479.703 190.652 489.423 188.974 501.44 188.974C513.457 188.974 523.176 190.564 523.176 192.596Z" fill="#F5C02B"/>
<path d="M528.655 191.447C528.655 194.716 516.462 197.367 501.529 197.367C486.508 197.367 474.402 194.716 474.402 191.447V185.615H528.744V191.447H528.655Z" fill="#B58527"/>
<path d="M528.655 190.21C528.655 193.479 516.462 196.13 501.529 196.13C486.508 196.13 474.402 193.479 474.402 190.21V184.378H528.744V190.21H528.655Z" fill="#F5C02B"/>
<path opacity="0.5" d="M490.396 184.29H474.314V190.122C474.314 192.507 480.941 194.54 490.396 195.512V184.29Z" fill="#B89020"/>
<path opacity="0.5" d="M504.887 184.29V195.954C511.779 195.777 517.876 194.982 522.205 193.921V184.29H504.887Z" fill="#F7D085"/>
<path d="M501.529 190.21C516.51 190.21 528.655 187.56 528.655 184.29C528.655 181.021 516.51 178.37 501.529 178.37C486.547 178.37 474.402 181.021 474.402 184.29C474.402 187.56 486.547 190.21 501.529 190.21Z" fill="#F8D47B"/>
<path d="M523.176 184.29C523.176 186.234 513.457 187.912 501.44 187.912C489.423 187.912 479.703 186.322 479.703 184.29C479.703 182.257 489.423 180.667 501.44 180.667C513.457 180.755 523.176 182.346 523.176 184.29Z" fill="#F5C02B"/>
<path d="M528.655 183.23C528.655 186.499 516.462 189.15 501.529 189.15C486.508 189.15 474.402 186.499 474.402 183.23V177.398H528.744V183.23H528.655Z" fill="#B58527"/>
<path d="M528.655 181.905C528.655 185.174 516.462 187.825 501.529 187.825C486.508 187.825 474.402 185.174 474.402 181.905V176.073H528.744V181.905H528.655Z" fill="#F5C02B"/>
<path opacity="0.5" d="M490.396 176.073H474.314V181.905C474.314 184.291 480.941 186.323 490.396 187.295V176.073Z" fill="#B89020"/>
<path opacity="0.5" d="M504.887 176.073V187.737C511.779 187.56 517.876 186.765 522.205 185.704V176.073H504.887Z" fill="#F7D085"/>
<path d="M501.529 181.994C516.51 181.994 528.655 179.343 528.655 176.073C528.655 172.804 516.51 170.153 501.529 170.153C486.547 170.153 474.402 172.804 474.402 176.073C474.402 179.343 486.547 181.994 501.529 181.994Z" fill="#F8D47B"/>
<path d="M523.176 176.073C523.176 178.017 513.457 179.696 501.44 179.696C489.423 179.696 479.703 178.105 479.703 176.073C479.703 174.129 489.423 172.45 501.44 172.45C513.457 172.539 523.176 174.129 523.176 176.073Z" fill="#F5C02B"/>
<path d="M528.655 174.925C528.655 178.194 516.462 180.845 501.529 180.845C486.508 180.845 474.402 178.194 474.402 174.925V169.093H528.744V174.925H528.655Z" fill="#B58527"/>
<path d="M528.655 173.687C528.655 176.957 516.462 179.607 501.529 179.607C486.508 179.607 474.402 176.957 474.402 173.687V167.855H528.744V173.687H528.655Z" fill="#F5C02B"/>
<path opacity="0.5" d="M490.396 167.855H474.314V173.687C474.314 176.073 480.941 178.105 490.396 179.077V167.855Z" fill="#B89020"/>
<path opacity="0.5" d="M504.887 167.855V179.519C511.779 179.342 517.876 178.547 522.205 177.487V167.855H504.887Z" fill="#F7D085"/>
<path d="M501.529 173.776C516.51 173.776 528.655 171.125 528.655 167.856C528.655 164.586 516.51 161.936 501.529 161.936C486.547 161.936 474.402 164.586 474.402 167.856C474.402 171.125 486.547 173.776 501.529 173.776Z" fill="#F8D47B"/>
<path d="M523.176 167.855C523.176 169.799 513.457 171.478 501.44 171.478C489.423 171.478 479.703 169.887 479.703 167.855C479.703 165.911 489.423 164.232 501.44 164.232C513.457 164.232 523.176 165.911 523.176 167.855Z" fill="#F5C02B"/>
<path d="M528.655 166.708C528.655 169.977 516.462 172.628 501.529 172.628C486.508 172.628 474.402 169.977 474.402 166.708V160.876H528.744V166.708H528.655Z" fill="#B58527"/>
<path d="M528.655 165.47C528.655 168.74 516.462 171.391 501.529 171.391C486.508 171.391 474.402 168.74 474.402 165.47V159.639H528.744V165.47H528.655Z" fill="#F5C02B"/>
<path opacity="0.5" d="M490.396 159.639H474.314V165.47C474.314 167.856 480.941 169.888 490.396 170.86V159.639Z" fill="#B89020"/>
<path opacity="0.5" d="M504.887 159.639V171.302C511.779 171.125 517.876 170.33 522.205 169.27V159.639H504.887Z" fill="#F7D085"/>
<path d="M501.529 165.559C516.51 165.559 528.655 162.908 528.655 159.639C528.655 156.369 516.51 153.719 501.529 153.719C486.547 153.719 474.402 156.369 474.402 159.639C474.402 162.908 486.547 165.559 501.529 165.559Z" fill="#F8D47B"/>
<path d="M523.176 159.638C523.176 161.582 513.457 163.261 501.44 163.261C489.423 163.261 479.703 161.671 479.703 159.638C479.703 157.694 489.423 156.016 501.44 156.016C513.457 156.016 523.176 157.606 523.176 159.638Z" fill="#F5C02B"/>
<path d="M528.655 158.49C528.655 161.759 516.462 164.41 501.529 164.41C486.508 164.41 474.402 161.759 474.402 158.49V152.658H528.744V158.49H528.655Z" fill="#B58527"/>
<path d="M528.655 157.253C528.655 160.522 516.462 163.173 501.529 163.173C486.508 163.173 474.402 160.522 474.402 157.253V151.421H528.744V157.253H528.655Z" fill="#F5C02B"/>
<path opacity="0.5" d="M490.396 151.421H474.314V157.253C474.314 159.638 480.941 161.671 490.396 162.643V151.421Z" fill="#B89020"/>
<path opacity="0.5" d="M504.887 151.421V163.084C511.779 162.908 517.876 162.112 522.205 161.052V151.421H504.887Z" fill="#F7D085"/>
<path d="M528.655 151.421C528.655 154.69 516.462 157.341 501.529 157.341C486.508 157.341 474.402 154.69 474.402 151.421C474.402 148.152 486.596 145.501 501.529 145.501C516.462 145.501 528.655 148.152 528.655 151.421Z" fill="#F8D47B"/>
<path d="M523.176 151.421C523.176 153.365 513.457 155.043 501.44 155.043C489.423 155.043 479.703 153.453 479.703 151.421C479.703 149.477 489.423 147.798 501.44 147.798C513.457 147.798 523.176 149.388 523.176 151.421Z" fill="#F5C02B"/>
<path d="M528.655 150.272C528.655 153.541 516.462 156.192 501.529 156.192C486.508 156.192 474.402 153.541 474.402 150.272V144.44H528.744V150.272H528.655Z" fill="#B58527"/>
<path d="M528.655 148.947C528.655 152.216 516.462 154.867 501.529 154.867C486.508 154.867 474.402 152.216 474.402 148.947V143.115H528.744V148.947H528.655Z" fill="#F5C02B"/>
<path opacity="0.5" d="M490.396 143.115H474.314V148.947C474.314 151.333 480.941 153.365 490.396 154.337V143.115Z" fill="#B89020"/>
<path opacity="0.5" d="M504.887 143.115V154.779C511.779 154.602 517.876 153.807 522.205 152.746V143.115H504.887Z" fill="#F7D085"/>
<path d="M528.655 143.115C528.655 146.385 516.462 149.036 501.529 149.036C486.508 149.036 474.402 146.385 474.402 143.115C474.402 139.846 486.596 137.195 501.529 137.195C516.462 137.284 528.655 139.934 528.655 143.115Z" fill="#F8D47B"/>
<path d="M523.176 143.115C523.176 145.059 513.457 146.738 501.44 146.738C489.423 146.738 479.703 145.147 479.703 143.115C479.703 141.171 489.423 139.492 501.44 139.492C513.457 139.581 523.176 141.171 523.176 143.115Z" fill="#F5C02B"/>
<path d="M528.655 141.967C528.655 145.237 516.462 147.888 501.529 147.888C486.508 147.888 474.402 145.237 474.402 141.967V136.136H528.744V141.967H528.655Z" fill="#B58527"/>
<path d="M528.655 140.73C528.655 144 516.462 146.65 501.529 146.65C486.508 146.65 474.402 144 474.402 140.73V134.898H528.744V140.73H528.655Z" fill="#F5C02B"/>
<path opacity="0.5" d="M490.396 134.898H474.314V140.73C474.314 143.116 480.941 145.148 490.396 146.12V134.898Z" fill="#B89020"/>
<path opacity="0.5" d="M504.887 134.898V146.562C511.779 146.385 517.876 145.59 522.205 144.53V134.898H504.887Z" fill="#F7D085"/>
<path d="M501.529 140.819C516.51 140.819 528.655 138.168 528.655 134.899C528.655 131.629 516.51 128.979 501.529 128.979C486.547 128.979 474.402 131.629 474.402 134.899C474.402 138.168 486.547 140.819 501.529 140.819Z" fill="#F8D47B"/>
<path d="M523.176 134.898C523.176 136.842 513.457 138.521 501.44 138.521C489.423 138.521 479.703 136.93 479.703 134.898C479.703 132.954 489.423 131.275 501.44 131.275C513.457 131.364 523.176 132.954 523.176 134.898Z" fill="#F5C02B"/>
<path d="M528.655 133.75C528.655 137.019 516.462 139.67 501.529 139.67C486.508 139.67 474.402 137.019 474.402 133.75V127.918H528.744V133.75H528.655Z" fill="#B58527"/>
<path d="M528.655 132.512C528.655 135.782 516.462 138.433 501.529 138.433C486.508 138.433 474.402 135.782 474.402 132.512V126.681H528.744V132.512H528.655Z" fill="#F5C02B"/>
<path opacity="0.5" d="M490.396 126.681H474.314V132.512C474.314 134.898 480.941 136.93 490.396 137.902V126.681Z" fill="#B89020"/>
<path opacity="0.5" d="M504.887 126.681V138.344C511.779 138.167 517.876 137.372 522.205 136.312V126.681H504.887Z" fill="#F7D085"/>
<path d="M501.529 132.601C516.51 132.601 528.655 129.95 528.655 126.681C528.655 123.411 516.51 120.761 501.529 120.761C486.547 120.761 474.402 123.411 474.402 126.681C474.402 129.95 486.547 132.601 501.529 132.601Z" fill="#F8D47B"/>
<path d="M523.176 126.68C523.176 128.624 513.457 130.303 501.44 130.303C489.423 130.303 479.703 128.713 479.703 126.68C479.703 124.736 489.423 123.058 501.44 123.058C513.457 123.058 523.176 124.648 523.176 126.68Z" fill="#F5C02B"/>
<path d="M441.444 291.648C441.444 294.917 429.251 297.568 414.318 297.568C399.297 297.568 387.191 294.917 387.191 291.648V285.816H441.533V291.648H441.444Z" fill="#B58527"/>
<path d="M441.444 290.323C441.444 293.592 429.251 296.243 414.318 296.243C399.297 296.243 387.191 293.592 387.191 290.323V284.491H441.533V290.323H441.444Z" fill="#F5C02B"/>
<path opacity="0.5" d="M403.183 284.491H387.102V290.323C387.102 292.709 393.729 294.741 403.183 295.713V284.491Z" fill="#B89020"/>
<path opacity="0.5" d="M417.674 284.491V296.155C424.566 295.978 430.663 295.183 434.992 294.122V284.491H417.674Z" fill="#F7D085"/>
<path d="M414.228 290.412C429.21 290.412 441.354 287.762 441.354 284.492C441.354 281.223 429.21 278.572 414.228 278.572C399.246 278.572 387.102 281.223 387.102 284.492C387.102 287.762 399.246 290.412 414.228 290.412Z" fill="#F8D47B"/>
<path d="M414.229 288.114C426.233 288.114 435.965 286.492 435.965 284.491C435.965 282.49 426.233 280.868 414.229 280.868C402.224 280.868 392.492 282.49 392.492 284.491C392.492 286.492 402.224 288.114 414.229 288.114Z" fill="#F5C02B"/>
<path d="M441.444 283.342C441.444 286.612 429.251 289.263 414.318 289.263C399.297 289.263 387.191 286.612 387.191 283.342V277.511H441.533V283.342H441.444Z" fill="#B58527"/>
<path d="M441.444 282.105C441.444 285.374 429.251 288.025 414.318 288.025C399.297 288.025 387.191 285.374 387.191 282.105V276.273H441.533V282.105H441.444Z" fill="#F5C02B"/>
<path opacity="0.5" d="M403.183 276.273H387.102V282.105C387.102 284.491 393.729 286.523 403.183 287.495V276.273Z" fill="#B89020"/>
<path opacity="0.5" d="M417.674 276.273V287.937C424.566 287.76 430.663 286.965 434.992 285.905V276.273H417.674Z" fill="#F7D085"/>
<path d="M414.228 282.195C429.21 282.195 441.354 279.544 441.354 276.275C441.354 273.005 429.21 270.354 414.228 270.354C399.246 270.354 387.102 273.005 387.102 276.275C387.102 279.544 399.246 282.195 414.228 282.195Z" fill="#F8D47B"/>
<path d="M414.229 279.896C426.233 279.896 435.965 278.274 435.965 276.273C435.965 274.272 426.233 272.65 414.229 272.65C402.224 272.65 392.492 274.272 392.492 276.273C392.492 278.274 402.224 279.896 414.229 279.896Z" fill="#F5C02B"/>
<path d="M441.444 275.125C441.444 278.394 429.251 281.045 414.318 281.045C399.297 281.045 387.191 278.394 387.191 275.125V269.293H441.533V275.125H441.444Z" fill="#B58527"/>
<path d="M441.444 273.887C441.444 277.157 429.251 279.808 414.318 279.808C399.297 279.808 387.191 277.157 387.191 273.887V268.056H441.533V273.887H441.444Z" fill="#F5C02B"/>
<path opacity="0.5" d="M403.183 268.056H387.102V273.887C387.102 276.273 393.729 278.305 403.183 279.277V268.056Z" fill="#B89020"/>
<path opacity="0.5" d="M417.674 268.056V279.719C424.566 279.542 430.663 278.747 434.992 277.687V268.056H417.674Z" fill="#F7D085"/>
<path d="M414.228 273.977C429.21 273.977 441.354 271.326 441.354 268.057C441.354 264.787 429.21 262.137 414.228 262.137C399.246 262.137 387.102 264.787 387.102 268.057C387.102 271.326 399.246 273.977 414.228 273.977Z" fill="#F8D47B"/>
<path d="M414.229 271.678C426.233 271.678 435.965 270.056 435.965 268.055C435.965 266.055 426.233 264.433 414.229 264.433C402.224 264.433 392.492 266.055 392.492 268.055C392.492 270.056 402.224 271.678 414.229 271.678Z" fill="#F5C02B"/>
<path d="M441.444 266.909C441.444 270.178 429.251 272.829 414.318 272.829C399.297 272.829 387.191 270.178 387.191 266.909V261.077H441.533V266.909H441.444Z" fill="#B58527"/>
<path d="M441.444 265.672C441.444 268.941 429.251 271.592 414.318 271.592C399.297 271.592 387.191 268.941 387.191 265.672V259.84H441.533V265.672H441.444Z" fill="#F5C02B"/>
<path opacity="0.5" d="M403.183 259.84H387.102V265.672C387.102 268.057 393.729 270.09 403.183 271.062V259.84Z" fill="#B89020"/>
<path opacity="0.5" d="M417.674 259.84V271.503C424.566 271.327 430.663 270.531 434.992 269.471V259.84H417.674Z" fill="#F7D085"/>
<path d="M414.228 265.76C429.21 265.76 441.354 263.11 441.354 259.84C441.354 256.57 429.21 253.92 414.228 253.92C399.246 253.92 387.102 256.57 387.102 259.84C387.102 263.11 399.246 265.76 414.228 265.76Z" fill="#F8D47B"/>
<path d="M414.229 263.462C426.233 263.462 435.965 261.84 435.965 259.84C435.965 257.839 426.233 256.217 414.229 256.217C402.224 256.217 392.492 257.839 392.492 259.84C392.492 261.84 402.224 263.462 414.229 263.462Z" fill="#F5C02B"/>
<path d="M479.792 294.741C479.792 298.01 467.598 300.661 452.665 300.661C437.644 300.661 425.539 298.01 425.539 294.741V288.909H479.792V294.741Z" fill="#B58527"/>
<path d="M479.792 293.505C479.792 296.774 467.598 299.425 452.665 299.425C437.644 299.425 425.539 296.774 425.539 293.505V287.673H479.792V293.505Z" fill="#F5C02B"/>
<path opacity="0.5" d="M441.621 287.673H425.539V293.505C425.539 295.89 432.166 297.923 441.621 298.895V287.673Z" fill="#B89020"/>
<path opacity="0.5" d="M456.113 287.673V299.336C463.005 299.16 469.102 298.364 473.432 297.304V287.673H456.113Z" fill="#F7D085"/>
<path d="M452.665 293.592C467.647 293.592 479.792 290.942 479.792 287.672C479.792 284.402 467.647 281.752 452.665 281.752C437.684 281.752 425.539 284.402 425.539 287.672C425.539 290.942 437.684 293.592 452.665 293.592Z" fill="#F8D47B"/>
<path d="M452.666 291.295C464.671 291.295 474.403 289.673 474.403 287.673C474.403 285.672 464.671 284.05 452.666 284.05C440.661 284.05 430.93 285.672 430.93 287.673C430.93 289.673 440.661 291.295 452.666 291.295Z" fill="#F5C02B"/>
<path d="M479.792 286.524C479.792 289.793 467.598 292.444 452.665 292.444C437.644 292.444 425.539 289.793 425.539 286.524V280.692H479.792V286.524Z" fill="#B58527"/>
<path d="M479.792 285.287C479.792 288.556 467.598 291.207 452.665 291.207C437.644 291.207 425.539 288.556 425.539 285.287V279.455H479.792V285.287Z" fill="#F5C02B"/>
<path opacity="0.5" d="M441.621 279.367H425.539V285.199C425.539 287.585 432.166 289.617 441.621 290.589V279.367Z" fill="#B89020"/>
<path opacity="0.5" d="M456.113 279.367V291.031C463.005 290.854 469.102 290.059 473.432 288.998V279.367H456.113Z" fill="#F7D085"/>
<path d="M452.665 285.287C467.647 285.287 479.792 282.637 479.792 279.367C479.792 276.098 467.647 273.447 452.665 273.447C437.684 273.447 425.539 276.098 425.539 279.367C425.539 282.637 437.684 285.287 452.665 285.287Z" fill="#F8D47B"/>
<path d="M452.666 282.99C464.671 282.99 474.403 281.368 474.403 279.367C474.403 277.366 464.671 275.744 452.666 275.744C440.661 275.744 430.93 277.366 430.93 279.367C430.93 281.368 440.661 282.99 452.666 282.99Z" fill="#F5C02B"/>
<path d="M479.792 278.306C479.792 281.576 467.598 284.226 452.665 284.226C437.644 284.226 425.539 281.576 425.539 278.306V272.475H479.792V278.306Z" fill="#B58527"/>
<path d="M479.792 276.982C479.792 280.251 467.598 282.902 452.665 282.902C437.644 282.902 425.539 280.251 425.539 276.982V271.15H479.792V276.982Z" fill="#F5C02B"/>
<path opacity="0.5" d="M441.621 271.15H425.539V276.982C425.539 279.368 432.166 281.4 441.621 282.372V271.15Z" fill="#B89020"/>
<path opacity="0.5" d="M456.113 271.15V282.814C463.005 282.637 469.102 281.842 473.432 280.782V271.15H456.113Z" fill="#F7D085"/>
<path d="M452.665 277.07C467.647 277.07 479.792 274.419 479.792 271.15C479.792 267.88 467.647 265.229 452.665 265.229C437.684 265.229 425.539 267.88 425.539 271.15C425.539 274.419 437.684 277.07 452.665 277.07Z" fill="#F8D47B"/>
<path d="M452.666 274.773C464.671 274.773 474.403 273.151 474.403 271.15C474.403 269.149 464.671 267.527 452.666 267.527C440.661 267.527 430.93 269.149 430.93 271.15C430.93 273.151 440.661 274.773 452.666 274.773Z" fill="#F5C02B"/>
<path d="M479.792 270.002C479.792 273.271 467.598 275.922 452.665 275.922C437.644 275.922 425.539 273.271 425.539 270.002V264.17H479.792V270.002Z" fill="#B58527"/>
<path d="M479.792 268.764C479.792 272.034 467.598 274.684 452.665 274.684C437.644 274.684 425.539 272.034 425.539 268.764V262.933H479.792V268.764Z" fill="#F5C02B"/>
<path opacity="0.5" d="M441.621 262.933H425.539V268.764C425.539 271.15 432.166 273.182 441.621 274.154V262.933Z" fill="#B89020"/>
<path opacity="0.5" d="M456.113 262.933V274.596C463.005 274.419 469.102 273.624 473.432 272.564V262.933H456.113Z" fill="#F7D085"/>
<path d="M452.665 268.853C467.647 268.853 479.792 266.202 479.792 262.933C479.792 259.663 467.647 257.013 452.665 257.013C437.684 257.013 425.539 259.663 425.539 262.933C425.539 266.202 437.684 268.853 452.665 268.853Z" fill="#F8D47B"/>
<path d="M452.666 266.555C464.671 266.555 474.403 264.933 474.403 262.932C474.403 260.932 464.671 259.31 452.666 259.31C440.661 259.31 430.93 260.932 430.93 262.932C430.93 264.933 440.661 266.555 452.666 266.555Z" fill="#F5C02B"/>
<path d="M479.792 261.784C479.792 265.053 467.598 267.704 452.665 267.704C437.644 267.704 425.539 265.053 425.539 261.784V255.952H479.792V261.784Z" fill="#B58527"/>
<path d="M479.792 260.548C479.792 263.817 467.598 266.468 452.665 266.468C437.644 266.468 425.539 263.817 425.539 260.548V254.716H479.792V260.548Z" fill="#F5C02B"/>
<path opacity="0.5" d="M441.621 254.716H425.539V260.548C425.539 262.933 432.166 264.966 441.621 265.938V254.716Z" fill="#B89020"/>
<path opacity="0.5" d="M456.113 254.716V266.379C463.005 266.203 469.102 265.407 473.432 264.347V254.716H456.113Z" fill="#F7D085"/>
<path d="M452.665 260.635C467.647 260.635 479.792 257.985 479.792 254.715C479.792 251.445 467.647 248.795 452.665 248.795C437.684 248.795 425.539 251.445 425.539 254.715C425.539 257.985 437.684 260.635 452.665 260.635Z" fill="#F8D47B"/>
<path d="M452.666 258.338C464.671 258.338 474.403 256.716 474.403 254.716C474.403 252.715 464.671 251.093 452.666 251.093C440.661 251.093 430.93 252.715 430.93 254.716C430.93 256.716 440.661 258.338 452.666 258.338Z" fill="#F5C02B"/>
<path d="M479.792 253.567C479.792 256.836 467.598 259.487 452.665 259.487C437.644 259.487 425.539 256.836 425.539 253.567V247.735H479.792V253.567Z" fill="#B58527"/>
<path d="M479.792 252.33C479.792 255.599 467.598 258.25 452.665 258.25C437.644 258.25 425.539 255.599 425.539 252.33V246.498H479.792V252.33Z" fill="#F5C02B"/>
<path opacity="0.5" d="M441.621 246.498H425.539V252.33C425.539 254.716 432.166 256.748 441.621 257.72V246.498Z" fill="#B89020"/>
<path opacity="0.5" d="M456.113 246.498V258.162C463.005 257.985 469.102 257.19 473.432 256.129V246.498H456.113Z" fill="#F7D085"/>
<path d="M452.665 252.418C467.647 252.418 479.792 249.768 479.792 246.498C479.792 243.229 467.647 240.578 452.665 240.578C437.684 240.578 425.539 243.229 425.539 246.498C425.539 249.768 437.684 252.418 452.665 252.418Z" fill="#F8D47B"/>
<path d="M452.666 250.121C464.671 250.121 474.403 248.499 474.403 246.498C474.403 244.497 464.671 242.875 452.666 242.875C440.661 242.875 430.93 244.497 430.93 246.498C430.93 248.499 440.661 250.121 452.666 250.121Z" fill="#F5C02B"/>
<path d="M479.792 245.348C479.792 248.618 467.598 251.268 452.665 251.268C437.644 251.268 425.539 248.618 425.539 245.348V239.517H479.792V245.348Z" fill="#B58527"/>
<path d="M479.792 244.023C479.792 247.292 467.598 249.943 452.665 249.943C437.644 249.943 425.539 247.292 425.539 244.023V238.191H479.792V244.023Z" fill="#F5C02B"/>
<path opacity="0.5" d="M441.621 238.191H425.539V244.023C425.539 246.409 432.166 248.441 441.621 249.413V238.191Z" fill="#B89020"/>
<path opacity="0.5" d="M456.113 238.191V249.855C463.005 249.678 469.102 248.883 473.432 247.823V238.191H456.113Z" fill="#F7D085"/>
<path d="M452.665 244.112C467.647 244.112 479.792 241.461 479.792 238.192C479.792 234.922 467.647 232.271 452.665 232.271C437.684 232.271 425.539 234.922 425.539 238.192C425.539 241.461 437.684 244.112 452.665 244.112Z" fill="#F8D47B"/>
<path d="M452.666 241.814C464.671 241.814 474.403 240.192 474.403 238.191C474.403 236.19 464.671 234.568 452.666 234.568C440.661 234.568 430.93 236.19 430.93 238.191C430.93 240.192 440.661 241.814 452.666 241.814Z" fill="#F5C02B"/>
<defs>
<linearGradient id="paint0_linear" x1="326.489" y1="305.916" x2="326.489" y2="94.0556" gradientUnits="userSpaceOnUse">
<stop stop-color="#57348F"/>
<stop offset="0.9947" stop-color="#2B488C"/>
</linearGradient>
</defs>
</svg>
