<svg width="568" height="393" viewBox="0 0 568 393" fill="none" xmlns="http://www.w3.org/2000/svg" xmlns:xlink="http://www.w3.org/1999/xlink">
<path d="M567.204 196.5C567.204 212.142 564.714 227.356 560.044 241.948C532.846 326.579 431.327 390.004 309.03 392.883C306.151 392.961 303.271 393 300.392 393C251.364 393 205.41 383.272 165.916 366.268C165.332 365.996 164.749 365.762 164.165 365.49C163.698 365.295 163.27 365.101 162.842 364.906C160.857 364.011 158.873 363.116 156.927 362.183C155.215 361.365 153.503 360.548 151.83 359.731C148.99 358.33 146.227 356.891 143.464 355.412C136.499 351.677 129.807 347.708 123.386 343.505C122.764 343.116 122.141 342.688 121.519 342.26C116.732 339.069 112.102 335.762 107.627 332.338C104.748 330.12 101.946 327.863 99.1837 325.529C99.1448 325.49 99.067 325.412 98.9891 325.373C98.7946 325.178 98.5611 325.023 98.3666 324.828C98.172 324.672 97.9774 324.478 97.7829 324.322C93.1914 320.392 88.8334 316.346 84.7088 312.143C82.9968 310.392 81.2847 308.641 79.6504 306.851C79.4948 306.657 79.3391 306.501 79.1446 306.307C78.4831 305.567 77.7827 304.828 77.1212 304.089C72.5297 298.952 68.2884 293.66 64.3584 288.174C64.0472 287.746 63.7748 287.357 63.4635 286.929C61.2845 283.816 59.1833 280.703 57.2378 277.512C45.2532 258.018 37.4321 236.851 34.6694 214.594C33.9301 208.64 33.541 202.57 33.541 196.461C33.5799 87.9775 153.036 0 300.392 0C346.073 0 389.031 8.44366 426.619 23.3465C510.316 56.4986 567.204 121.597 567.204 196.5Z" fill="url(#paint0_linear)"/>
<path d="M432.534 241.286C434.49 241.286 436.075 239.701 436.075 237.746C436.075 235.79 434.49 234.205 432.534 234.205C430.578 234.205 428.993 235.79 428.993 237.746C428.993 239.701 430.578 241.286 432.534 241.286Z" fill="url(#paint1_linear)"/>
<path d="M451.406 241.286C453.362 241.286 454.947 239.701 454.947 237.745C454.947 235.79 453.362 234.205 451.406 234.205C449.451 234.205 447.865 235.79 447.865 237.745C447.865 239.701 449.451 241.286 451.406 241.286Z" fill="url(#paint2_linear)"/>
<path d="M470.239 241.286C472.195 241.286 473.78 239.701 473.78 237.745C473.78 235.79 472.195 234.205 470.239 234.205C468.284 234.205 466.698 235.79 466.698 237.745C466.698 239.701 468.284 241.286 470.239 241.286Z" fill="url(#paint3_linear)"/>
<path d="M489.11 241.286C491.066 241.286 492.651 239.701 492.651 237.745C492.651 235.79 491.066 234.205 489.11 234.205C487.155 234.205 485.569 235.79 485.569 237.745C485.569 239.701 487.155 241.286 489.11 241.286Z" fill="url(#paint4_linear)"/>
<path d="M507.943 241.286C509.899 241.286 511.484 239.701 511.484 237.745C511.484 235.79 509.899 234.205 507.943 234.205C505.988 234.205 504.402 235.79 504.402 237.745C504.402 239.701 505.988 241.286 507.943 241.286Z" fill="url(#paint5_linear)"/>
<path d="M432.534 254.127C434.49 254.127 436.075 252.542 436.075 250.586C436.075 248.63 434.49 247.045 432.534 247.045C430.578 247.045 428.993 248.63 428.993 250.586C428.993 252.542 430.578 254.127 432.534 254.127Z" fill="url(#paint6_linear)"/>
<path d="M451.406 254.127C453.362 254.127 454.947 252.542 454.947 250.586C454.947 248.63 453.362 247.045 451.406 247.045C449.451 247.045 447.865 248.63 447.865 250.586C447.865 252.542 449.451 254.127 451.406 254.127Z" fill="url(#paint7_linear)"/>
<path d="M470.239 254.127C472.195 254.127 473.78 252.542 473.78 250.586C473.78 248.63 472.195 247.045 470.239 247.045C468.284 247.045 466.698 248.63 466.698 250.586C466.698 252.542 468.284 254.127 470.239 254.127Z" fill="url(#paint8_linear)"/>
<path d="M489.11 254.127C491.066 254.127 492.651 252.542 492.651 250.586C492.651 248.63 491.066 247.045 489.11 247.045C487.155 247.045 485.569 248.63 485.569 250.586C485.569 252.542 487.155 254.127 489.11 254.127Z" fill="url(#paint9_linear)"/>
<path d="M507.943 254.127C509.899 254.127 511.484 252.542 511.484 250.586C511.484 248.63 509.899 247.045 507.943 247.045C505.988 247.045 504.402 248.63 504.402 250.586C504.402 252.542 505.988 254.127 507.943 254.127Z" fill="url(#paint10_linear)"/>
<path d="M432.534 266.929C434.49 266.929 436.075 265.343 436.075 263.388C436.075 261.432 434.49 259.847 432.534 259.847C430.578 259.847 428.993 261.432 428.993 263.388C428.993 265.343 430.578 266.929 432.534 266.929Z" fill="url(#paint11_linear)"/>
<path d="M451.406 266.929C453.362 266.929 454.947 265.343 454.947 263.388C454.947 261.432 453.362 259.847 451.406 259.847C449.451 259.847 447.865 261.432 447.865 263.388C447.865 265.343 449.451 266.929 451.406 266.929Z" fill="url(#paint12_linear)"/>
<path d="M470.239 266.929C472.195 266.929 473.78 265.343 473.78 263.388C473.78 261.432 472.195 259.847 470.239 259.847C468.284 259.847 466.698 261.432 466.698 263.388C466.698 265.343 468.284 266.929 470.239 266.929Z" fill="url(#paint13_linear)"/>
<path d="M489.11 266.929C491.066 266.929 492.651 265.343 492.651 263.388C492.651 261.432 491.066 259.847 489.11 259.847C487.155 259.847 485.569 261.432 485.569 263.388C485.569 265.343 487.155 266.929 489.11 266.929Z" fill="url(#paint14_linear)"/>
<path d="M507.943 266.929C509.899 266.929 511.484 265.343 511.484 263.388C511.484 261.432 509.899 259.847 507.943 259.847C505.988 259.847 504.402 261.432 504.402 263.388C504.402 265.343 505.988 266.929 507.943 266.929Z" fill="url(#paint15_linear)"/>
<path d="M432.534 279.769C434.49 279.769 436.075 278.184 436.075 276.228C436.075 274.273 434.49 272.687 432.534 272.687C430.578 272.687 428.993 274.273 428.993 276.228C428.993 278.184 430.578 279.769 432.534 279.769Z" fill="url(#paint16_linear)"/>
<path d="M451.406 279.769C453.362 279.769 454.947 278.184 454.947 276.228C454.947 274.273 453.362 272.687 451.406 272.687C449.451 272.687 447.865 274.273 447.865 276.228C447.865 278.184 449.451 279.769 451.406 279.769Z" fill="url(#paint17_linear)"/>
<path d="M470.239 279.769C472.195 279.769 473.78 278.184 473.78 276.228C473.78 274.273 472.195 272.687 470.239 272.687C468.284 272.687 466.698 274.273 466.698 276.228C466.698 278.184 468.284 279.769 470.239 279.769Z" fill="url(#paint18_linear)"/>
<path d="M489.11 279.769C491.066 279.769 492.651 278.184 492.651 276.228C492.651 274.273 491.066 272.687 489.11 272.687C487.155 272.687 485.569 274.273 485.569 276.228C485.569 278.184 487.155 279.769 489.11 279.769Z" fill="url(#paint19_linear)"/>
<path d="M507.943 279.769C509.899 279.769 511.484 278.184 511.484 276.228C511.484 274.273 509.899 272.687 507.943 272.687C505.988 272.687 504.402 274.273 504.402 276.228C504.402 278.184 505.988 279.769 507.943 279.769Z" fill="url(#paint20_linear)"/>
<path d="M70.0785 280.042C60.3118 280.042 52.374 272.104 52.374 262.337C52.374 252.571 60.3118 244.633 70.0785 244.633C79.8451 244.633 87.7829 252.571 87.7829 262.337C87.7829 272.104 79.8451 280.042 70.0785 280.042ZM70.0785 248.485C62.4519 248.485 56.2262 254.711 56.2262 262.337C56.2262 269.964 62.4519 276.19 70.0785 276.19C77.705 276.19 83.9308 269.964 83.9308 262.337C83.9308 254.711 77.705 248.485 70.0785 248.485Z" fill="#9CE887"/>
<path d="M145.488 130.274H36.2259C33.6578 130.274 31.5566 128.173 31.5566 125.604V24.4362C31.5566 21.868 33.6578 19.7668 36.2259 19.7668H145.488C148.056 19.7668 150.157 21.868 150.157 24.4362V125.604C150.157 128.173 148.056 130.274 145.488 130.274Z" fill="url(#paint21_linear)"/>
<path d="M67.7048 156.033H13.891C11.3229 156.033 9.22168 153.932 9.22168 151.363V101.869C9.22168 99.3006 11.3229 97.1995 13.891 97.1995H67.7048C70.2729 97.1995 72.3741 99.3006 72.3741 101.869V151.363C72.3741 153.932 70.2729 156.033 67.7048 156.033Z" fill="url(#paint22_linear)"/>
<path d="M55.02 165.294H8.13238C3.65762 165.294 0 161.636 0 157.161V114.554C0 110.079 3.65762 106.421 8.13238 106.421H55.02C59.4948 106.421 63.1524 110.079 63.1524 114.554V157.122C63.1524 161.636 59.4948 165.294 55.02 165.294Z" fill="url(#paint23_linear)"/>
<path d="M447.086 100.662H500.9C503.468 100.662 505.569 102.764 505.569 105.332V154.826C505.569 157.394 503.468 159.496 500.9 159.496H447.086C444.518 159.496 442.417 157.394 442.417 154.826V105.332C442.417 102.764 444.518 100.662 447.086 100.662Z" fill="url(#paint24_linear)"/>
<path d="M459.771 91.4407H506.659C511.133 91.4407 514.791 95.0983 514.791 99.573V142.142C514.791 146.616 511.133 150.274 506.659 150.274H459.771C455.296 150.274 451.639 146.616 451.639 142.142V99.573C451.639 95.0983 455.296 91.4407 459.771 91.4407Z" fill="url(#paint25_linear)"/>
<path d="M402.028 121.791H468.877C475.024 121.791 480.083 126.811 480.083 132.997V193.776C480.083 199.924 475.063 204.982 468.877 204.982H402.028C395.88 204.982 390.821 199.963 390.821 193.776V132.997C390.86 126.849 395.88 121.791 402.028 121.791Z" fill="url(#paint26_linear)"/>
<g opacity="0.6">
<rect x="76.6543" y="68.4832" width="339.692" height="298.057" fill="url(#pattern0)"/>
</g>
<g opacity="0.4">
<rect x="57.9775" y="38.1326" width="377.047" height="334.245" fill="url(#pattern1)"/>
</g>
<path d="M117.628 48.522H375.335C398.331 48.522 417.164 67.3548 417.164 90.3512V302.416C417.164 325.412 398.331 344.245 375.335 344.245H117.628C94.6317 344.245 75.7988 325.412 75.7988 302.416V90.3512C75.7988 67.3548 94.5928 48.522 117.628 48.522Z" fill="white" stroke="#A3A3E3" stroke-width="10" stroke-miterlimit="10"/>
<path opacity="0.1" d="M191.053 176.344H126.266C119.418 176.344 113.814 170.741 113.814 163.893V99.1451C113.814 92.2968 119.418 86.6936 126.266 86.6936H191.053C197.901 86.6936 203.504 92.2968 203.504 99.1451V163.932C203.504 170.741 197.901 176.344 191.053 176.344Z" fill="#181BA2"/>
<path d="M165.566 129.262C164.555 119.262 168.757 111.985 170.313 109.69H163.193C163.309 110.935 162.881 112.18 162.22 113.27C160.625 115.877 156.734 115.877 155.138 113.27C154.477 112.18 154.01 110.935 154.165 109.69H147.045C148.601 111.985 152.842 119.262 151.792 129.262C151.325 133.931 148.796 134.67 146.772 138.639C143.932 144.359 144.399 151.791 144.554 153.348H172.765C172.92 151.791 173.387 144.32 170.547 138.639C168.562 134.632 166.033 133.931 165.566 129.262Z" fill="#55637D"/>
<g opacity="0.5">
<g opacity="0.5">
<path opacity="0.5" d="M227.59 98.639H230.041V111.596H227.59V98.639ZM228.718 104.242H232.882C233.154 104.242 233.426 104.164 233.66 104.048C233.893 103.931 234.049 103.736 234.166 103.464C234.283 103.23 234.36 102.958 234.36 102.608C234.36 102.297 234.283 101.985 234.166 101.752C234.049 101.518 233.854 101.324 233.66 101.168C233.426 101.051 233.193 100.974 232.882 100.974H228.718V98.6001H232.804C233.621 98.6001 234.321 98.7557 234.944 99.1059C235.567 99.4172 236.033 99.8842 236.384 100.507C236.734 101.09 236.89 101.791 236.89 102.608C236.89 103.425 236.734 104.087 236.384 104.709C236.033 105.293 235.567 105.76 234.944 106.11C234.321 106.421 233.621 106.616 232.804 106.616H228.718V104.242Z" fill="#55637D"/>
<path opacity="0.5" d="M238.796 98.6391H241.247V111.635H238.796V98.6391ZM239.769 104.048H244.282C244.516 104.048 244.749 103.97 244.944 103.853C245.138 103.736 245.294 103.542 245.372 103.308C245.489 103.075 245.527 102.803 245.527 102.491C245.527 102.18 245.489 101.908 245.372 101.674C245.255 101.441 245.138 101.246 244.944 101.129C244.749 101.013 244.516 100.935 244.282 100.935H239.769V98.5613H244.477C245.177 98.5613 245.8 98.7169 246.345 99.0282C246.889 99.3395 247.317 99.8064 247.59 100.39C247.901 100.974 248.018 101.674 248.018 102.413C248.018 103.192 247.862 103.853 247.59 104.437C247.278 105.02 246.889 105.487 246.345 105.799C245.8 106.11 245.177 106.266 244.477 106.266H239.769V104.048ZM242.492 105.993L245.099 105.565L248.601 111.596H245.644L242.492 105.993Z" fill="#55637D"/>
<path opacity="0.5" d="M252.337 111.168C251.637 110.779 251.053 110.195 250.664 109.495C250.275 108.756 250.08 107.939 250.08 106.966V103.308C250.08 102.374 250.275 101.518 250.664 100.779C251.053 100.04 251.598 99.495 252.337 99.1059C253.037 98.7168 253.893 98.5222 254.827 98.5222C255.761 98.5222 256.578 98.7168 257.317 99.1059C258.018 99.495 258.602 100.079 258.991 100.779C259.38 101.518 259.574 102.335 259.574 103.308V106.966C259.574 107.9 259.38 108.756 258.991 109.495C258.602 110.234 258.057 110.779 257.317 111.168C256.617 111.557 255.761 111.752 254.827 111.752C253.893 111.752 253.037 111.557 252.337 111.168ZM255.995 109.028C256.345 108.834 256.578 108.561 256.773 108.211C256.967 107.861 257.045 107.472 257.045 107.005V103.192C257.045 102.725 256.967 102.335 256.773 101.985C256.578 101.635 256.345 101.363 255.995 101.168C255.644 100.974 255.255 100.896 254.827 100.896C254.399 100.896 254.01 100.974 253.66 101.168C253.31 101.363 253.076 101.635 252.882 101.985C252.687 102.335 252.609 102.725 252.609 103.192V107.005C252.609 107.472 252.687 107.861 252.882 108.211C253.076 108.561 253.31 108.834 253.66 109.028C254.01 109.223 254.36 109.301 254.827 109.301C255.255 109.301 255.644 109.223 255.995 109.028Z" fill="#55637D"/>
<path opacity="0.5" d="M261.987 98.6389H264.439V111.596H261.987V98.6389ZM263.194 109.262H266.306C267.124 109.262 267.746 109.067 268.174 108.678C268.602 108.289 268.836 107.744 268.836 107.044V103.23C268.836 102.53 268.602 101.985 268.174 101.596C267.746 101.207 267.124 101.012 266.306 101.012H263.194V98.6389H266.268C267.357 98.6389 268.291 98.8335 269.03 99.1837C269.808 99.5339 270.392 100.079 270.781 100.779C271.17 101.479 271.365 102.297 271.365 103.308V106.966C271.365 107.9 271.17 108.717 270.781 109.417C270.392 110.118 269.808 110.662 269.069 111.051C268.291 111.441 267.357 111.635 266.268 111.635H263.232V109.262H263.194Z" fill="#55637D"/>
<path opacity="0.5" d="M275.606 111.207C274.905 110.818 274.361 110.273 273.971 109.573C273.621 108.833 273.427 107.977 273.427 106.966V98.6777H275.878V107.005C275.878 107.744 276.073 108.328 276.462 108.717C276.851 109.145 277.435 109.339 278.135 109.339C278.874 109.339 279.419 109.145 279.847 108.717C280.236 108.289 280.431 107.744 280.431 107.005V98.6777H282.882V106.966C282.882 107.977 282.688 108.872 282.337 109.573C281.948 110.312 281.442 110.857 280.703 111.207C280.003 111.596 279.147 111.791 278.135 111.791C277.162 111.752 276.306 111.557 275.606 111.207Z" fill="#55637D"/>
<path opacity="0.5" d="M287.123 111.207C286.423 110.818 285.878 110.273 285.528 109.573C285.178 108.834 284.983 107.978 284.983 106.966V103.386C284.983 102.374 285.178 101.479 285.528 100.779C285.878 100.04 286.423 99.495 287.123 99.1059C287.824 98.7168 288.68 98.5222 289.653 98.5222C290.47 98.5222 291.209 98.7168 291.832 99.067C292.493 99.4172 292.999 99.923 293.427 100.584C293.855 101.246 294.127 102.063 294.283 102.997H291.754C291.676 102.569 291.52 102.219 291.326 101.907C291.131 101.596 290.898 101.363 290.587 101.207C290.314 101.051 290.003 100.974 289.653 100.974C289.186 100.974 288.797 101.051 288.485 101.246C288.174 101.441 287.902 101.713 287.746 102.063C287.59 102.413 287.474 102.841 287.474 103.347V106.927C287.474 107.433 287.552 107.861 287.746 108.211C287.902 108.561 288.174 108.834 288.485 109.028C288.797 109.223 289.186 109.301 289.653 109.301C290.003 109.301 290.314 109.223 290.625 109.067C290.898 108.911 291.17 108.678 291.365 108.367C291.559 108.055 291.715 107.705 291.793 107.277H294.322C294.166 108.211 293.855 109.028 293.427 109.69C292.999 110.351 292.493 110.857 291.832 111.207C291.209 111.557 290.47 111.752 289.653 111.752C288.68 111.752 287.824 111.557 287.123 111.207Z" fill="#55637D"/>
<path opacity="0.5" d="M294.75 98.6389H304.283V101.012H294.75V98.6389ZM298.291 99.7284H300.742V111.635H298.291V99.7284Z" fill="#55637D"/>
</g>
</g>
<path d="M252.766 127.2C252.766 127.472 252.766 127.706 252.727 127.861L252.688 128.406C252.61 129.184 252.416 129.768 252.104 130.157C251.793 130.546 251.404 130.741 250.937 130.741H245.684C247.201 131.791 248.174 133.27 248.563 135.176H250.859C251.521 135.176 251.871 135.566 251.871 136.305L251.832 136.85L251.793 137.317C251.715 137.939 251.598 138.367 251.404 138.64C251.209 138.912 250.859 139.029 250.431 139.029H248.602C248.096 141.83 246.696 144.009 244.439 145.605C242.143 147.2 239.225 147.978 235.645 147.978H233.271L233.232 148.212C234.011 148.367 234.75 148.64 235.411 149.107C236.073 149.535 236.851 150.274 237.668 151.286L245.217 160.507C245.762 161.169 246.034 161.675 246.034 162.064C246.034 162.842 245.1 163.231 243.194 163.231H241.209C240.314 163.231 239.614 163.153 239.108 162.998C238.602 162.842 238.135 162.453 237.668 161.83L227.474 149.184C227.046 148.679 226.734 148.251 226.54 147.861C226.345 147.472 226.229 147.005 226.229 146.538L226.267 145.955L226.306 145.41C226.384 144.593 226.579 144.009 226.851 143.659C227.162 143.309 227.629 143.153 228.291 143.153H234.517C238.602 143.153 240.976 141.791 241.715 139.068H228.135C227.746 139.068 227.474 138.951 227.279 138.678C227.085 138.445 227.046 137.978 227.123 137.355L227.162 136.889C227.24 136.266 227.396 135.838 227.59 135.604C227.824 135.371 228.135 135.215 228.563 135.215H241.637C241.326 133.97 240.703 132.997 239.847 132.336C238.952 131.674 237.785 131.324 236.268 131.324H229.264C228.836 131.324 228.485 131.13 228.252 130.741C228.018 130.352 227.902 129.69 227.98 128.795L228.018 128.056C228.096 127.239 228.291 126.616 228.68 126.227C229.03 125.838 229.458 125.643 229.925 125.643H251.482C252.338 125.565 252.766 126.11 252.766 127.2Z" fill="#404857"/>
<path d="M287.552 135.371L280.003 136.266C280.003 134.67 279.731 133.542 279.186 132.958C278.641 132.336 277.629 132.063 276.229 132.063C272.454 132.063 270.431 135.41 270.236 142.102C272.61 140.702 275.1 140.001 277.746 140.001C280.976 140.001 283.505 140.896 285.373 142.647C287.24 144.398 288.174 146.966 288.174 150.352C288.174 154.359 287.007 157.356 284.672 159.34C282.338 161.324 279.225 162.297 275.334 162.297C272.805 162.297 270.626 161.869 268.875 160.974C267.124 160.118 265.723 158.834 264.75 157.161C263.777 155.488 263.077 153.659 262.649 151.636C262.221 149.612 261.987 147.278 261.987 144.632C261.987 142.53 262.221 140.507 262.649 138.562C263.077 136.616 263.816 134.709 264.828 132.803C265.839 130.896 267.318 129.379 269.303 128.25C271.287 127.122 273.661 126.538 276.423 126.538C283.816 126.538 287.552 129.456 287.552 135.371ZM270.198 147.433C270.236 148.717 270.314 149.807 270.47 150.741C270.626 151.636 270.859 152.569 271.209 153.503C271.559 154.437 272.065 155.138 272.805 155.643C273.505 156.149 274.4 156.383 275.489 156.383C278.486 156.383 280.003 154.476 280.003 150.702C280.003 148.873 279.692 147.589 279.03 146.85C278.369 146.11 277.279 145.721 275.645 145.721C273.855 145.721 272.026 146.266 270.198 147.433Z" fill="#404857"/>
<path d="M291.793 158.523L295.217 153.581C297.513 155.527 300.003 156.461 302.649 156.461C305.023 156.461 306.618 155.683 307.513 154.087C308.408 152.531 308.914 150.313 309.031 147.511C306.929 148.873 304.439 149.535 301.521 149.535C298.447 149.535 295.956 148.562 293.972 146.577C292.026 144.593 291.054 141.83 291.054 138.289C291.054 134.476 292.182 131.519 294.439 129.457C296.696 127.394 299.809 126.344 303.778 126.344C312.805 126.344 317.357 132.103 317.357 143.62C317.357 156.149 312.571 162.453 303.038 162.453C300.898 162.453 298.797 162.103 296.735 161.402C294.672 160.702 293.038 159.729 291.793 158.523ZM309.031 141.752C308.953 140.391 308.836 139.223 308.719 138.25C308.564 137.278 308.33 136.266 307.98 135.293C307.63 134.282 307.085 133.542 306.385 132.998C305.684 132.492 304.789 132.219 303.778 132.219C300.82 132.219 299.342 134.126 299.342 137.9C299.342 139.885 299.653 141.324 300.314 142.258C300.976 143.192 302.065 143.698 303.622 143.698C305.412 143.659 307.241 143.037 309.031 141.752Z" fill="#404857"/>
<path d="M321.365 158.523L324.789 153.581C327.085 155.527 329.575 156.461 332.221 156.461C334.595 156.461 336.19 155.683 337.085 154.087C337.98 152.531 338.486 150.313 338.603 147.511C336.502 148.873 334.011 149.535 331.093 149.535C328.019 149.535 325.529 148.562 323.544 146.577C321.599 144.593 320.626 141.83 320.626 138.289C320.626 134.476 321.754 131.519 324.011 129.457C326.268 127.394 329.381 126.344 333.35 126.344C342.377 126.344 346.93 132.103 346.93 143.62C346.93 156.149 342.144 162.453 332.611 162.453C330.47 162.453 328.369 162.103 326.307 161.402C324.284 160.702 322.61 159.729 321.365 158.523ZM338.642 141.752C338.564 140.391 338.447 139.223 338.33 138.25C338.175 137.278 337.941 136.266 337.591 135.293C337.241 134.282 336.696 133.542 335.996 132.998C335.295 132.492 334.4 132.219 333.389 132.219C330.432 132.219 328.953 134.126 328.953 137.9C328.953 139.885 329.264 141.324 329.926 142.258C330.587 143.192 331.677 143.698 333.233 143.698C334.984 143.659 336.813 143.037 338.642 141.752Z" fill="#404857"/>
<path d="M439.148 324.361H255.138C250.391 324.361 246.5 320.47 246.5 315.723V268.135C246.5 263.388 250.391 259.497 255.138 259.497H439.109C443.856 259.497 447.747 263.388 447.747 268.135V315.723C447.747 320.47 443.856 324.361 439.148 324.361Z" fill="#181BA2"/>
<path d="M312.571 301.404H303.66V282.299H312.259C316.151 282.299 318.485 284.244 318.485 287.24C318.485 289.575 317.084 291.054 315.256 291.598C317.474 292.065 318.952 294.011 318.952 296.19C318.913 299.342 316.579 301.404 312.571 301.404ZM311.365 285.995H308.329V290.003H311.365C312.882 290.003 313.738 289.303 313.738 288.019C313.738 286.696 312.882 285.995 311.365 285.995ZM311.676 293.427H308.291V297.669H311.715C313.271 297.669 314.166 296.968 314.166 295.606C314.205 294.205 313.232 293.427 311.676 293.427Z" fill="white"/>
<path d="M326.968 282.26H331.637V293.7C331.637 295.956 332.765 297.279 334.945 297.279C337.124 297.279 338.33 295.956 338.33 293.7V282.26H342.999V293.661C342.999 298.953 339.303 301.56 334.867 301.56C330.431 301.56 326.968 298.953 326.968 293.661V282.26Z" fill="white"/>
<path d="M350.197 282.26H355.489L359.186 290.275L362.882 282.26H368.096L361.481 295.061V301.365H356.812V295.061L350.197 282.26Z" fill="white"/>
<path d="M410.043 310.82C420.465 310.82 428.914 302.371 428.914 291.948C428.914 281.526 420.465 273.077 410.043 273.077C399.62 273.077 391.171 281.526 391.171 291.948C391.171 302.371 399.62 310.82 410.043 310.82Z" fill="#3439EB"/>
<path d="M406.074 301.676C405.763 301.676 405.413 301.559 405.179 301.287C404.673 300.781 404.673 299.964 405.179 299.497L413.234 291.443L406.152 284.361C405.646 283.855 405.646 283.038 406.152 282.571C406.658 282.065 407.475 282.065 407.942 282.571L416.814 291.443L406.93 301.326C406.697 301.559 406.385 301.676 406.074 301.676Z" fill="white"/>
<path opacity="0.1" d="M363.778 217.784H118.523C115.955 217.784 113.854 215.683 113.854 213.115V209.691C113.854 207.123 115.955 205.021 118.523 205.021H363.817C366.385 205.021 368.486 207.123 368.486 209.691V213.115C368.447 215.683 366.346 217.784 363.778 217.784Z" fill="#181BA2"/>
<path opacity="0.1" d="M363.778 236.111H118.523C115.955 236.111 113.854 234.01 113.854 231.442V228.018C113.854 225.45 115.955 223.349 118.523 223.349H363.817C366.385 223.349 368.486 225.45 368.486 228.018V231.442C368.447 234.01 366.346 236.111 363.778 236.111Z" fill="#181BA2"/>
<path opacity="0.1" d="M214.36 254.438H118.523C115.955 254.438 113.854 252.337 113.854 249.769V246.345C113.854 243.777 115.955 241.676 118.523 241.676H214.399C216.967 241.676 219.069 243.777 219.069 246.345V249.769C219.03 252.337 216.928 254.438 214.36 254.438Z" fill="#181BA2"/>
<path d="M446.074 72.4909C435.335 72.4909 426.58 63.736 426.58 52.9966C426.58 42.2571 435.335 33.5022 446.074 33.5022C456.814 33.5022 465.569 42.2571 465.569 52.9966C465.569 63.736 456.814 72.4909 446.074 72.4909ZM446.074 37.1598C437.358 37.1598 430.238 44.2416 430.238 52.9966C430.238 61.7515 437.319 68.8333 446.074 68.8333C454.829 68.8333 461.911 61.7515 461.911 52.9966C461.911 44.2416 454.79 37.1598 446.074 37.1598Z" fill="#DDED5A"/>
<path d="M470.9 73.5806C473.65 73.5806 475.88 71.3507 475.88 68.6C475.88 65.8493 473.65 63.6194 470.9 63.6194C468.149 63.6194 465.919 65.8493 465.919 68.6C465.919 71.3507 468.149 73.5806 470.9 73.5806Z" fill="#DDED5A"/>
<defs>
<pattern id="pattern0" patternContentUnits="objectBoundingBox" width="1" height="1">
<use xlink:href="#image0"/>
</pattern>
<pattern id="pattern1" patternContentUnits="objectBoundingBox" width="1" height="1">
<use xlink:href="#image1"/>
</pattern>
<linearGradient id="paint0_linear" x1="300.392" y1="17.6156" x2="300.392" y2="478.119" gradientUnits="userSpaceOnUse">
<stop offset="0.1009" stop-color="#FFFEF8" stop-opacity="0"/>
<stop offset="0.2883" stop-color="#FBF8F6" stop-opacity="0.2085"/>
<stop offset="0.5334" stop-color="#EEE8F0" stop-opacity="0.481"/>
<stop offset="0.809" stop-color="#D9CDE6" stop-opacity="0.7876"/>
<stop offset="1" stop-color="#C7B6DD"/>
</linearGradient>
<linearGradient id="paint1_linear" x1="415.508" y1="237.742" x2="505.524" y2="237.742" gradientUnits="userSpaceOnUse">
<stop stop-color="#FFFEF8"/>
<stop offset="1" stop-color="#C7C8DD"/>
</linearGradient>
<linearGradient id="paint2_linear" x1="415.508" y1="237.742" x2="505.525" y2="237.742" gradientUnits="userSpaceOnUse">
<stop stop-color="#FFFEF8"/>
<stop offset="1" stop-color="#C7C8DD"/>
</linearGradient>
<linearGradient id="paint3_linear" x1="415.509" y1="237.742" x2="505.525" y2="237.742" gradientUnits="userSpaceOnUse">
<stop stop-color="#FFFEF8"/>
<stop offset="1" stop-color="#C7C8DD"/>
</linearGradient>
<linearGradient id="paint4_linear" x1="415.508" y1="237.742" x2="505.524" y2="237.742" gradientUnits="userSpaceOnUse">
<stop stop-color="#FFFEF8"/>
<stop offset="1" stop-color="#C7C8DD"/>
</linearGradient>
<linearGradient id="paint5_linear" x1="415.508" y1="237.742" x2="505.525" y2="237.742" gradientUnits="userSpaceOnUse">
<stop stop-color="#FFFEF8"/>
<stop offset="1" stop-color="#C7C8DD"/>
</linearGradient>
<linearGradient id="paint6_linear" x1="415.508" y1="250.571" x2="505.524" y2="250.571" gradientUnits="userSpaceOnUse">
<stop stop-color="#FFFEF8"/>
<stop offset="1" stop-color="#C7C8DD"/>
</linearGradient>
<linearGradient id="paint7_linear" x1="415.508" y1="250.571" x2="505.525" y2="250.571" gradientUnits="userSpaceOnUse">
<stop stop-color="#FFFEF8"/>
<stop offset="1" stop-color="#C7C8DD"/>
</linearGradient>
<linearGradient id="paint8_linear" x1="415.509" y1="250.571" x2="505.525" y2="250.571" gradientUnits="userSpaceOnUse">
<stop stop-color="#FFFEF8"/>
<stop offset="1" stop-color="#C7C8DD"/>
</linearGradient>
<linearGradient id="paint9_linear" x1="415.508" y1="250.571" x2="505.524" y2="250.571" gradientUnits="userSpaceOnUse">
<stop stop-color="#FFFEF8"/>
<stop offset="1" stop-color="#C7C8DD"/>
</linearGradient>
<linearGradient id="paint10_linear" x1="415.508" y1="250.571" x2="505.525" y2="250.571" gradientUnits="userSpaceOnUse">
<stop stop-color="#FFFEF8"/>
<stop offset="1" stop-color="#C7C8DD"/>
</linearGradient>
<linearGradient id="paint11_linear" x1="415.508" y1="263.401" x2="505.524" y2="263.401" gradientUnits="userSpaceOnUse">
<stop stop-color="#FFFEF8"/>
<stop offset="1" stop-color="#C7C8DD"/>
</linearGradient>
<linearGradient id="paint12_linear" x1="415.508" y1="263.401" x2="505.525" y2="263.401" gradientUnits="userSpaceOnUse">
<stop stop-color="#FFFEF8"/>
<stop offset="1" stop-color="#C7C8DD"/>
</linearGradient>
<linearGradient id="paint13_linear" x1="415.509" y1="263.401" x2="505.525" y2="263.401" gradientUnits="userSpaceOnUse">
<stop stop-color="#FFFEF8"/>
<stop offset="1" stop-color="#C7C8DD"/>
</linearGradient>
<linearGradient id="paint14_linear" x1="415.508" y1="263.401" x2="505.524" y2="263.401" gradientUnits="userSpaceOnUse">
<stop stop-color="#FFFEF8"/>
<stop offset="1" stop-color="#C7C8DD"/>
</linearGradient>
<linearGradient id="paint15_linear" x1="415.508" y1="263.401" x2="505.525" y2="263.401" gradientUnits="userSpaceOnUse">
<stop stop-color="#FFFEF8"/>
<stop offset="1" stop-color="#C7C8DD"/>
</linearGradient>
<linearGradient id="paint16_linear" x1="415.508" y1="276.23" x2="505.524" y2="276.23" gradientUnits="userSpaceOnUse">
<stop stop-color="#FFFEF8"/>
<stop offset="1" stop-color="#C7C8DD"/>
</linearGradient>
<linearGradient id="paint17_linear" x1="415.508" y1="276.23" x2="505.525" y2="276.23" gradientUnits="userSpaceOnUse">
<stop stop-color="#FFFEF8"/>
<stop offset="1" stop-color="#C7C8DD"/>
</linearGradient>
<linearGradient id="paint18_linear" x1="415.509" y1="276.23" x2="505.525" y2="276.23" gradientUnits="userSpaceOnUse">
<stop stop-color="#FFFEF8"/>
<stop offset="1" stop-color="#C7C8DD"/>
</linearGradient>
<linearGradient id="paint19_linear" x1="415.508" y1="276.23" x2="505.524" y2="276.23" gradientUnits="userSpaceOnUse">
<stop stop-color="#FFFEF8"/>
<stop offset="1" stop-color="#C7C8DD"/>
</linearGradient>
<linearGradient id="paint20_linear" x1="415.508" y1="276.23" x2="505.525" y2="276.23" gradientUnits="userSpaceOnUse">
<stop stop-color="#FFFEF8"/>
<stop offset="1" stop-color="#C7C8DD"/>
</linearGradient>
<linearGradient id="paint21_linear" x1="157.148" y1="75.0248" x2="-45.4551" y2="75.0248" gradientUnits="userSpaceOnUse">
<stop offset="0.23" stop-color="#FFFEF8" stop-opacity="0"/>
<stop offset="1" stop-color="#DDC840"/>
</linearGradient>
<linearGradient id="paint22_linear" x1="61.6451" y1="105.788" x2="-23.1651" y2="190.598" gradientUnits="userSpaceOnUse">
<stop offset="0.0505964" stop-color="#FFFEF8" stop-opacity="0"/>
<stop offset="0.165" stop-color="#ECEEF5" stop-opacity="0.1353"/>
<stop offset="0.397" stop-color="#BBC3EE" stop-opacity="0.4097"/>
<stop offset="0.7225" stop-color="#6D7FE3" stop-opacity="0.7948"/>
<stop offset="0.896" stop-color="#4058DD"/>
</linearGradient>
<linearGradient id="paint23_linear" x1="51.6773" y1="115.756" x2="-30.1725" y2="197.606" gradientUnits="userSpaceOnUse">
<stop offset="0.0505964" stop-color="#FFFEF8" stop-opacity="0"/>
<stop offset="0.165" stop-color="#ECEEF5" stop-opacity="0.1353"/>
<stop offset="0.397" stop-color="#BBC3EE" stop-opacity="0.4097"/>
<stop offset="0.7225" stop-color="#6D7FE3" stop-opacity="0.7948"/>
<stop offset="0.896" stop-color="#4058DD"/>
</linearGradient>
<linearGradient id="paint24_linear" x1="453.146" y1="150.916" x2="537.956" y2="66.1059" gradientUnits="userSpaceOnUse">
<stop offset="0.0505964" stop-color="#FFFEF8" stop-opacity="0"/>
<stop offset="0.1655" stop-color="#FCEBF3" stop-opacity="0.1359"/>
<stop offset="0.3985" stop-color="#F3BAE6" stop-opacity="0.4116"/>
<stop offset="0.7255" stop-color="#E56CD1" stop-opacity="0.7983"/>
<stop offset="0.896" stop-color="#DD40C5"/>
</linearGradient>
<linearGradient id="paint25_linear" x1="463.114" y1="140.948" x2="544.964" y2="59.0986" gradientUnits="userSpaceOnUse">
<stop offset="0.0505964" stop-color="#FFFEF8" stop-opacity="0"/>
<stop offset="0.1655" stop-color="#FCEBF3" stop-opacity="0.1359"/>
<stop offset="0.3985" stop-color="#F3BAE6" stop-opacity="0.4116"/>
<stop offset="0.7255" stop-color="#E56CD1" stop-opacity="0.7983"/>
<stop offset="0.896" stop-color="#DD40C5"/>
</linearGradient>
<linearGradient id="paint26_linear" x1="504.7" y1="224.953" x2="244.333" y2="-6.60799" gradientUnits="userSpaceOnUse">
<stop offset="0.0667907" stop-color="#FFFEF8" stop-opacity="0"/>
<stop offset="0.0714555" stop-color="#FCFEF6" stop-opacity="0.01"/>
<stop offset="0.1686" stop-color="#C9F6C6" stop-opacity="0.1091"/>
<stop offset="0.2703" stop-color="#9CEF9B" stop-opacity="0.2181"/>
<stop offset="0.3746" stop-color="#76EA77" stop-opacity="0.3299"/>
<stop offset="0.4823" stop-color="#57E55A" stop-opacity="0.4452"/>
<stop offset="0.5943" stop-color="#3FE244" stop-opacity="0.5652"/>
<stop offset="0.7125" stop-color="#2EDF34" stop-opacity="0.692"/>
<stop offset="0.8413" stop-color="#24DD2A" stop-opacity="0.8299"/>
<stop offset="1" stop-color="#21DD27"/>
</linearGradient>
<image id="image0" xlink:href="data:image/png;base64,iVBORw0KGgoAAAANSUhEUgAAA2kAAAL+CAYAAAA3nFzpAAAACXBIWXMAAAsSAAALEgHS3X78AAAA"/>
<image id="image1" xlink:href="data:image/png;base64,iVBORw0KGgoAAAANSUhEUgAAA8kAAANbCAYAAABxYt3RAAAACXBIWXMAAAsSAAALEgHS3X78AAAA"/>
</defs>
</svg>
