<svg width="61" height="56" viewBox="0 0 61 56" fill="none" xmlns="http://www.w3.org/2000/svg">
<path d="M27.9288 55.8576C43.3534 55.8576 55.8576 43.3534 55.8576 27.9288C55.8576 12.5041 43.3534 0 27.9288 0C12.5042 0 0 12.5041 0 27.9288C0 43.3534 12.5042 55.8576 27.9288 55.8576Z" fill="#DDEAFB"/>
<path d="M27.929 40.7406C35.0048 40.7406 40.7408 35.0045 40.7408 27.9288C40.7408 20.853 35.0048 15.1169 27.929 15.1169C20.8533 15.1169 15.1172 20.853 15.1172 27.9288C15.1172 35.0045 20.8533 40.7406 27.929 40.7406Z" fill="#A2C6F5"/>
<path d="M34.1606 35.7796L58.8989 29.8664C59.968 29.6159 60.6361 28.5301 60.3856 27.4444L56.978 13.196C56.7274 12.127 55.6417 11.4588 54.556 11.7094L29.8176 17.6225C28.7486 17.8731 28.0804 18.9588 28.331 20.0446L31.7385 34.2929C32.0058 35.3787 33.0916 36.0468 34.1606 35.7796Z" fill="#140F7D"/>
<path d="M54.1382 24.2541V38.6862C54.1382 39.7886 53.2362 40.6906 52.1337 40.6906H27.0279C25.9254 40.6906 25.0234 39.7886 25.0234 38.6862V24.2541C25.0234 23.1516 25.9254 22.2496 27.0279 22.2496H52.1337C53.2362 22.2496 54.1382 23.1516 54.1382 24.2541Z" fill="#3852BA"/>
<path opacity="0.3" d="M46.9379 22.2495C41.7764 25.9578 32.2051 32.8397 25.0225 38.0179V24.254C25.0225 23.1515 25.9245 22.2495 27.0269 22.2495H46.9379Z" fill="#DDEAFB"/>
</svg>
