<svg width="578" height="376" viewBox="0 0 578 376" fill="none" xmlns="http://www.w3.org/2000/svg">
<path d="M203.382 368.615C193.536 378.461 177.507 378.461 167.661 368.615C157.814 358.769 157.814 342.74 167.661 332.894C168.943 331.612 171.049 331.612 172.378 332.894C173.66 334.176 173.66 336.283 172.378 337.611C165.142 344.847 165.142 356.662 172.378 363.944C179.613 371.18 191.429 371.18 198.711 363.944C205.992 356.708 205.946 344.893 198.711 337.611C197.428 336.329 197.428 334.222 198.711 332.894C199.993 331.612 202.099 331.612 203.428 332.894C213.228 342.786 213.228 358.769 203.382 368.615Z" fill="#EDC858"/>
<path d="M191.841 332.253C193.687 332.253 195.184 330.756 195.184 328.91C195.184 327.063 193.687 325.566 191.841 325.566C189.995 325.566 188.498 327.063 188.498 328.91C188.498 330.756 189.995 332.253 191.841 332.253Z" fill="#EDC858"/>
<path d="M421.739 266.26C424.446 266.26 426.639 264.066 426.639 261.36C426.639 258.654 424.446 256.46 421.739 256.46C419.033 256.46 416.839 258.654 416.839 261.36C416.839 264.066 419.033 266.26 421.739 266.26Z" fill="#E6E6E6"/>
<path d="M443.355 266.26C446.061 266.26 448.255 264.066 448.255 261.36C448.255 258.654 446.061 256.46 443.355 256.46C440.649 256.46 438.455 258.654 438.455 261.36C438.455 264.066 440.649 266.26 443.355 266.26Z" fill="#E6E6E6"/>
<path d="M464.971 266.26C467.677 266.26 469.871 264.066 469.871 261.36C469.871 258.654 467.677 256.46 464.971 256.46C462.265 256.46 460.071 258.654 460.071 261.36C460.071 264.066 462.265 266.26 464.971 266.26Z" fill="#E6E6E6"/>
<path d="M486.587 266.26C489.293 266.26 491.487 264.066 491.487 261.36C491.487 258.654 489.293 256.46 486.587 256.46C483.881 256.46 481.687 258.654 481.687 261.36C481.687 264.066 483.881 266.26 486.587 266.26Z" fill="#E6E6E6"/>
<path d="M508.157 266.26C510.863 266.26 513.057 264.066 513.057 261.36C513.057 258.654 510.863 256.46 508.157 256.46C505.45 256.46 503.257 258.654 503.257 261.36C503.257 264.066 505.45 266.26 508.157 266.26Z" fill="#E6E6E6"/>
<path d="M529.773 266.26C532.479 266.26 534.673 264.066 534.673 261.36C534.673 258.654 532.479 256.46 529.773 256.46C527.066 256.46 524.873 258.654 524.873 261.36C524.873 264.066 527.066 266.26 529.773 266.26Z" fill="#E6E6E6"/>
<path d="M551.389 266.26C554.095 266.26 556.289 264.066 556.289 261.36C556.289 258.654 554.095 256.46 551.389 256.46C548.682 256.46 546.489 258.654 546.489 261.36C546.489 264.066 548.682 266.26 551.389 266.26Z" fill="#E6E6E6"/>
<path d="M573.005 266.26C575.711 266.26 577.905 264.066 577.905 261.36C577.905 258.654 575.711 256.46 573.005 256.46C570.298 256.46 568.104 258.654 568.104 261.36C568.104 264.066 570.298 266.26 573.005 266.26Z" fill="#E6E6E6"/>
<path d="M421.739 285.907C424.445 285.907 426.639 283.713 426.639 281.007C426.639 278.301 424.445 276.107 421.739 276.107C419.033 276.107 416.839 278.301 416.839 281.007C416.839 283.713 419.033 285.907 421.739 285.907Z" fill="#E6E6E6"/>
<path d="M443.355 285.907C446.061 285.907 448.255 283.713 448.255 281.007C448.255 278.301 446.061 276.107 443.355 276.107C440.649 276.107 438.455 278.301 438.455 281.007C438.455 283.713 440.649 285.907 443.355 285.907Z" fill="#E6E6E6"/>
<path d="M464.971 285.907C467.677 285.907 469.871 283.713 469.871 281.007C469.871 278.301 467.677 276.107 464.971 276.107C462.265 276.107 460.071 278.301 460.071 281.007C460.071 283.713 462.265 285.907 464.971 285.907Z" fill="#E6E6E6"/>
<path d="M486.587 285.907C489.293 285.907 491.487 283.713 491.487 281.007C491.487 278.301 489.293 276.107 486.587 276.107C483.881 276.107 481.687 278.301 481.687 281.007C481.687 283.713 483.881 285.907 486.587 285.907Z" fill="#E6E6E6"/>
<path d="M508.157 285.907C510.863 285.907 513.057 283.713 513.057 281.007C513.057 278.301 510.863 276.107 508.157 276.107C505.45 276.107 503.257 278.301 503.257 281.007C503.257 283.713 505.45 285.907 508.157 285.907Z" fill="#E6E6E6"/>
<path d="M529.773 285.907C532.479 285.907 534.673 283.713 534.673 281.007C534.673 278.301 532.479 276.107 529.773 276.107C527.066 276.107 524.873 278.301 524.873 281.007C524.873 283.713 527.066 285.907 529.773 285.907Z" fill="#E6E6E6"/>
<path d="M551.389 285.907C554.095 285.907 556.289 283.713 556.289 281.007C556.289 278.301 554.095 276.107 551.389 276.107C548.682 276.107 546.489 278.301 546.489 281.007C546.489 283.713 548.682 285.907 551.389 285.907Z" fill="#E6E6E6"/>
<path d="M573.005 285.907C575.711 285.907 577.905 283.713 577.905 281.007C577.905 278.301 575.711 276.107 573.005 276.107C570.298 276.107 568.104 278.301 568.104 281.007C568.104 283.713 570.298 285.907 573.005 285.907Z" fill="#E6E6E6"/>
<path d="M421.739 305.508C424.445 305.508 426.639 303.314 426.639 300.608C426.639 297.901 424.445 295.708 421.739 295.708C419.033 295.708 416.839 297.901 416.839 300.608C416.839 303.314 419.033 305.508 421.739 305.508Z" fill="#E6E6E6"/>
<path d="M443.355 305.508C446.061 305.508 448.255 303.314 448.255 300.608C448.255 297.901 446.061 295.708 443.355 295.708C440.649 295.708 438.455 297.901 438.455 300.608C438.455 303.314 440.649 305.508 443.355 305.508Z" fill="#E6E6E6"/>
<path d="M464.971 305.508C467.677 305.508 469.871 303.314 469.871 300.608C469.871 297.901 467.677 295.708 464.971 295.708C462.265 295.708 460.071 297.901 460.071 300.608C460.071 303.314 462.265 305.508 464.971 305.508Z" fill="#E6E6E6"/>
<path d="M486.587 305.508C489.293 305.508 491.487 303.314 491.487 300.608C491.487 297.901 489.293 295.708 486.587 295.708C483.881 295.708 481.687 297.901 481.687 300.608C481.687 303.314 483.881 305.508 486.587 305.508Z" fill="#E6E6E6"/>
<path d="M508.157 305.508C510.863 305.508 513.057 303.314 513.057 300.608C513.057 297.901 510.863 295.708 508.157 295.708C505.45 295.708 503.257 297.901 503.257 300.608C503.257 303.314 505.45 305.508 508.157 305.508Z" fill="#E6E6E6"/>
<path d="M529.773 305.508C532.479 305.508 534.673 303.314 534.673 300.608C534.673 297.901 532.479 295.708 529.773 295.708C527.066 295.708 524.873 297.901 524.873 300.608C524.873 303.314 527.066 305.508 529.773 305.508Z" fill="#E6E6E6"/>
<path d="M551.389 305.508C554.095 305.508 556.289 303.314 556.289 300.608C556.289 297.901 554.095 295.708 551.389 295.708C548.682 295.708 546.489 297.901 546.489 300.608C546.489 303.314 548.682 305.508 551.389 305.508Z" fill="#E6E6E6"/>
<path d="M573.005 305.508C575.711 305.508 577.905 303.314 577.905 300.608C577.905 297.901 575.711 295.708 573.005 295.708C570.298 295.708 568.104 297.901 568.104 300.608C568.104 303.314 570.298 305.508 573.005 305.508Z" fill="#E6E6E6"/>
<path d="M421.739 325.155C424.445 325.155 426.639 322.961 426.639 320.255C426.639 317.548 424.445 315.354 421.739 315.354C419.033 315.354 416.839 317.548 416.839 320.255C416.839 322.961 419.033 325.155 421.739 325.155Z" fill="#E6E6E6"/>
<path d="M443.355 325.155C446.061 325.155 448.255 322.961 448.255 320.255C448.255 317.548 446.061 315.354 443.355 315.354C440.649 315.354 438.455 317.548 438.455 320.255C438.455 322.961 440.649 325.155 443.355 325.155Z" fill="#E6E6E6"/>
<path d="M464.971 325.155C467.677 325.155 469.871 322.961 469.871 320.255C469.871 317.548 467.677 315.354 464.971 315.354C462.265 315.354 460.071 317.548 460.071 320.255C460.071 322.961 462.265 325.155 464.971 325.155Z" fill="#E6E6E6"/>
<path d="M486.587 325.155C489.293 325.155 491.487 322.961 491.487 320.255C491.487 317.548 489.293 315.354 486.587 315.354C483.881 315.354 481.687 317.548 481.687 320.255C481.687 322.961 483.881 325.155 486.587 325.155Z" fill="#E6E6E6"/>
<path d="M508.157 325.155C510.863 325.155 513.057 322.961 513.057 320.255C513.057 317.548 510.863 315.354 508.157 315.354C505.45 315.354 503.257 317.548 503.257 320.255C503.257 322.961 505.45 325.155 508.157 325.155Z" fill="#E6E6E6"/>
<path d="M529.773 325.155C532.479 325.155 534.673 322.961 534.673 320.255C534.673 317.548 532.479 315.354 529.773 315.354C527.066 315.354 524.873 317.548 524.873 320.255C524.873 322.961 527.066 325.155 529.773 325.155Z" fill="#E6E6E6"/>
<path d="M551.389 325.155C554.095 325.155 556.289 322.961 556.289 320.255C556.289 317.548 554.095 315.354 551.389 315.354C548.682 315.354 546.489 317.548 546.489 320.255C546.489 322.961 548.682 325.155 551.389 325.155Z" fill="#E6E6E6"/>
<path d="M573.005 325.155C575.711 325.155 577.905 322.961 577.905 320.255C577.905 317.548 575.711 315.354 573.005 315.354C570.298 315.354 568.104 317.548 568.104 320.255C568.104 322.961 570.298 325.155 573.005 325.155Z" fill="#E6E6E6"/>
<path d="M421.739 344.801C424.445 344.801 426.639 342.607 426.639 339.901C426.639 337.194 424.445 335 421.739 335C419.033 335 416.839 337.194 416.839 339.901C416.839 342.607 419.033 344.801 421.739 344.801Z" fill="#E6E6E6"/>
<path d="M443.355 344.801C446.061 344.801 448.255 342.607 448.255 339.901C448.255 337.194 446.061 335 443.355 335C440.649 335 438.455 337.194 438.455 339.901C438.455 342.607 440.649 344.801 443.355 344.801Z" fill="#E6E6E6"/>
<path d="M464.971 344.801C467.677 344.801 469.871 342.607 469.871 339.901C469.871 337.194 467.677 335 464.971 335C462.265 335 460.071 337.194 460.071 339.901C460.071 342.607 462.265 344.801 464.971 344.801Z" fill="#E6E6E6"/>
<path d="M486.587 344.801C489.293 344.801 491.487 342.607 491.487 339.901C491.487 337.194 489.293 335 486.587 335C483.881 335 481.687 337.194 481.687 339.901C481.687 342.607 483.881 344.801 486.587 344.801Z" fill="#E6E6E6"/>
<path d="M508.157 344.801C510.863 344.801 513.057 342.607 513.057 339.901C513.057 337.194 510.863 335 508.157 335C505.45 335 503.257 337.194 503.257 339.901C503.257 342.607 505.45 344.801 508.157 344.801Z" fill="#E6E6E6"/>
<path d="M529.773 344.801C532.479 344.801 534.673 342.607 534.673 339.901C534.673 337.194 532.479 335 529.773 335C527.066 335 524.873 337.194 524.873 339.901C524.873 342.607 527.066 344.801 529.773 344.801Z" fill="#E6E6E6"/>
<path d="M551.389 344.801C554.095 344.801 556.289 342.607 556.289 339.901C556.289 337.194 554.095 335 551.389 335C548.682 335 546.489 337.194 546.489 339.901C546.489 342.607 548.682 344.801 551.389 344.801Z" fill="#E6E6E6"/>
<path d="M573.005 344.801C575.711 344.801 577.905 342.607 577.905 339.901C577.905 337.194 575.711 335 573.005 335C570.298 335 568.104 337.194 568.104 339.901C568.104 342.607 570.298 344.801 573.005 344.801Z" fill="#E6E6E6"/>
<path d="M527.849 187.811C526.292 228.753 507.424 268.321 473.993 296.257C473.993 296.257 405.115 341.962 303.63 353.502C220.647 362.982 151.311 352.312 101.118 330.009C98.5997 328.91 96.1267 327.719 93.6995 326.574C87.9291 323.78 82.4336 320.804 77.2128 317.689C73.5033 315.491 69.9769 313.201 66.588 310.82C65.8552 310.316 65.1683 309.812 64.4814 309.309C63.1075 308.347 61.7794 307.339 60.4513 306.332C59.169 305.37 57.9325 304.363 56.7418 303.355C54.5435 301.523 52.4369 299.554 50.3761 297.539C28.0274 275.328 15.7082 242.812 20.3336 215.426C26.9283 176.224 60.4055 146.823 100.157 146.228C126.169 145.861 156.212 157.723 184.147 198.207C184.147 198.207 186.895 137.755 243.225 137.755C243.225 137.755 252.384 62.6492 328.406 43.8727C328.406 43.8727 430.486 22.8521 487.274 81.0594C489.518 83.3492 491.67 85.7764 493.731 88.2952C495.288 90.1729 496.754 92.0505 498.173 93.974C501.104 97.9125 503.806 101.897 506.279 105.973C511.134 113.895 515.118 122.047 518.324 130.336C519.515 133.359 520.568 136.427 521.484 139.496C524.69 149.8 526.659 160.241 527.483 170.683C527.987 176.453 528.078 182.178 527.849 187.811Z" fill="#F3F5FF"/>
<path d="M385.423 64.5272C368.112 64.5272 354.052 50.4677 354.052 33.1567C354.052 15.8456 368.112 1.78613 385.423 1.78613C387.712 1.78613 389.544 3.61799 389.544 5.90781C389.544 8.19763 387.712 10.0295 385.423 10.0295C372.691 10.0295 362.295 20.3795 362.295 33.1567C362.295 45.9339 372.645 56.2839 385.423 56.2839C398.154 56.2839 408.55 45.9339 408.55 33.1567C408.55 30.8669 410.382 29.035 412.672 29.035C414.961 29.035 416.793 30.8669 416.793 33.1567C416.793 50.4677 402.688 64.5272 385.423 64.5272Z" fill="#9FCCBC"/>
<path d="M410.153 23.6765C412.429 23.6765 414.274 21.8311 414.274 19.5548C414.274 17.2784 412.429 15.4331 410.153 15.4331C407.876 15.4331 406.031 17.2784 406.031 19.5548C406.031 21.8311 407.876 23.6765 410.153 23.6765Z" fill="#9FCCBC"/>
<path d="M32.1491 185.292C39.5223 192.665 39.5223 204.618 32.1491 211.946C24.7759 219.319 12.823 219.319 5.49559 211.946C4.53386 210.984 4.53386 209.427 5.49559 208.419C6.45731 207.457 8.01439 207.457 9.02191 208.419C14.4259 213.823 23.2646 213.823 28.6686 208.419C34.0725 203.015 34.0725 194.177 28.6686 188.773C23.2646 183.369 14.4259 183.369 9.02191 188.773C8.06019 189.734 6.50311 189.734 5.49559 188.773C4.53386 187.811 4.53386 186.254 5.49559 185.246C12.823 177.919 24.7759 177.919 32.1491 185.292Z" fill="#8788CC"/>
<path d="M2.47301 196.375C3.83881 196.375 4.94601 195.268 4.94601 193.902C4.94601 192.536 3.83881 191.429 2.47301 191.429C1.1072 191.429 0 192.536 0 193.902C0 195.268 1.1072 196.375 2.47301 196.375Z" fill="#8788CC"/>
<path d="M140.32 40.4839H230.677V138.946H140.32V40.4839Z" fill="url(#paint0_linear)"/>
<g opacity="0.4">
<path opacity="0.4" d="M168.164 18.1816H168.393C170.683 18.1816 172.561 20.0593 172.561 22.3491V73C172.561 75.2898 170.683 77.1674 168.393 77.1674H168.164C165.875 77.1674 163.997 75.2898 163.997 73V22.3491C163.997 20.0135 165.829 18.1816 168.164 18.1816Z" fill="url(#paint1_linear)"/>
<path opacity="0.4" d="M202.649 24.1348H202.878C205.168 24.1348 207.046 26.0124 207.046 28.3022V78.9531C207.046 81.2429 205.168 83.1206 202.878 83.1206H202.649C200.359 83.1206 198.482 81.2429 198.482 78.9531V28.3022C198.527 25.9666 200.359 24.1348 202.649 24.1348Z" fill="url(#paint2_linear)"/>
<path opacity="0.4" d="M185.613 0H185.842C188.132 0 190.009 1.87765 190.009 4.16747V54.8183C190.009 57.1081 188.132 58.9858 185.842 58.9858H185.613C183.323 58.9858 181.445 57.1081 181.445 54.8183V4.16747C181.445 1.87765 183.323 0 185.613 0Z" fill="url(#paint3_linear)"/>
</g>
<path d="M251.56 173.889C251.56 210.618 221.792 240.385 185.063 240.385C160.929 240.385 139.817 227.517 128.138 208.282C122.048 198.253 118.567 186.483 118.567 173.889C118.567 137.16 148.335 107.393 185.063 107.393C215.61 107.393 241.301 127.955 249.133 156.028C250.735 161.707 251.56 167.706 251.56 173.889Z" fill="#3F43C7"/>
<path d="M241.347 173.889C241.347 204.939 216.159 230.127 185.109 230.127C164.684 230.127 146.823 219.273 136.977 202.97C131.848 194.497 128.871 184.514 128.871 173.843C128.871 142.793 154.059 117.605 185.109 117.605C210.938 117.605 232.692 135.008 239.332 158.73C240.614 163.585 241.347 168.668 241.347 173.889Z" fill="#464BDE"/>
<path d="M205.763 153.418C205.763 153.83 205.718 154.151 205.672 154.334L205.58 155.113C205.489 156.258 205.168 157.128 204.71 157.677C204.252 158.227 203.657 158.547 203.016 158.547H195.368C197.612 160.059 198.985 162.211 199.581 165.005H202.924C203.931 165.005 204.389 165.554 204.389 166.653L204.298 167.432L204.206 168.119C204.115 168.989 203.886 169.63 203.611 170.042C203.336 170.409 202.832 170.638 202.191 170.638H199.535C198.802 174.668 196.787 177.873 193.444 180.163C190.101 182.453 185.888 183.644 180.667 183.644H177.232L177.141 183.964C178.285 184.193 179.339 184.605 180.346 185.247C181.354 185.888 182.407 186.941 183.598 188.407L194.589 201.779C195.368 202.695 195.734 203.474 195.734 204.023C195.734 205.168 194.36 205.718 191.612 205.718H188.727C187.445 205.718 186.437 205.58 185.704 205.351C184.972 205.122 184.285 204.573 183.598 203.657L168.806 185.292C168.164 184.56 167.706 183.919 167.432 183.369C167.157 182.819 167.02 182.132 167.02 181.446L167.111 180.575L167.203 179.797C167.294 178.606 167.569 177.782 168.027 177.278C168.485 176.774 169.172 176.545 170.088 176.545H179.11C185.018 176.545 188.498 174.576 189.551 170.638H169.859C169.309 170.638 168.851 170.454 168.622 170.088C168.348 169.722 168.302 169.081 168.393 168.165L168.485 167.478C168.577 166.608 168.806 165.966 169.126 165.6C169.447 165.234 169.905 165.05 170.546 165.05H189.597C189.139 163.219 188.269 161.845 186.987 160.837C185.704 159.83 184.01 159.372 181.812 159.372H171.599C170.958 159.372 170.5 159.097 170.134 158.502C169.767 157.952 169.63 156.99 169.767 155.708L169.859 154.609C169.95 153.418 170.271 152.548 170.775 151.953C171.279 151.403 171.874 151.083 172.561 151.083H203.84C205.168 151.083 205.763 151.861 205.763 153.418Z" fill="white"/>
<path opacity="0.5" d="M251.56 173.889C251.56 210.618 221.792 240.385 185.063 240.385C160.929 240.385 139.816 227.517 128.138 208.282C147.19 216.938 173.981 219.502 201.687 191.337C220.326 172.378 236.309 161.799 249.132 156.028C250.735 161.707 251.56 167.706 251.56 173.889Z" fill="#3438A6"/>
<path d="M227.883 159.417C226.647 159.417 225.41 158.73 224.815 157.54C214.144 136.107 196.833 133.451 196.1 133.359C194.223 133.084 192.94 131.39 193.169 129.512C193.398 127.634 195.139 126.352 196.97 126.581C197.841 126.673 218.541 129.649 230.86 154.471C231.684 156.166 230.997 158.226 229.349 159.051C228.936 159.326 228.387 159.417 227.883 159.417Z" fill="#8084FF"/>
<path d="M148.014 199.947C147.006 199.947 145.999 199.489 145.312 198.619C144.762 197.932 132.26 181.216 141.053 154.929C141.648 153.143 143.572 152.181 145.358 152.777C147.144 153.372 148.106 155.296 147.51 157.082C139.908 179.797 150.258 193.902 150.716 194.497C151.861 196.009 151.54 198.115 150.075 199.26C149.479 199.718 148.747 199.947 148.014 199.947Z" fill="#8084FF"/>
<g opacity="0.2">
<path opacity="0.2" d="M527.85 187.811C515.942 201.55 498.402 210.206 478.847 210.206C455.308 210.206 434.7 197.658 423.342 178.927C417.434 169.126 414 157.677 414 145.404C414 109.591 443.035 80.5562 478.847 80.5562C481.687 80.5562 484.48 80.7393 487.228 81.1057C489.472 83.3955 491.625 85.8227 493.685 88.3415C495.242 90.2192 496.708 92.0969 498.128 94.0203C501.059 97.9588 503.761 101.943 506.234 106.019C511.088 113.942 515.072 122.094 518.278 130.383C519.469 133.405 520.522 136.474 521.438 139.542C524.644 149.846 526.613 160.288 527.437 170.729C527.987 176.454 528.078 182.178 527.85 187.811Z" fill="#858FB8"/>
<path opacity="0.2" d="M527.483 170.775C518.324 188.315 499.96 200.268 478.847 200.268C463.597 200.268 449.812 194.039 439.875 184.01C436.852 180.942 434.15 177.507 431.906 173.797C426.914 165.508 423.983 155.799 423.983 145.404C423.983 115.086 448.53 90.5396 478.847 90.5396C485.625 90.5396 492.128 91.7761 498.174 94.0201C501.104 97.9586 503.806 101.943 506.279 106.019C511.134 113.942 515.118 122.093 518.324 130.382C519.515 133.405 520.568 136.473 521.484 139.542C524.69 149.846 526.659 160.287 527.483 170.775Z" fill="#98A2D1"/>
<path opacity="0.5" d="M527.849 187.811C515.942 201.55 498.402 210.205 478.847 210.205C455.308 210.205 434.7 197.657 423.342 178.926C428.334 181.216 433.875 183.048 439.875 184.01C456.086 186.574 475.321 182.499 495.059 162.44C504.631 152.731 513.424 145.266 521.484 139.542C524.689 149.846 526.659 160.287 527.483 170.729C527.987 176.453 528.078 182.178 527.849 187.811Z" fill="#757CA1"/>
<g opacity="0.2">
<path opacity="0.2" d="M518.324 130.428C518.049 130.153 517.82 129.833 517.637 129.512C507.241 108.629 490.342 106.019 489.655 105.927C487.823 105.652 486.587 104.004 486.816 102.172C487.045 100.34 488.739 99.0577 490.525 99.3325C491.029 99.3783 498.082 100.432 506.279 106.065C511.134 113.942 515.118 122.093 518.324 130.428Z" fill="#C4CDFF"/>
</g>
<g opacity="0.2">
<path opacity="0.2" d="M442.714 170.821C441.706 170.821 440.745 170.363 440.104 169.538C439.6 168.851 427.372 152.548 435.982 126.902C436.577 125.162 438.455 124.2 440.195 124.795C441.935 125.391 442.897 127.268 442.302 129.009C434.883 151.128 445.004 164.913 445.416 165.462C446.515 166.928 446.24 168.989 444.775 170.134C444.134 170.592 443.447 170.821 442.714 170.821Z" fill="#C4CDFF"/>
</g>
</g>
<g opacity="0.2">
<path opacity="0.2" d="M123.238 296.578C123.238 311.599 114.17 324.468 101.164 330.055C98.6455 328.956 96.1725 327.765 93.7453 326.62C87.9749 323.826 82.4794 320.85 77.2586 317.736C73.5491 315.537 70.0227 313.247 66.6338 310.866C66.588 310.866 66.5422 310.866 66.4964 310.866C65.9469 310.866 65.3973 310.637 65.0309 310.133C64.9851 310.088 64.8019 309.813 64.5272 309.355C63.1533 308.393 61.8252 307.386 60.4971 306.378C59.2148 305.416 57.9783 304.409 56.7876 303.401C54.5893 301.569 52.4827 299.6 50.4219 297.585C50.4219 297.265 50.4219 296.898 50.4219 296.578C50.4219 276.473 66.7254 260.169 86.83 260.169C103.546 260.169 117.651 271.435 121.91 286.823C122.734 289.891 123.238 293.189 123.238 296.578Z" fill="#858FB8"/>
<path opacity="0.2" d="M117.605 296.578C117.605 311.187 107.438 323.46 93.7453 326.574C87.9749 323.781 82.4794 320.804 77.2586 317.69C73.5491 315.492 70.0227 313.202 66.6338 310.82C66.588 310.82 66.5422 310.82 66.4964 310.82C65.9469 310.82 65.3973 310.591 65.0309 310.088C64.9851 310.042 64.8019 309.767 64.5272 309.309C63.1533 308.347 61.8252 307.34 60.4971 306.332C59.2148 305.371 57.9783 304.363 56.7876 303.356C56.2838 301.157 56.009 298.868 56.009 296.532C56.009 279.541 69.7938 265.711 86.83 265.711C100.981 265.711 112.888 275.237 116.506 288.243C116.598 288.609 116.689 288.976 116.781 289.388C117.33 291.678 117.605 294.105 117.605 296.578Z" fill="#98A2D1"/>
<path opacity="0.5" d="M123.238 296.578C123.238 311.599 114.17 324.468 101.164 330.055C98.6455 328.956 96.1725 327.765 93.7453 326.62C87.9749 323.827 82.4793 320.85 77.2585 317.736C83.2121 316.225 89.4862 312.698 95.8977 306.195C103.775 298.181 110.782 292.914 116.781 289.48C118.567 288.426 120.261 287.556 121.91 286.869C122.734 289.892 123.238 293.189 123.238 296.578Z" fill="#757CA1"/>
<g opacity="0.2">
<path opacity="0.2" d="M110.232 288.655C109.545 288.655 108.904 288.288 108.538 287.601C102.676 275.878 93.2416 274.412 92.8294 274.366C91.8219 274.229 91.0891 273.267 91.2265 272.26C91.3639 271.252 92.2799 270.519 93.3332 270.657C93.7911 270.703 105.149 272.351 111.881 285.953C112.339 286.869 111.972 288.014 111.056 288.472C110.827 288.609 110.553 288.655 110.232 288.655Z" fill="#C4CDFF"/>
</g>
<g opacity="0.2">
<path opacity="0.2" d="M67.6413 310.454C67.3207 310.683 67.0002 310.82 66.6338 310.82C66.588 310.82 66.5422 310.82 66.4964 310.82C65.9468 310.82 65.3973 310.591 65.0309 310.087C64.9851 310.042 64.8019 309.767 64.5272 309.309C62.9243 306.79 58.6194 298.364 62.7411 286.136C63.0617 285.174 64.115 284.625 65.1225 284.945C66.0842 285.266 66.6338 286.319 66.3132 287.327C62.1457 299.737 67.8245 307.477 68.0535 307.798C68.6488 308.622 68.4657 309.813 67.6413 310.454Z" fill="#C4CDFF"/>
</g>
</g>
<path d="M270.84 107.438H352.907V234.34H270.84V107.438Z" fill="url(#paint4_linear)"/>
<path d="M371.913 266.077C371.913 299.417 344.893 326.483 311.507 326.483C289.571 326.483 270.382 314.805 259.803 297.311C254.262 288.197 251.102 277.481 251.102 266.077C251.102 232.738 278.122 205.672 311.507 205.672C339.26 205.672 362.616 224.357 369.715 249.865C371.134 255.04 371.913 260.444 371.913 266.077Z" fill="#3F43C7"/>
<path d="M362.616 266.077C362.616 294.288 339.718 317.186 311.507 317.186C292.96 317.186 276.702 307.294 267.772 292.502C263.101 284.808 260.399 275.74 260.399 266.077C260.399 237.866 283.297 214.968 311.507 214.968C334.955 214.968 354.739 230.768 360.739 252.338C361.929 256.735 362.616 261.314 362.616 266.077Z" fill="#464BDE"/>
<path d="M310.317 297.356V291.449C307.661 291.311 305.05 290.807 302.898 290.12C301.112 289.525 300.058 287.647 300.516 285.816L300.562 285.587C301.066 283.572 303.218 282.427 305.188 283.068C307.203 283.755 309.492 284.213 311.92 284.213C315.446 284.213 317.873 282.839 317.873 280.366C317.873 278.03 315.904 276.519 311.278 274.962C304.638 272.718 300.104 269.649 300.104 263.604C300.104 258.155 303.951 253.85 310.592 252.567V246.66H316.682V252.109C318.926 252.201 320.804 252.522 322.361 252.934C324.239 253.438 325.384 255.407 324.88 257.284C324.376 259.254 322.361 260.399 320.392 259.849C318.926 259.437 317.14 259.071 314.942 259.071C310.912 259.071 309.63 260.811 309.63 262.551C309.63 264.612 311.782 265.894 317.049 267.863C324.422 270.474 327.399 273.863 327.399 279.45C327.399 284.991 323.506 289.663 316.362 290.945V297.265L310.317 297.356Z" fill="white"/>
<path opacity="0.5" d="M371.913 266.077C371.913 299.417 344.893 326.483 311.507 326.483C289.571 326.483 270.382 314.804 259.803 297.31C277.114 305.187 301.432 307.523 326.62 281.923C343.565 264.703 358.082 255.086 369.715 249.819C371.134 255.04 371.913 260.444 371.913 266.077Z" fill="#3438A6"/>
<path d="M350.389 252.979C349.244 252.979 348.145 252.338 347.595 251.285C337.886 231.821 322.178 229.394 321.537 229.303C319.842 229.074 318.652 227.517 318.881 225.822C319.11 224.128 320.667 222.937 322.361 223.166C323.14 223.257 341.916 225.959 353.182 248.491C353.961 250.003 353.32 251.88 351.808 252.659C351.304 252.842 350.847 252.979 350.389 252.979Z" fill="#8084FF"/>
<path d="M277.847 289.754C276.931 289.754 276.015 289.342 275.42 288.563C274.916 287.922 263.559 272.764 271.573 248.858C272.123 247.255 273.863 246.339 275.511 246.889C277.114 247.438 278.03 249.178 277.481 250.827C270.565 271.436 280 284.259 280.366 284.808C281.373 286.182 281.144 288.105 279.771 289.159C279.129 289.525 278.488 289.754 277.847 289.754Z" fill="#8084FF"/>
<g opacity="0.4">
<path opacity="0.4" d="M297.081 84.5405H298.409C299.921 84.5405 301.157 85.777 301.157 87.2883V128.78C301.157 130.291 299.921 131.528 298.409 131.528H297.081C295.57 131.528 294.334 130.291 294.334 128.78V87.2883C294.334 85.777 295.57 84.5405 297.081 84.5405Z" fill="url(#paint5_linear)"/>
<path opacity="0.4" d="M324.605 89.3032H325.933C327.444 89.3032 328.681 90.5397 328.681 92.051V133.543C328.681 135.054 327.444 136.29 325.933 136.29H324.605C323.094 136.29 321.857 135.054 321.857 133.543V92.051C321.857 90.4939 323.094 89.3032 324.605 89.3032Z" fill="url(#paint6_linear)"/>
<path opacity="0.4" d="M311.004 70.0688H312.332C313.843 70.0688 315.079 71.3054 315.079 72.8166V114.308C315.079 115.819 313.843 117.056 312.332 117.056H311.004C309.492 117.056 308.256 115.819 308.256 114.308V72.8166C308.256 71.3054 309.492 70.0688 311.004 70.0688Z" fill="url(#paint7_linear)"/>
</g>
<path d="M78.8156 214.74L78.0828 211.396C76.5715 211.671 75.0145 211.717 73.7322 211.58C72.6331 211.488 71.8087 210.572 71.8545 209.473V209.336C71.9003 208.145 72.9536 207.183 74.1443 207.321C75.3808 207.458 76.7089 207.412 78.0828 207.092C80.0521 206.634 81.2428 205.534 80.9222 204.161C80.6016 202.833 79.3193 202.237 76.5258 201.962C72.4957 201.55 69.5647 200.405 68.7862 196.971C68.0992 193.902 69.7021 190.971 73.2742 189.414L72.5415 186.071L75.9762 185.292L76.6631 188.361C77.9454 188.132 79.0446 188.04 79.9605 188.086C81.1054 188.132 81.9755 189.094 81.9297 190.238C81.8839 191.429 80.9222 192.345 79.7315 192.254C78.8614 192.208 77.8081 192.254 76.5715 192.528C74.2817 193.032 73.778 194.177 74.007 195.185C74.2817 196.329 75.6556 196.787 78.8614 197.245C83.3494 197.749 85.4561 199.306 86.1888 202.466C86.8757 205.58 85.3187 208.74 81.426 210.343L82.2503 213.915L78.8156 214.74Z" fill="#C4CDFF"/>
<path d="M432.776 256.094C433.601 256.643 433.921 257.697 433.555 258.613C432.822 260.399 431.402 262.734 429.296 264.841C426.273 267.909 422.243 269.924 417.801 269.924C415.007 269.924 412.076 269.008 409.466 267.268L407.68 269.1C407.084 269.695 406.077 269.695 405.482 269.1L405.436 269.054C404.84 268.459 404.84 267.451 405.436 266.81L406.901 265.345C406.352 264.887 405.985 264.612 405.711 264.337C405.253 263.879 404.749 263.284 404.245 262.597L402.734 264.108C402.138 264.704 401.131 264.704 400.536 264.108C399.94 263.513 399.94 262.505 400.536 261.864L402.367 259.987C400.765 257.33 399.849 254.445 399.849 251.652C399.849 246.935 401.909 242.63 405.115 239.424C406.993 237.546 408.687 236.447 410.199 235.76C411.252 235.256 412.443 235.714 412.992 236.722V236.768C413.542 237.821 413.084 239.103 412.03 239.653C410.84 240.248 409.512 241.164 408.138 242.538C406.123 244.599 404.703 247.255 404.703 250.461C404.703 252.293 405.207 254.308 406.443 255.956L416.839 245.515C417.434 244.919 418.442 244.919 419.037 245.515C419.633 246.11 419.633 247.118 419.037 247.759L408.184 258.658C408.642 259.208 409.1 259.758 409.42 260.078C409.832 260.49 410.244 260.902 410.84 261.406L421.694 250.461C422.335 249.82 423.342 249.82 423.938 250.461C424.579 251.102 424.579 252.11 423.938 252.751L413.542 263.238C415.19 264.246 417.022 264.749 418.671 264.749C421.968 264.704 424.441 263.467 426.731 261.177C428.151 259.758 429.158 258.246 429.845 256.918C430.349 255.773 431.769 255.407 432.776 256.094Z" fill="#C4CDFF"/>
<path d="M398.704 97.6383C398.658 97.9589 398.612 98.1878 398.52 98.3252L398.383 98.8748C398.154 99.6991 397.879 100.294 397.467 100.661C397.055 101.027 396.597 101.165 396.139 101.073L390.598 100.157C392.063 101.531 392.796 103.271 392.887 105.378L395.315 105.79C396.047 105.927 396.322 106.385 396.185 107.164L396.047 107.713L395.91 108.217C395.727 108.858 395.498 109.271 395.269 109.545C394.994 109.774 394.628 109.866 394.17 109.82L392.246 109.5C391.239 112.385 389.407 114.446 386.705 115.728C384.003 117.01 380.797 117.377 376.996 116.735L374.523 116.323L374.431 116.552C375.256 116.827 375.943 117.285 376.584 117.88C377.225 118.476 377.912 119.392 378.599 120.582L385.01 131.665C385.468 132.444 385.652 133.039 385.606 133.451C385.468 134.275 384.415 134.55 382.4 134.23L380.293 133.909C379.332 133.772 378.645 133.543 378.141 133.314C377.637 133.039 377.179 132.581 376.813 131.848L368.203 116.69C367.837 116.094 367.562 115.545 367.425 115.087C367.287 114.629 367.241 114.125 367.333 113.621L367.47 113.026L367.608 112.476C367.837 111.606 368.112 111.011 368.524 110.736C368.89 110.415 369.44 110.324 370.127 110.461L376.721 111.515C381.026 112.202 383.82 111.194 385.01 108.446L370.676 106.111C370.264 106.065 369.989 105.882 369.852 105.561C369.714 105.286 369.714 104.783 369.898 104.096L370.035 103.592C370.218 102.951 370.447 102.538 370.722 102.31C370.997 102.081 371.363 101.989 371.821 102.081L385.697 104.325C385.56 102.951 385.102 101.806 384.278 100.936C383.453 100.065 382.263 99.5159 380.66 99.2412L373.241 98.0505C372.783 97.9589 372.462 97.7299 372.279 97.2719C372.096 96.8139 372.096 96.127 372.325 95.1653L372.508 94.3867C372.737 93.5166 373.058 92.9213 373.516 92.5549C373.974 92.1885 374.432 92.0511 374.935 92.1427L397.742 95.8522C398.52 95.8522 398.887 96.4934 398.704 97.6383Z" fill="#C4CDFF"/>
<defs>
<linearGradient id="paint0_linear" x1="185.51" y1="146.218" x2="185.51" y2="38.4237" gradientUnits="userSpaceOnUse">
<stop offset="0.015873" stop-color="#D138CB"/>
<stop offset="0.1855" stop-color="#E025DC" stop-opacity="0.8106"/>
<stop offset="0.4324" stop-color="#F111F0" stop-opacity="0.5349"/>
<stop offset="0.6763" stop-color="#FC04FB" stop-opacity="0.2626"/>
<stop offset="0.9115" stop-color="#FF00FF" stop-opacity="0"/>
</linearGradient>
<linearGradient id="paint1_linear" x1="168.249" y1="81.5113" x2="168.249" y2="16.9341" gradientUnits="userSpaceOnUse">
<stop offset="0.015873" stop-color="#D138CB"/>
<stop offset="0.1855" stop-color="#E025DC" stop-opacity="0.8106"/>
<stop offset="0.4324" stop-color="#F111F0" stop-opacity="0.5349"/>
<stop offset="0.6763" stop-color="#FC04FB" stop-opacity="0.2626"/>
<stop offset="0.9115" stop-color="#FF00FF" stop-opacity="0"/>
</linearGradient>
<linearGradient id="paint2_linear" x1="202.77" y1="87.4684" x2="202.77" y2="22.8912" gradientUnits="userSpaceOnUse">
<stop offset="0.015873" stop-color="#D138CB"/>
<stop offset="0.1855" stop-color="#E025DC" stop-opacity="0.8106"/>
<stop offset="0.4324" stop-color="#F111F0" stop-opacity="0.5349"/>
<stop offset="0.6763" stop-color="#FC04FB" stop-opacity="0.2626"/>
<stop offset="0.9115" stop-color="#FF00FF" stop-opacity="0"/>
</linearGradient>
<linearGradient id="paint3_linear" x1="185.723" y1="63.3404" x2="185.723" y2="-1.23682" gradientUnits="userSpaceOnUse">
<stop offset="0.015873" stop-color="#D138CB"/>
<stop offset="0.1855" stop-color="#E025DC" stop-opacity="0.8106"/>
<stop offset="0.4324" stop-color="#F111F0" stop-opacity="0.5349"/>
<stop offset="0.6763" stop-color="#FC04FB" stop-opacity="0.2626"/>
<stop offset="0.9115" stop-color="#FF00FF" stop-opacity="0"/>
</linearGradient>
<linearGradient id="paint4_linear" x1="311.879" y1="243.718" x2="311.879" y2="104.757" gradientUnits="userSpaceOnUse">
<stop offset="0.015873" stop-color="#D138CB"/>
<stop offset="0.1855" stop-color="#E025DC" stop-opacity="0.8106"/>
<stop offset="0.4324" stop-color="#F111F0" stop-opacity="0.5349"/>
<stop offset="0.6763" stop-color="#FC04FB" stop-opacity="0.2626"/>
<stop offset="0.9115" stop-color="#FF00FF" stop-opacity="0"/>
</linearGradient>
<linearGradient id="paint5_linear" x1="297.738" y1="135.006" x2="297.738" y2="83.5517" gradientUnits="userSpaceOnUse">
<stop offset="0.015873" stop-color="#D138CB"/>
<stop offset="0.1855" stop-color="#E025DC" stop-opacity="0.8106"/>
<stop offset="0.4324" stop-color="#F111F0" stop-opacity="0.5349"/>
<stop offset="0.6763" stop-color="#FC04FB" stop-opacity="0.2626"/>
<stop offset="0.9115" stop-color="#FF00FF" stop-opacity="0"/>
</linearGradient>
<linearGradient id="paint6_linear" x1="325.245" y1="139.753" x2="325.245" y2="88.2984" gradientUnits="userSpaceOnUse">
<stop offset="0.015873" stop-color="#D138CB"/>
<stop offset="0.1855" stop-color="#E025DC" stop-opacity="0.8106"/>
<stop offset="0.4324" stop-color="#F111F0" stop-opacity="0.5349"/>
<stop offset="0.6763" stop-color="#FC04FB" stop-opacity="0.2626"/>
<stop offset="0.9115" stop-color="#FF00FF" stop-opacity="0"/>
</linearGradient>
<linearGradient id="paint7_linear" x1="311.661" y1="120.528" x2="311.661" y2="69.0735" gradientUnits="userSpaceOnUse">
<stop offset="0.015873" stop-color="#D138CB"/>
<stop offset="0.1855" stop-color="#E025DC" stop-opacity="0.8106"/>
<stop offset="0.4324" stop-color="#F111F0" stop-opacity="0.5349"/>
<stop offset="0.6763" stop-color="#FC04FB" stop-opacity="0.2626"/>
<stop offset="0.9115" stop-color="#FF00FF" stop-opacity="0"/>
</linearGradient>
</defs>
</svg>
