<svg width="24" height="24" viewBox="0 0 24 24" fill="none" xmlns="http://www.w3.org/2000/svg">
<path d="M16.7315 23.3143H7.26865C3.63436 23.3143 0.685791 20.3657 0.685791 16.7314V7.26859C0.685791 3.6343 3.63436 0.68573 7.26865 0.68573H16.6629C20.2972 0.68573 23.2458 3.6343 23.2458 7.26859V16.6629C23.3144 20.3657 20.3658 23.3143 16.7315 23.3143Z" fill="#17D1AF"/>
<path d="M16.7314 24H7.26857C3.29143 24 0 20.7086 0 16.7314V7.26857C0 3.29143 3.29143 0 7.26857 0H16.6629C20.7086 0 24 3.29143 24 7.26857V16.6629C24 20.7086 20.7086 24 16.7314 24ZM7.26857 1.37143C4.04571 1.37143 1.37143 4.04571 1.37143 7.26857V16.6629C1.37143 19.9543 4.04571 22.56 7.26857 22.56H16.6629C19.9543 22.56 22.56 19.8857 22.56 16.6629V7.26857C22.6286 4.04571 19.9543 1.37143 16.7314 1.37143H7.26857Z" fill="#10B595"/>
<path d="M9.66858 16.1143L5.82858 11.5886C5.48572 11.1771 5.48572 10.4914 5.96572 10.1486C6.37715 9.80571 7.06286 9.80571 7.40572 10.2857L10.0114 13.3714L16.8 8.22857C17.28 7.88571 17.8972 7.95428 18.24 8.43428C18.5829 8.91428 18.5143 9.53142 18.0343 9.87428L9.66858 16.1143Z" fill="white"/>
</svg>
