<svg width="100" height="100" viewBox="0 0 100 100" fill="none" xmlns="http://www.w3.org/2000/svg">
<path d="M72.5987 13L63.8619 26.7857L62 33.7143L67.2994 35.1429L86.8497 31.5714L85.6323 21.5714L77.4684 13H72.5987Z" fill="#D7DF8F"/>
<path d="M86.4136 13.1985C82.1168 7.41278 72.6639 9.12707 70.229 9.62707H17.8084L16.7342 11.2699C11.7213 19.2699 9 28.5556 9 38.0556V77.7699C9 85.0556 14.9439 91.0556 22.32 91.0556H53.7581C61.0626 91.0556 67.0781 85.1271 67.0781 77.7699V38.9128H79.1807C82.4032 38.9128 85.4826 37.6271 87.7026 35.2699C89.9226 32.9128 91.14 29.8414 90.9968 26.5556C90.7103 21.4128 89.2065 16.9128 86.4136 13.1985ZM59.9168 77.8414C59.9168 81.1985 57.1955 83.9842 53.7581 83.9842H22.32C18.9542 83.9842 16.1613 81.2699 16.1613 77.8414V38.1271C16.1613 30.6271 18.0948 23.3414 21.7471 16.8414H64.5716C61.4923 23.4842 59.8452 30.7699 59.8452 38.1271V77.8414H59.9168ZM82.4749 30.3414C81.6155 31.2699 80.3981 31.7699 79.109 31.7699H67.5078C68.2955 26.3414 70.0858 21.1271 72.8787 16.4128C75.8149 15.9128 79.5387 16.0556 80.6845 17.4842C82.6181 19.9842 83.6207 23.1985 83.8355 26.9128C83.8355 28.1985 83.4058 29.4128 82.4749 30.3414Z" fill="#4ADF93"/>
<path d="M47.7427 43.2697L32.6323 54.8411L29.4814 48.1983C28.622 46.4125 26.5452 45.6268 24.7549 46.484C22.9646 47.3411 22.1768 49.4125 23.0362 51.1983L29.911 65.984L52.0394 48.9125C53.6149 47.6983 53.9014 45.484 52.684 43.9125C51.5381 42.3411 49.2465 42.0554 47.7427 43.2697Z" fill="#4ADF93"/>
</svg>
