<svg width="100" height="100" viewBox="0 0 100 100" fill="none" xmlns="http://www.w3.org/2000/svg">
<path d="M50.3933 73.3466C46.9559 73.3466 43.8049 71.4181 42.301 68.3466L37.861 59.3466C37.4313 58.4895 36.6436 57.9181 35.7126 57.7752L25.7584 56.3466C22.321 55.8466 19.5281 53.4895 18.4539 50.2038C17.3797 46.9181 18.2391 43.3466 20.7455 40.9895L27.9784 33.9895C28.6946 33.3466 28.981 32.3466 28.8378 31.4181L27.1191 21.5609C26.5462 18.1323 27.9068 14.7752 30.6997 12.7752C33.4926 10.7752 37.1449 10.4895 40.2242 12.0609L49.1042 16.7038C49.9636 17.1323 50.9662 17.1323 51.8255 16.7038L60.7056 12.0609C63.7849 10.4181 67.4372 10.7038 70.2301 12.7752C73.023 14.7752 74.3836 18.2038 73.8107 21.5609L72.0204 31.4181C71.8772 32.3466 72.1636 33.2752 72.8798 33.9895L80.1126 40.9895C82.6191 43.4181 83.4785 46.9181 82.4043 50.2038C81.3301 53.4895 78.5372 55.8466 75.0997 56.3466L65.1456 57.7752C64.2146 57.9181 63.3552 58.4895 62.9972 59.3466L58.5572 68.3466C56.9817 71.4181 53.8307 73.3466 50.3933 73.3466ZM35.9274 17.0609C35.3545 17.0609 34.7817 17.2752 34.2088 17.6323C33.2778 18.2752 32.8481 19.3466 33.0629 20.4895L34.7817 30.3466C35.2829 33.2752 34.2804 36.2752 32.2036 38.3466L24.9707 45.3466C24.1829 46.1323 23.8965 47.2038 24.2545 48.2752C24.6126 49.3466 25.472 50.0609 26.6178 50.2752L36.572 51.7038C39.5081 52.1323 42.0862 53.9895 43.3752 56.6323L47.8152 65.6323C48.3165 66.6323 49.3191 67.2752 50.3933 67.2752C51.5391 67.2752 52.4701 66.7038 52.9714 65.6323L57.4113 56.6323C58.7004 53.9895 61.2784 52.1323 64.2146 51.7038L74.1688 50.2752C75.3146 50.1323 76.1739 49.3466 76.532 48.2752C76.8901 47.2038 76.6036 46.1323 75.8159 45.3466L68.583 38.3466C66.4346 36.2752 65.5036 33.2752 66.0049 30.3466L67.7236 20.4895C67.9385 19.3466 67.5088 18.3466 66.5778 17.6323C65.6469 16.9895 64.501 16.9181 63.4984 17.4181L54.6185 22.0609C51.9688 23.4181 48.8178 23.4181 46.2397 22.0609L37.3597 17.4181C36.8584 17.2038 36.3571 17.0609 35.9274 17.0609Z" fill="#F7AF5B"/>
<path d="M54.9052 35.2754L63.069 36.6325L56.9819 42.2754L58.1994 50.4182L50.9665 46.4182L43.5188 50.0611L45.1658 41.9897L39.3652 36.0611L47.6007 35.0611L51.3962 27.7754L54.9052 35.2754Z" fill="#4ADF93"/>
<path d="M70.6591 89.2034H56.7663C55.4772 89.2034 54.403 88.4177 53.9017 87.2748L50.5359 78.8463L47.3134 87.2034C46.8837 88.4177 45.7379 89.2034 44.4488 89.2034H30.1263C29.2669 89.2034 28.4076 88.8463 27.8347 88.132C27.2618 87.4891 26.9753 86.5605 27.1185 85.7034L31.3437 56.0605C31.5585 54.4177 33.134 53.2034 34.7811 53.4891C36.4282 53.7034 37.6456 55.2748 37.3592 56.9177L33.6353 83.0605H42.3005L47.5282 69.3463C47.9579 68.132 49.1037 67.4177 50.3927 67.3463C51.6817 67.3463 52.7559 68.132 53.2572 69.2748L58.7714 83.0605H67.0785L63.4262 55.0605C63.2114 53.4177 64.4288 51.8463 66.0759 51.632C67.7946 51.4177 69.2985 52.632 69.5133 54.2748L73.5953 85.7034C73.7385 86.5605 73.452 87.4891 72.8791 88.132C72.3779 88.8463 71.5185 89.2034 70.6591 89.2034Z" fill="#F7AF5B"/>
</svg>
