<svg width="50" height="49" viewBox="0 0 50 49" fill="none" xmlns="http://www.w3.org/2000/svg">
<path d="M25.1784 48.7093C38.5846 48.7093 49.4525 37.8414 49.4525 24.4352C49.4525 11.029 38.5846 0.161133 25.1784 0.161133C11.7722 0.161133 0.904297 11.029 0.904297 24.4352C0.904297 37.8414 11.7722 48.7093 25.1784 48.7093Z" fill="#F7AF5B"/>
<path d="M30.8689 15.2027V18.2225H34.4113V21.068H30.7528C30.4624 23.1586 29.5913 24.7266 28.1395 25.8299C26.6877 26.8752 24.4229 27.4559 21.4032 27.4559V29.6627C21.4032 32.1017 22.3904 33.2631 24.4229 33.2631C25.4101 33.2631 26.107 32.9728 26.5716 32.334C27.0361 31.7533 27.2684 30.8241 27.2684 29.6046H31.8561C31.74 31.9275 31.1012 33.6696 29.8817 35.0053C28.6622 36.2829 26.92 36.9217 24.5971 36.9217C22.042 36.9217 20.1256 36.2829 18.7899 34.9472C17.4543 33.6116 16.8155 31.6371 16.8155 28.9658V24.262C19.3707 24.262 21.2289 24.2039 22.5065 24.0297C23.7841 23.8555 24.6552 23.5651 25.1778 23.1586C25.7005 22.694 26.0489 22.0552 26.2231 21.1261H16.0605V18.2806H26.2812V15.2608H16.0605V12.0088H34.4694V15.2608H30.8689V15.2027Z" fill="white"/>
</svg>
