<svg width="40" height="40" viewBox="0 0 40 40" fill="none" xmlns="http://www.w3.org/2000/svg">
<path d="M40 20C40 24.4186 38.5581 28.5116 36.1395 31.814C35.9535 32.093 35.7209 32.3256 35.5349 32.6047C31.8605 37.1163 26.2791 40 20 40C19.2558 40 18.5116 39.9535 17.7674 39.8605C16.7442 39.7209 15.7209 39.5349 14.7442 39.3023C6.23256 36.9767 0 29.2093 0 20C0 8.93023 8.97674 0 20 0C31.0233 0 40 8.97674 40 20Z" fill="url(#paint0_linear)"/>
<path d="M36.1392 31.8139C35.9531 32.093 35.7206 32.3256 35.5345 32.6046C31.8601 37.1162 26.2787 40 19.9996 40C19.2554 40 18.5113 39.9535 17.7671 39.8604C16.7438 39.7209 15.7206 39.5348 14.7438 39.3023L7.95312 19.0697L11.8601 14.4651L21.488 11.5349L32.0461 19.0697L36.1392 31.8139Z" fill="#E08C00"/>
<path d="M32.0461 20.4651C30.2786 15.2092 25.5809 11.4418 19.9995 11.4418C17.9995 11.4418 16.1391 11.9534 14.4647 12.7906L11.5809 9.90692L9.44141 12.0465L28.3716 30.9767L30.5112 28.8372L28.0461 26.372C29.86 24.8837 31.2554 22.8372 32.0461 20.4651ZM19.9995 14.4651C23.3019 14.4651 25.9995 17.1627 25.9995 20.4651C25.9995 21.5813 25.674 22.6046 25.1623 23.4883L22.8833 21.2092C22.9298 20.9767 22.9763 20.6976 22.9763 20.4185C22.9763 18.7441 21.6274 17.3953 19.953 17.3953C19.674 17.3953 19.4414 17.4418 19.1623 17.4883L16.9298 15.2558C17.86 14.7906 18.8833 14.4651 19.9995 14.4651Z" fill="#A86900"/>
<path d="M20 26.4651C16.6977 26.4651 14 23.7674 14 20.4651C14 19.9069 14.093 19.4418 14.2326 18.9302L10.8837 15.5814C9.62791 16.9767 8.60465 18.6511 8 20.4651C9.76744 25.7209 14.4651 29.4883 20.0465 29.4883C21.4884 29.4883 22.8372 29.2558 24.093 28.7907L21.5814 26.279C21.0233 26.3721 20.5581 26.4651 20 26.4651Z" fill="#A86900"/>
<path d="M32.0461 19.0698C30.2786 13.814 25.5809 10.0465 19.9995 10.0465C17.9995 10.0465 16.1391 10.5582 14.4647 11.3954L11.5809 8.51166L9.44141 10.6512L28.3716 29.5814L30.5112 27.4419L28.0461 24.9768C29.86 23.4884 31.2554 21.4419 32.0461 19.0698ZM19.9995 13.0698C23.3019 13.0698 25.9995 15.7675 25.9995 19.0698C25.9995 20.1861 25.674 21.2093 25.1623 22.0931L22.8833 19.814C22.9298 19.5814 22.9763 19.3024 22.9763 19.0233C22.9763 17.3489 21.6274 16 19.953 16C19.674 16 19.4414 16.0465 19.1623 16.0931L16.9298 13.8605C17.86 13.3954 18.8833 13.0698 19.9995 13.0698Z" fill="white"/>
<path d="M20 25.0698C16.6977 25.0698 14 22.3721 14 19.0698C14 18.5117 14.093 18.0466 14.2326 17.5349L10.8837 14.1861C9.62791 15.5814 8.60465 17.2559 8 19.0698C9.76744 24.3256 14.4651 28.0931 20.0465 28.0931C21.4884 28.0931 22.8372 27.8605 24.093 27.3954L21.5814 24.8838C21.0233 24.9768 20.5581 25.0698 20 25.0698Z" fill="white"/>
<defs>
<linearGradient id="paint0_linear" x1="19.9999" y1="-8.93023" x2="19.9999" y2="40.8538" gradientUnits="userSpaceOnUse">
<stop stop-color="#F1E024"/>
<stop offset="1" stop-color="#F7861E"/>
</linearGradient>
</defs>
</svg>
