<svg width="40" height="40" viewBox="0 0 40 40" fill="none" xmlns="http://www.w3.org/2000/svg">
<path d="M40 20C40 24.7907 38.3256 29.1628 35.5349 32.6047C31.8605 37.1163 26.2791 40 20 40C19.2558 40 18.5116 39.9535 17.7674 39.8605C7.76745 38.7442 0 30.2791 0 20C0 8.93023 8.97674 0 20 0C31.0233 0 40 8.97674 40 20Z" fill="url(#paint0_linear)"/>
<path d="M35.5345 32.6046C31.8601 37.1162 26.2787 40 19.9997 40C19.2555 40 18.5113 39.9535 17.7671 39.8604L9.58105 21.3488L17.8601 11.5349H27.9531L35.5345 32.6046Z" fill="#E08C00"/>
<path d="M30.279 18.2791H29.7673C29.5813 17.7209 29.3953 17.2093 29.1162 16.6977L29.4883 16.3256C30.4185 15.3954 30.372 13.9535 29.4883 13.0698L28.372 11.9535C27.4883 11.0698 25.9999 11.0233 25.1162 11.9535L24.7441 12.3256C24.2325 12.0465 23.7208 11.8605 23.1627 11.6744V11.1628C23.1627 9.90699 22.1394 8.83722 20.8371 8.83722H19.2557C17.9999 8.83722 16.9301 9.86048 16.9301 11.1628V11.6744C16.372 11.8605 15.8604 12.0465 15.3487 12.3256L14.9767 11.9535C14.0464 11.0233 12.6046 11.0698 11.7208 11.9535L10.6046 13.0698C9.72084 13.9535 9.67433 15.4419 10.6046 16.3256L10.9767 16.6977C10.6976 17.2093 10.5115 17.7209 10.3255 18.2791H9.81386C8.55805 18.2791 7.48828 19.3023 7.48828 20.6047V22.1861C7.48828 23.4419 8.51154 24.5116 9.81386 24.5116H10.3255C10.5115 25.0698 10.6976 25.5814 10.9767 26.093L10.6046 26.4651C9.67433 27.3954 9.72084 28.8372 10.6046 29.7209L11.7208 30.8372C12.6046 31.7209 14.0929 31.7675 14.9767 30.8372L15.3487 30.4651C15.8604 30.7442 16.372 30.9302 16.9301 31.1163V31.6279C16.9301 32.8837 17.9534 33.9535 19.2557 33.9535H20.8371C22.0929 33.9535 23.1627 32.9302 23.1627 31.6279V31.1163C23.7208 30.9302 24.2325 30.7442 24.7441 30.4651L25.1162 30.8372C26.0464 31.7675 27.4883 31.7209 28.372 30.8372L29.4883 29.7209C30.372 28.8372 30.4185 27.3488 29.4883 26.4651L29.1162 26.093C29.3953 25.5814 29.5813 25.0698 29.7673 24.5116H30.279C31.5348 24.5116 32.6046 23.4884 32.6046 22.1861V20.6047C32.6046 19.3488 31.5348 18.2791 30.279 18.2791ZM19.9999 26.8837C16.9767 26.8837 14.5115 24.4186 14.5115 21.3954C14.5115 18.3721 16.9767 15.907 19.9999 15.907C23.0232 15.907 25.4883 18.3721 25.4883 21.3954C25.4883 24.4186 23.0232 26.8837 19.9999 26.8837Z" fill="#A86900"/>
<path d="M30.279 16.8837H29.7673C29.5813 16.3256 29.3953 15.8139 29.1162 15.3023L29.4883 14.9302C30.4185 14 30.372 12.5581 29.4883 11.6744L28.372 10.5581C27.4883 9.67439 25.9999 9.62788 25.1162 10.5581L24.7441 10.9302C24.2325 10.6511 23.7208 10.4651 23.1627 10.279V9.76742C23.1627 8.5116 22.1394 7.44183 20.8371 7.44183H19.2557C17.9999 7.44183 16.9301 8.46509 16.9301 9.76742V10.279C16.372 10.4651 15.8604 10.6511 15.3487 10.9302L14.9767 10.5581C14.0464 9.62788 12.6046 9.67439 11.7208 10.5581L10.6046 11.6744C9.72084 12.5581 9.67433 14.0465 10.6046 14.9302L10.9767 15.3023C10.6976 15.8139 10.5115 16.3256 10.3255 16.8837H9.81386C8.55805 16.8837 7.48828 17.9069 7.48828 19.2093V20.7907C7.48828 22.0465 8.51154 23.1163 9.81386 23.1163H10.3255C10.5115 23.6744 10.6976 24.186 10.9767 24.6976L10.6046 25.0697C9.67433 26 9.72084 27.4418 10.6046 28.3256L11.7208 29.4418C12.6046 30.3256 14.0929 30.3721 14.9767 29.4418L15.3487 29.0697C15.8604 29.3488 16.372 29.5349 16.9301 29.7209V30.2325C16.9301 31.4883 17.9534 32.5581 19.2557 32.5581H20.8371C22.0929 32.5581 23.1627 31.5349 23.1627 30.2325V29.7209C23.7208 29.5349 24.2325 29.3488 24.7441 29.0697L25.1162 29.4418C26.0464 30.3721 27.4883 30.3256 28.372 29.4418L29.4883 28.3256C30.372 27.4418 30.4185 25.9535 29.4883 25.0697L29.1162 24.6976C29.3953 24.186 29.5813 23.6744 29.7673 23.1163H30.279C31.5348 23.1163 32.6046 22.093 32.6046 20.7907V19.2093C32.6046 17.9535 31.5348 16.8837 30.279 16.8837ZM19.9999 25.4883C16.9767 25.4883 14.5115 23.0232 14.5115 20C14.5115 16.9767 16.9767 14.5116 19.9999 14.5116C23.0232 14.5116 25.4883 16.9767 25.4883 20C25.4883 23.0232 23.0232 25.4883 19.9999 25.4883Z" fill="white"/>
<defs>
<linearGradient id="paint0_linear" x1="20.0046" y1="-8.93023" x2="20.0046" y2="40.8538" gradientUnits="userSpaceOnUse">
<stop stop-color="#F1E024"/>
<stop offset="1" stop-color="#F7861E"/>
</linearGradient>
</defs>
</svg>
