<svg width="37" height="33" viewBox="0 0 37 33" fill="none" xmlns="http://www.w3.org/2000/svg">
<path d="M11.8534 28.4483C18.3999 28.4483 23.7069 23.1413 23.7069 16.5948C23.7069 10.0483 18.3999 4.74137 11.8534 4.74137C5.30697 4.74137 0 10.0483 0 16.5948C0 23.1413 5.30697 28.4483 11.8534 28.4483Z" fill="#22DADA" fill-opacity="0.3"/>
<path d="M20.32 16.2562C15.8495 16.2562 12.1919 12.5985 12.1919 8.12808C12.1919 3.65764 15.8495 0 20.32 0C24.7904 0 28.4481 3.65764 28.4481 8.12808C28.4481 12.5985 24.7904 16.2562 20.32 16.2562ZM20.32 2.03202C16.9333 2.03202 14.2239 4.74138 14.2239 8.12808C14.2239 11.5148 16.9333 14.2241 20.32 14.2241C23.7067 14.2241 26.416 11.5148 26.416 8.12808C26.416 4.74138 23.7067 2.03202 20.32 2.03202Z" fill="#171B2F"/>
<path d="M36.4406 32.9187H3.25098L3.45418 31.7672C4.67339 23.7069 11.7177 17.6108 19.9135 17.6108C28.1094 17.6108 35.1537 23.7069 36.3052 31.7672L36.4406 32.9187ZM5.6894 30.8867H34.0699C32.5121 24.3842 26.6192 19.6429 19.9135 19.6429C13.2079 19.6429 7.24728 24.3842 5.6894 30.8867Z" fill="#171B2F"/>
<path d="M35.2891 32.9187H4.47011C3.92824 32.9187 3.4541 32.4446 3.4541 31.9027C3.4541 31.3608 3.92824 30.8867 4.47011 30.8867H35.2891C35.8309 30.8867 36.3051 31.3608 36.3051 31.9027C36.3051 32.4446 35.8309 32.9187 35.2891 32.9187Z" fill="#171B2F"/>
</svg>
