<svg width="40" height="40" viewBox="0 0 40 40" fill="none" xmlns="http://www.w3.org/2000/svg">
<rect width="39.0489" height="39.0489" rx="10" fill="#EBEFFF"/>
<path d="M6.88225 29.2322C7.04514 28.5932 7.23308 27.9667 7.38344 27.3151C7.60897 26.3002 8.0851 25.4482 8.96218 24.8844C9.27543 24.6839 9.61373 24.5335 9.96456 24.4082C11.2301 23.9697 12.5081 23.5562 13.7861 23.1427C14.1244 23.03 14.3875 22.8295 14.4878 22.5037C14.6381 22.0151 14.7259 21.5139 14.8261 21.0127C14.8386 20.9375 14.7634 20.8373 14.7008 20.7621C14.2497 20.286 13.8112 19.7973 13.5731 19.1708C13.4353 18.8075 13.4979 18.3689 13.31 18.0557C13.122 17.7424 12.8589 17.4542 12.7587 17.0783C12.6459 16.6273 12.5332 16.1762 12.4329 15.7251C12.3327 15.2615 12.483 14.8856 12.7712 14.5223C12.8464 14.4346 12.8965 14.3093 12.8965 14.1965C12.9341 13.4823 12.9466 12.7681 12.9717 12.0539C12.9967 11.4274 13.1596 10.8386 13.4478 10.2998C14.375 8.55815 15.7408 7.3177 17.7205 6.96687C19.2867 6.69122 20.7777 6.99193 22.0432 8.0319C22.4191 8.33261 22.6947 8.7085 22.8827 9.15957C22.9203 9.23475 22.9579 9.30993 23.0205 9.34752C23.7347 9.82365 24.073 10.5253 24.1231 11.3397C24.1858 12.2669 24.1733 13.2067 24.1733 14.1464C24.1733 14.3093 24.2108 14.4346 24.3236 14.5724C24.5366 14.8105 24.6744 15.0861 24.687 15.4244C24.687 15.5998 24.6243 15.675 24.474 15.7251C23.0957 16.1887 21.7174 16.6649 20.3392 17.1285C20.076 17.2162 19.8254 17.3039 19.5623 17.3916C18.3344 17.7925 17.5325 18.7949 17.4949 20.0855C17.4573 21.7018 17.4573 23.3181 17.5074 24.9345C17.5701 26.8139 18.2718 28.4804 19.3744 29.984C19.4245 30.0466 19.4746 30.1092 19.5498 30.222C19.412 30.222 19.3243 30.222 19.224 30.222C15.44 30.222 11.6561 30.222 7.88463 30.2345C7.39597 30.2345 7.05767 30.0717 6.86972 29.6206C6.88225 29.5078 6.88225 29.37 6.88225 29.2322Z" fill="#5372EF"/>
<path d="M25.7896 32.3772C24.7622 31.9011 23.7974 31.3247 22.9203 30.6105C21.6548 29.5831 20.6148 28.3677 20.0385 26.814C19.7753 26.0998 19.625 25.348 19.6125 24.5837C19.6125 23.1553 19.6125 21.7144 19.6125 20.286C19.6125 19.835 19.8004 19.5844 20.2264 19.434C22.0307 18.8201 23.835 18.2061 25.6267 17.5921C25.8648 17.5044 26.0903 17.5044 26.3284 17.5921C28.1327 18.2061 29.9369 18.8201 31.7287 19.434C32.1798 19.5844 32.3426 19.835 32.3426 20.3111C32.3426 21.6894 32.3426 23.0676 32.3426 24.4334C32.3426 26.3128 31.6285 27.9166 30.4005 29.3074C29.2478 30.623 27.832 31.6004 26.2532 32.3271C26.2281 32.3396 26.2031 32.3647 26.178 32.3772C26.0653 32.3772 25.9274 32.3772 25.7896 32.3772ZM25.5766 25.0097C25.4012 24.8594 25.2383 24.7216 25.0879 24.5837C24.9251 24.4459 24.7622 24.3081 24.5993 24.1702C24.0981 23.7568 23.4591 23.7944 23.0707 24.258C22.6822 24.7216 22.7324 25.3606 23.221 25.7866C23.8099 26.3003 24.3988 26.8015 25.0002 27.3027C25.539 27.7537 26.178 27.6911 26.6166 27.1398C26.9048 26.789 27.1804 26.4256 27.4561 26.0622C28.1327 25.2102 28.7967 24.3582 29.4608 23.5062C29.9495 22.8797 29.6863 22.0277 28.9471 21.8021C28.5086 21.6768 28.0951 21.8272 27.7693 22.2281C27.03 23.1553 26.3159 24.07 25.5766 25.0097Z" fill="#5372EF"/>
</svg>
