<svg width="50" height="50" viewBox="0 0 50 50" fill="none" xmlns="http://www.w3.org/2000/svg">
<path d="M42.031 49.9004H7.82394C3.50258 49.9004 0 46.3523 0 42.031V7.82395C0 3.50258 3.50258 0 7.82394 0H42.031C46.3523 0 49.8549 3.50258 49.8549 7.82395V42.031C49.9004 46.3523 46.3523 49.9004 42.031 49.9004Z" fill="#171B2F"/>
<path d="M19.4692 40.7572C19.1053 40.7572 18.7869 40.4387 18.7869 40.0748V29.7036C18.7869 29.3397 19.1053 29.0212 19.4692 29.0212C19.8331 29.0212 20.1515 29.3397 20.1515 29.7036V40.0748C20.1515 40.4387 19.8331 40.7572 19.4692 40.7572Z" fill="white"/>
<path d="M25.8373 40.7576C25.4734 40.7576 25.155 40.4392 25.155 40.0752V27.1112C25.155 26.7472 25.4734 26.4288 25.8373 26.4288C26.2013 26.4288 26.5197 26.7472 26.5197 27.1112V40.0752C26.5197 40.4392 26.2013 40.7576 25.8373 40.7576Z" fill="white"/>
<path d="M32.6604 41.212C31.7962 41.212 31.0684 40.4842 31.0684 39.62V17.4218C31.0684 16.5575 31.7962 15.8297 32.6604 15.8297C33.5247 15.8297 34.2525 16.5575 34.2525 17.4218V39.5745C34.2525 40.4842 33.5247 41.212 32.6604 41.212Z" fill="#FBC42D"/>
<path d="M18.1495 24.0631C17.0578 24.0631 16.3755 23.7902 16.33 23.7902C16.1025 23.6992 15.9661 23.4263 16.0571 23.1988C16.148 22.9714 16.421 22.8349 16.6484 22.9259C16.7394 22.9714 18.6044 23.6537 21.1062 22.3801C23.6536 21.0609 27.2471 17.4219 29.8854 7.41448C29.9309 7.18704 30.2038 7.00509 30.4313 7.09607C30.6587 7.14156 30.8407 7.41448 30.7497 7.64192C28.6573 15.9662 25.5186 21.1974 21.5156 23.1988C20.242 23.8812 19.0593 24.0631 18.1495 24.0631Z" fill="white"/>
<path d="M31.341 9.6888L30.2948 7.7783L28.3843 8.87002L28.7482 7.59635L30.6132 6.50464L31.7049 8.41514L31.341 9.6888Z" fill="white"/>
</svg>
