<svg width="50" height="50" viewBox="0 0 50 50" fill="none" xmlns="http://www.w3.org/2000/svg">
<path d="M42.031 49.8549H7.82394C3.50257 49.8549 0 46.3523 0 42.031V7.82394C0 3.50258 3.50257 0 7.82394 0H42.031C46.3523 0 49.8549 3.50258 49.8549 7.82394V42.031C49.8549 46.3523 46.3523 49.8549 42.031 49.8549Z" fill="#171B2F"/>
<path d="M27.6113 23.5629C31.7063 23.5629 35.0259 20.2433 35.0259 16.1483C35.0259 12.0534 31.7063 8.73376 27.6113 8.73376C23.5164 8.73376 20.1968 12.0534 20.1968 16.1483C20.1968 20.2433 23.5164 23.5629 27.6113 23.5629Z" fill="#FBC42D"/>
<path d="M19.833 42.1219C17.6041 42.1219 15.8301 40.3023 15.8301 38.1189C15.8301 35.9355 17.6496 34.116 19.833 34.116C22.0619 34.116 23.836 35.9355 23.836 38.1189C23.836 40.3023 22.0165 42.1219 19.833 42.1219ZM19.833 35.4351C18.3774 35.4351 17.1947 36.6178 17.1947 38.0734C17.1947 39.529 18.3774 40.7117 19.833 40.7117C21.2887 40.7117 22.4713 39.529 22.4713 38.0734C22.4713 36.6178 21.2887 35.4351 19.833 35.4351Z" fill="white"/>
<path d="M32.2515 42.1219C30.0226 42.1219 28.2485 40.3023 28.2485 38.1189C28.2485 35.9355 30.0681 34.116 32.2515 34.116C34.4349 34.116 36.2544 35.9355 36.2544 38.1189C36.2544 40.3023 34.4804 42.1219 32.2515 42.1219ZM32.2515 35.4351C30.7959 35.4351 29.6132 36.6178 29.6132 38.0734C29.6132 39.529 30.7959 40.7117 32.2515 40.7117C33.7071 40.7117 34.8898 39.529 34.8898 38.0734C34.8898 36.6178 33.7071 35.4351 32.2515 35.4351Z" fill="white"/>
<path d="M34.1163 32.16H16.0575V13.9192L8.87041 10.8261C8.5065 10.6896 8.37003 10.2802 8.5065 9.9163C8.64296 9.5524 9.05235 9.41593 9.41626 9.5524L17.4222 12.964V30.7498H34.1163C37.3459 30.7498 39.9842 28.1115 39.9842 24.8819V19.8782H25.1551C24.7912 19.8782 24.4728 19.5598 24.4728 19.1959C24.4728 18.832 24.7912 18.5135 25.1551 18.5135H41.3489V24.9274C41.3489 28.9303 38.1192 32.16 34.1163 32.16Z" fill="white"/>
</svg>
