<svg width="39" height="48" viewBox="0 0 39 48" fill="none" xmlns="http://www.w3.org/2000/svg">
<path d="M10.0325 38.5992C15.5734 38.5992 20.0651 34.1221 20.0651 28.5992C20.0651 23.0764 15.5734 18.5992 10.0325 18.5992C4.49172 18.5992 0 23.0764 0 28.5992C0 34.1221 4.49172 38.5992 10.0325 38.5992Z" fill="#0019DC" fill-opacity="0.5"/>
<path d="M14.9055 31.6278C13.9309 31.6278 13.1856 31.3421 12.727 30.8278C12.2684 30.2564 12.0391 29.5707 12.0391 28.6564C12.0391 27.685 12.2684 26.885 12.7843 26.3707C13.3003 25.7993 14.0456 25.5135 15.0202 25.5135C16.912 25.5135 17.8293 26.485 17.8293 28.4278C17.8293 29.3993 17.6 30.1993 17.084 30.7707C16.568 31.3421 15.8801 31.6278 14.9055 31.6278ZM15.0202 30.2564C15.3641 30.2564 15.5934 30.1421 15.7654 29.8564C15.9374 29.5707 15.9947 29.1136 15.9947 28.5421C15.9947 27.9707 15.9374 27.5707 15.7654 27.3421C15.5934 27.1135 15.3641 26.9421 15.0202 26.9421C14.3322 26.9421 14.0456 27.5136 14.0456 28.5993C14.0456 29.685 14.3322 30.2564 15.0202 30.2564ZM16.9693 36.2564H14.6189L20.9824 25.5135H23.3328L16.9693 36.2564ZM23.0462 36.1421C22.0716 36.1421 21.3263 35.8564 20.8677 35.3421C20.4091 34.8278 20.1798 34.085 20.1798 33.1707C20.1798 32.1993 20.4091 31.3993 20.925 30.885C21.441 30.3135 22.1863 30.0278 23.1608 30.0278C25.0527 30.0278 25.97 30.9993 25.97 32.9421C25.97 33.9135 25.7406 34.7135 25.2247 35.285C24.7087 35.8564 24.0208 36.1421 23.0462 36.1421ZM22.3582 34.3707C22.5302 34.6564 22.7596 34.7707 23.1035 34.7707C23.4475 34.7707 23.6768 34.6564 23.8488 34.3707C24.0208 34.085 24.0781 33.6278 24.0781 33.0564C24.0781 32.485 24.0208 32.085 23.8488 31.8564C23.7341 31.5707 23.4475 31.4564 23.1035 31.4564C22.4729 31.4564 22.1289 32.0278 22.1289 33.1136C22.1289 33.6278 22.1863 34.085 22.3582 34.3707Z" fill="#171B2F"/>
<path d="M22.3581 47.285C8.65655 47.285 4.07025 42.3707 2.5797 38.1992C-9.15527e-05 30.9992 5.33148 21.1707 11.9243 15.8564C15.0774 13.285 16.6826 11.285 16.6253 9.91353C16.5679 8.82782 15.3067 7.97067 13.9881 7.11353C12.3256 6.02782 10.4911 4.77067 10.6057 2.59925C10.6631 1.28496 11.351 0.656388 11.9243 0.370674C14.7907 -1.17218 21.4982 2.5421 23.0461 3.45639C24.4793 3.91353 26.0272 3.45639 27.5177 3.05639C29.3522 2.5421 31.4734 1.97067 32.792 3.7421C34.1105 5.51353 31.4161 8.08496 28.3203 11.1135C26.7724 12.5992 23.9633 15.3421 24.078 16.085C24.078 16.085 24.1353 16.1421 24.1926 16.1421C30.6708 18.9992 39.9007 30.885 38.1809 39.0564C37.4929 42.8278 34.1105 47.285 22.3581 47.285ZM13.7015 1.7421C13.3575 1.7421 13.0135 1.79925 12.7842 1.91353C12.6122 2.02782 12.3829 2.19925 12.3829 2.77067C12.3256 3.91353 13.3002 4.65639 14.9627 5.7421C16.5106 6.77067 18.2305 7.91353 18.3451 9.91353C18.4598 11.9135 16.7399 14.2564 13.0135 17.2278C6.87936 22.1992 1.89176 31.1707 4.18491 37.685C6.01943 42.885 12.3256 45.6278 22.3581 45.6278C28.2057 45.6278 35.4291 44.4278 36.633 38.7707C38.1809 31.6278 29.6389 20.485 23.6194 17.7992C22.8168 17.4564 22.5874 16.885 22.5301 16.485C22.2435 14.885 24.1353 12.9421 27.2311 9.97067C28.7789 8.42782 31.76 5.62782 31.5307 4.82782C30.9574 4.08496 30.0402 4.25639 28.091 4.77067C26.3711 5.22782 24.4793 5.79924 22.5301 5.11353L22.3581 5.05639C19.721 3.51353 15.7653 1.7421 13.7015 1.7421Z" fill="#171B2F"/>
<path d="M25.7978 18.8278C25.6259 18.8278 25.4539 18.7707 25.2819 18.6564C22.0715 16.1993 18.4024 16.5993 18.3451 16.5993C17.8865 16.6564 17.4278 16.3135 17.3705 15.8564C17.3132 15.3993 17.6572 14.9421 18.1158 14.885C18.2878 14.885 22.4728 14.3707 26.2565 17.285C26.6578 17.5707 26.7151 18.085 26.4285 18.485C26.3138 18.7135 26.0272 18.8278 25.7978 18.8278Z" fill="#171B2F"/>
</svg>
