<svg width="39" height="40" viewBox="0 0 39 40" fill="none" xmlns="http://www.w3.org/2000/svg">
<path d="M24.1548 24.5317C29.0185 24.5317 32.9613 20.6017 32.9613 15.7538C32.9613 10.9059 29.0185 6.97595 24.1548 6.97595C19.2912 6.97595 15.3484 10.9059 15.3484 15.7538C15.3484 20.6017 19.2912 24.5317 24.1548 24.5317Z" fill="#0019DC" fill-opacity="0.5"/>
<path d="M12.7819 20.519H4.07613C1.81161 20.519 0 18.7132 0 16.4561V7.77849C0 5.52132 1.81161 3.71558 4.07613 3.71558H12.7819C15.0465 3.71558 16.8581 5.52132 16.8581 7.77849V16.4561C16.8581 18.7132 14.9961 20.519 12.7819 20.519ZM4.02581 5.22036C2.61678 5.22036 1.45935 6.37403 1.45935 7.77849V16.4561C1.45935 17.8605 2.61678 19.0142 4.02581 19.0142H12.7316C14.1407 19.0142 15.2981 17.8605 15.2981 16.4561V7.77849C15.2981 6.37403 14.1407 5.22036 12.7316 5.22036H4.02581Z" fill="#171B2F"/>
<path d="M12.7819 39.5795H4.07613C1.81161 39.5795 0 37.7738 0 35.5166V26.839C0 24.5819 1.81161 22.7761 4.07613 22.7761H12.7819C15.0465 22.7761 16.8581 24.5819 16.8581 26.839V35.5166C16.8581 37.7738 14.9961 39.5795 12.7819 39.5795ZM4.02581 24.2809C2.61678 24.2809 1.45935 25.4346 1.45935 26.839V35.5166C1.45935 36.9211 2.61678 38.0747 4.02581 38.0747H12.7316C14.1407 38.0747 15.2981 36.9211 15.2981 35.5166V26.839C15.2981 25.4346 14.1407 24.2809 12.7316 24.2809H4.02581Z" fill="#171B2F"/>
<path d="M31.9045 39.5795H23.1987C20.9342 39.5795 19.1226 37.7738 19.1226 35.5166V26.839C19.1226 24.5819 20.9342 22.7761 23.1987 22.7761H31.9045C34.169 22.7761 35.9806 24.5819 35.9806 26.839V35.5166C35.9806 37.7738 34.1187 39.5795 31.9045 39.5795ZM23.1484 24.2809C21.7393 24.2809 20.5819 25.4346 20.5819 26.839V35.5166C20.5819 36.9211 21.7393 38.0747 23.1484 38.0747H31.8542C33.2632 38.0747 34.4206 36.9211 34.4206 35.5166V26.839C34.4206 25.4346 33.2632 24.2809 31.8542 24.2809H23.1484Z" fill="#171B2F"/>
<path d="M34.9238 20.519H23.1987C20.9342 20.519 19.1226 18.7133 19.1226 16.4561V4.76897C19.1226 2.5118 20.9342 0.706055 23.1987 0.706055H34.9238C37.1884 0.706055 39 2.5118 39 4.76897V16.4561C39 18.7133 37.138 20.519 34.9238 20.519ZM23.1484 2.21084C21.7393 2.21084 20.5819 3.3645 20.5819 4.76897V16.4561C20.5819 17.8606 21.7393 19.0142 23.1484 19.0142H34.8735C36.2826 19.0142 37.44 17.8606 37.44 16.4561V4.76897C37.44 3.3645 36.2826 2.21084 34.8735 2.21084H23.1484Z" fill="#171B2F"/>
</svg>
