<svg width="34" height="44" viewBox="0 0 34 44" fill="none" xmlns="http://www.w3.org/2000/svg">
<path d="M12.8416 43.7142C18.3824 43.7142 22.8742 39.2371 22.8742 33.7142C22.8742 28.1914 18.3824 23.7142 12.8416 23.7142C7.30081 23.7142 2.80908 28.1914 2.80908 33.7142C2.80908 39.2371 7.30081 43.7142 12.8416 43.7142Z" fill="#0019DC" fill-opacity="0.5"/>
<path d="M16.6254 42.8001C15.6508 42.8001 11.0645 42.5715 6.93679 38.6286C2.35048 34.2286 0 27.0286 0 17.1429V16.2858H33.824L33.8813 17.0858C33.9387 17.6572 35.0852 30.7429 28.3778 38.0572C25.5113 41.2001 21.613 42.8001 16.7973 42.8001C16.7973 42.8001 16.74 42.8001 16.6254 42.8001ZM1.71986 18.0001C1.83452 26.9143 4.01302 33.4286 8.08336 37.3715C12.1537 41.2572 16.74 41.0858 16.7973 41.0858C21.1543 41.0858 24.5941 39.6572 27.1739 36.9143C32.5054 31.0858 32.4481 20.9143 32.2761 18.0001H1.71986Z" fill="#171B2F"/>
<path d="M27.4605 18C27.0019 18 26.6006 17.6 26.6006 17.1429V11.2571C26.6006 6 22.3009 1.71429 17.0267 1.71429C11.7524 1.71429 7.45277 6 7.45277 11.2571V17.1429C7.45277 17.6 7.05147 18 6.59284 18C6.13421 18 5.73291 17.6 5.73291 17.1429V11.2571C5.73291 5.02857 10.7778 0 17.0267 0C23.2755 0 28.3204 5.02857 28.3204 11.2571V17.1429C28.3204 17.6 27.9192 18 27.4605 18Z" fill="#171B2F"/>
<path d="M17.0266 32.6857C15.3068 32.6857 13.8735 31.2572 13.8735 29.5429C13.8735 27.8286 15.3068 26.4 17.0266 26.4C18.7465 26.4 20.1797 27.8286 20.1797 29.5429C20.1797 31.2572 18.7465 32.6857 17.0266 32.6857ZM17.0266 28.1143C16.224 28.1143 15.5934 28.7429 15.5934 29.5429C15.5934 30.3429 16.224 30.9715 17.0266 30.9715C17.8292 30.9715 18.4598 30.3429 18.4598 29.5429C18.4598 28.7429 17.8292 28.1143 17.0266 28.1143Z" fill="#171B2F"/>
</svg>
