<svg width="630" height="444" viewBox="0 0 630 444" fill="none" xmlns="http://www.w3.org/2000/svg">
<path d="M299.744 443.036C465.288 443.036 599.488 344.075 599.488 222C599.488 99.9254 465.288 0.964355 299.744 0.964355C134.2 0.964355 0 99.9254 0 222C0 344.075 134.2 443.036 299.744 443.036Z" fill="url(#paint0_linear)"/>
<path d="M510.356 226.64C513.326 226.64 515.733 224.229 515.733 221.256C515.733 218.283 513.326 215.872 510.356 215.872C507.387 215.872 504.979 218.283 504.979 221.256C504.979 224.229 507.387 226.64 510.356 226.64Z" fill="url(#paint1_linear)"/>
<path d="M538.901 226.639C541.871 226.639 544.278 224.229 544.278 221.256C544.278 218.283 541.871 215.872 538.901 215.872C535.932 215.872 533.524 218.283 533.524 221.256C533.524 224.229 535.932 226.639 538.901 226.639Z" fill="url(#paint2_linear)"/>
<path d="M567.49 226.639C570.459 226.639 572.866 224.229 572.866 221.256C572.866 218.283 570.459 215.872 567.49 215.872C564.52 215.872 562.113 218.283 562.113 221.256C562.113 224.229 564.52 226.639 567.49 226.639Z" fill="url(#paint3_linear)"/>
<path d="M596.078 226.639C599.048 226.639 601.455 224.229 601.455 221.256C601.455 218.283 599.048 215.872 596.078 215.872C593.109 215.872 590.702 218.283 590.702 221.256C590.702 224.229 593.109 226.639 596.078 226.639Z" fill="url(#paint4_linear)"/>
<path d="M624.623 226.639C627.592 226.639 630 224.229 630 221.256C630 218.283 627.592 215.872 624.623 215.872C621.653 215.872 619.246 218.283 619.246 221.256C619.246 224.229 621.653 226.639 624.623 226.639Z" fill="url(#paint5_linear)"/>
<path d="M510.356 246.117C513.325 246.117 515.733 243.707 515.733 240.733C515.733 237.76 513.325 235.35 510.356 235.35C507.386 235.35 504.979 237.76 504.979 240.733C504.979 243.707 507.386 246.117 510.356 246.117Z" fill="url(#paint6_linear)"/>
<path d="M538.901 246.117C541.871 246.117 544.278 243.707 544.278 240.733C544.278 237.76 541.871 235.35 538.901 235.35C535.932 235.35 533.524 237.76 533.524 240.733C533.524 243.707 535.932 246.117 538.901 246.117Z" fill="url(#paint7_linear)"/>
<path d="M567.49 246.117C570.459 246.117 572.866 243.707 572.866 240.733C572.866 237.76 570.459 235.35 567.49 235.35C564.52 235.35 562.113 237.76 562.113 240.733C562.113 243.707 564.52 246.117 567.49 246.117Z" fill="url(#paint8_linear)"/>
<path d="M596.078 246.117C599.048 246.117 601.455 243.707 601.455 240.733C601.455 237.76 599.048 235.35 596.078 235.35C593.109 235.35 590.702 237.76 590.702 240.733C590.702 243.707 593.109 246.117 596.078 246.117Z" fill="url(#paint9_linear)"/>
<path d="M624.623 246.117C627.592 246.117 630 243.707 630 240.733C630 237.76 627.592 235.35 624.623 235.35C621.653 235.35 619.246 237.76 619.246 240.733C619.246 243.707 621.653 246.117 624.623 246.117Z" fill="url(#paint10_linear)"/>
<path d="M510.356 265.551C513.325 265.551 515.733 263.14 515.733 260.167C515.733 257.194 513.325 254.783 510.356 254.783C507.386 254.783 504.979 257.194 504.979 260.167C504.979 263.14 507.386 265.551 510.356 265.551Z" fill="url(#paint11_linear)"/>
<path d="M538.901 265.551C541.871 265.551 544.278 263.14 544.278 260.167C544.278 257.194 541.871 254.783 538.901 254.783C535.932 254.783 533.524 257.194 533.524 260.167C533.524 263.14 535.932 265.551 538.901 265.551Z" fill="url(#paint12_linear)"/>
<path d="M567.49 265.551C570.459 265.551 572.866 263.14 572.866 260.167C572.866 257.194 570.459 254.783 567.49 254.783C564.52 254.783 562.113 257.194 562.113 260.167C562.113 263.14 564.52 265.551 567.49 265.551Z" fill="url(#paint13_linear)"/>
<path d="M596.078 265.551C599.048 265.551 601.455 263.14 601.455 260.167C601.455 257.194 599.048 254.783 596.078 254.783C593.109 254.783 590.702 257.194 590.702 260.167C590.702 263.14 593.109 265.551 596.078 265.551Z" fill="url(#paint14_linear)"/>
<path d="M624.623 265.551C627.592 265.551 630 263.14 630 260.167C630 257.194 627.592 254.783 624.623 254.783C621.653 254.783 619.246 257.194 619.246 260.167C619.246 263.14 621.653 265.551 624.623 265.551Z" fill="url(#paint15_linear)"/>
<path d="M510.356 285.028C513.325 285.028 515.733 282.618 515.733 279.644C515.733 276.671 513.325 274.261 510.356 274.261C507.386 274.261 504.979 276.671 504.979 279.644C504.979 282.618 507.386 285.028 510.356 285.028Z" fill="url(#paint16_linear)"/>
<path d="M538.901 285.028C541.871 285.028 544.278 282.618 544.278 279.644C544.278 276.671 541.871 274.261 538.901 274.261C535.932 274.261 533.524 276.671 533.524 279.644C533.524 282.618 535.932 285.028 538.901 285.028Z" fill="url(#paint17_linear)"/>
<path d="M567.49 285.028C570.459 285.028 572.866 282.618 572.866 279.644C572.866 276.671 570.459 274.261 567.49 274.261C564.52 274.261 562.113 276.671 562.113 279.644C562.113 282.618 564.52 285.028 567.49 285.028Z" fill="url(#paint18_linear)"/>
<path d="M596.078 285.028C599.048 285.028 601.455 282.618 601.455 279.644C601.455 276.671 599.048 274.261 596.078 274.261C593.109 274.261 590.702 276.671 590.702 279.644C590.702 282.618 593.109 285.028 596.078 285.028Z" fill="url(#paint19_linear)"/>
<path d="M624.623 285.028C627.592 285.028 630 282.618 630 279.644C630 276.671 627.592 274.261 624.623 274.261C621.653 274.261 619.246 276.671 619.246 279.644C619.246 282.618 621.653 285.028 624.623 285.028Z" fill="url(#paint20_linear)"/>
<path d="M186.482 152.976C185.87 152.976 185.389 152.494 185.389 151.881V148.38C185.389 147.767 185.87 147.286 186.482 147.286C187.094 147.286 187.575 147.767 187.575 148.38V151.881C187.575 152.45 187.094 152.976 186.482 152.976Z" fill="#3E3872"/>
<path d="M186.482 165.494C185.87 165.494 185.389 165.012 185.389 164.399V158.14C185.389 157.528 185.87 157.046 186.482 157.046C187.094 157.046 187.575 157.528 187.575 158.14V164.399C187.575 165.012 187.094 165.494 186.482 165.494Z" fill="#3E3872"/>
<path d="M189.979 175.298H185.389V170.702C185.389 170.09 185.87 169.608 186.482 169.608C187.094 169.608 187.575 170.09 187.575 170.702V173.11H189.979C190.591 173.11 191.072 173.591 191.072 174.204C191.072 174.817 190.591 175.298 189.979 175.298Z" fill="#3E3872"/>
<path d="M219.005 175.298H211.749C211.137 175.298 210.656 174.817 210.656 174.204C210.656 173.591 211.137 173.11 211.749 173.11H219.005C219.617 173.11 220.098 173.591 220.098 174.204C220.098 174.817 219.617 175.298 219.005 175.298ZM204.492 175.298H197.236C196.624 175.298 196.143 174.817 196.143 174.204C196.143 173.591 196.624 173.11 197.236 173.11H204.492C205.104 173.11 205.585 173.591 205.585 174.204C205.585 174.817 205.104 175.298 204.492 175.298Z" fill="#3E3872"/>
<path d="M229.759 175.298H226.262C225.65 175.298 225.169 174.817 225.169 174.204C225.169 173.591 225.65 173.11 226.262 173.11H229.759C230.371 173.11 230.852 173.591 230.852 174.204C230.852 174.817 230.371 175.298 229.759 175.298Z" fill="#3E3872"/>
<path d="M478.314 207.775C477.702 207.775 477.221 207.294 477.221 206.681V203.179C477.221 202.566 477.702 202.085 478.314 202.085C478.926 202.085 479.406 202.566 479.406 203.179V206.681C479.406 207.294 478.926 207.775 478.314 207.775Z" fill="#853D69"/>
<path d="M478.314 220.906C477.702 220.906 477.221 220.424 477.221 219.812V213.246C477.221 212.633 477.702 212.152 478.314 212.152C478.926 212.152 479.406 212.633 479.406 213.246V219.812C479.406 220.424 478.926 220.906 478.314 220.906Z" fill="#853D69"/>
<path d="M479.406 230.973H474.816C474.204 230.973 473.724 230.491 473.724 229.879C473.724 229.266 474.204 228.784 474.816 228.784H477.221V226.377C477.221 225.764 477.702 225.283 478.314 225.283C478.926 225.283 479.406 225.764 479.406 226.377V230.973Z" fill="#853D69"/>
<path d="M467.866 230.973H460.916C460.304 230.973 459.823 230.491 459.823 229.879C459.823 229.266 460.304 228.784 460.916 228.784H467.866C468.478 228.784 468.959 229.266 468.959 229.879C468.959 230.491 468.478 230.973 467.866 230.973ZM453.965 230.973H447.015C446.403 230.973 445.922 230.491 445.922 229.879C445.922 229.266 446.403 228.784 447.015 228.784H453.965C454.577 228.784 455.058 229.266 455.058 229.879C455.058 230.491 454.534 230.973 453.965 230.973ZM440.021 230.973H433.07C432.458 230.973 431.978 230.491 431.978 229.879C431.978 229.266 432.458 228.784 433.07 228.784H440.021C440.633 228.784 441.114 229.266 441.114 229.879C441.114 230.491 440.633 230.973 440.021 230.973ZM426.12 230.973H419.169C418.557 230.973 418.077 230.491 418.077 229.879C418.077 229.266 418.557 228.784 419.169 228.784H426.12C426.732 228.784 427.213 229.266 427.213 229.879C427.213 230.491 426.732 230.973 426.12 230.973ZM412.219 230.973H405.269C404.657 230.973 404.176 230.491 404.176 229.879C404.176 229.266 404.657 228.784 405.269 228.784H412.219C412.831 228.784 413.312 229.266 413.312 229.879C413.312 230.491 412.831 230.973 412.219 230.973ZM398.318 230.973H391.368C390.756 230.973 390.275 230.491 390.275 229.879C390.275 229.266 390.756 228.784 391.368 228.784H398.318C398.93 228.784 399.411 229.266 399.411 229.879C399.411 230.491 398.886 230.973 398.318 230.973ZM384.373 230.973H377.423C376.811 230.973 376.33 230.491 376.33 229.879C376.33 229.266 376.811 228.784 377.423 228.784H384.373C384.985 228.784 385.466 229.266 385.466 229.879C385.466 230.491 384.985 230.973 384.373 230.973ZM370.473 230.973H363.522C362.91 230.973 362.429 230.491 362.429 229.879C362.429 229.266 362.91 228.784 363.522 228.784H370.473C371.085 228.784 371.565 229.266 371.565 229.879C371.565 230.491 371.085 230.973 370.473 230.973Z" fill="#853D69"/>
<path d="M356.571 230.973H353.074C352.462 230.973 351.981 230.491 351.981 229.879C351.981 229.266 352.462 228.784 353.074 228.784H356.571C357.183 228.784 357.664 229.266 357.664 229.879C357.664 230.491 357.183 230.973 356.571 230.973Z" fill="#853D69"/>
<path d="M438.666 342.103C438.054 342.103 437.573 341.622 437.573 341.009V337.508C437.573 336.895 438.054 336.413 438.666 336.413C439.278 336.413 439.759 336.895 439.759 337.508V341.009C439.759 341.622 439.278 342.103 438.666 342.103Z" fill="#53A128"/>
<path d="M438.666 352.914C438.054 352.914 437.573 352.433 437.573 351.82V346.393C437.573 345.78 438.054 345.299 438.666 345.299C439.278 345.299 439.759 345.78 439.759 346.393V351.82C439.759 352.433 439.278 352.914 438.666 352.914Z" fill="#53A128"/>
<path d="M439.758 361.843H435.169C434.557 361.843 434.076 361.362 434.076 360.749C434.076 360.136 434.557 359.655 435.169 359.655H437.573V357.248C437.573 356.635 438.054 356.153 438.666 356.153C439.278 356.153 439.758 356.635 439.758 357.248V361.843Z" fill="#53A128"/>
<path d="M428.393 361.843H421.617C421.005 361.843 420.524 361.362 420.524 360.749C420.524 360.136 421.005 359.655 421.617 359.655H428.393C429.005 359.655 429.485 360.136 429.485 360.749C429.485 361.362 429.005 361.843 428.393 361.843ZM414.885 361.843H408.11C407.498 361.843 407.017 361.362 407.017 360.749C407.017 360.136 407.498 359.655 408.11 359.655H414.885C415.497 359.655 415.978 360.136 415.978 360.749C415.978 361.362 415.497 361.843 414.885 361.843ZM401.334 361.843H394.558C393.946 361.843 393.465 361.362 393.465 360.749C393.465 360.136 393.946 359.655 394.558 359.655H401.334C401.946 359.655 402.427 360.136 402.427 360.749C402.427 361.362 401.946 361.843 401.334 361.843ZM387.783 361.843H381.007C380.395 361.843 379.914 361.362 379.914 360.749C379.914 360.136 380.395 359.655 381.007 359.655H387.783C388.395 359.655 388.876 360.136 388.876 360.749C388.876 361.362 388.395 361.843 387.783 361.843ZM374.275 361.843H367.5C366.888 361.843 366.407 361.362 366.407 360.749C366.407 360.136 366.888 359.655 367.5 359.655H374.275C374.887 359.655 375.368 360.136 375.368 360.749C375.368 361.362 374.887 361.843 374.275 361.843Z" fill="#53A128"/>
<path d="M360.724 361.843H357.227C356.615 361.843 356.134 361.362 356.134 360.749C356.134 360.136 356.615 359.655 357.227 359.655H360.724C361.336 359.655 361.817 360.136 361.817 360.749C361.817 361.362 361.336 361.843 360.724 361.843Z" fill="#53A128"/>
<path d="M108.497 241.915C107.885 241.915 107.404 241.434 107.404 240.821V237.319C107.404 236.707 107.885 236.225 108.497 236.225C109.109 236.225 109.59 236.707 109.59 237.319V240.821C109.59 241.434 109.109 241.915 108.497 241.915Z" fill="#F77E28"/>
<path d="M108.497 265.025C107.885 265.025 107.404 264.544 107.404 263.931V258.153C107.404 257.541 107.885 257.059 108.497 257.059C109.109 257.059 109.59 257.541 109.59 258.153V263.931C109.59 264.544 109.109 265.025 108.497 265.025ZM108.497 253.47C107.885 253.47 107.404 252.989 107.404 252.376V246.598C107.404 245.986 107.885 245.504 108.497 245.504C109.109 245.504 109.59 245.986 109.59 246.598V252.376C109.59 252.989 109.109 253.47 108.497 253.47Z" fill="#F77E28"/>
<path d="M111.994 274.305H107.404V269.709C107.404 269.096 107.885 268.615 108.497 268.615C109.109 268.615 109.59 269.096 109.59 269.709V272.116H111.994C112.606 272.116 113.087 272.598 113.087 273.21C113.087 273.823 112.606 274.305 111.994 274.305Z" fill="#F77E28"/>
<path d="M210.044 274.304H203.05C202.438 274.304 201.957 273.823 201.957 273.21C201.957 272.597 202.438 272.116 203.05 272.116H210.044C210.656 272.116 211.137 272.597 211.137 273.21C211.137 273.823 210.656 274.304 210.044 274.304ZM196.055 274.304H189.061C188.449 274.304 187.968 273.823 187.968 273.21C187.968 272.597 188.449 272.116 189.061 272.116H196.055C196.667 272.116 197.148 272.597 197.148 273.21C197.148 273.823 196.667 274.304 196.055 274.304ZM182.023 274.304H175.029C174.417 274.304 173.936 273.823 173.936 273.21C173.936 272.597 174.417 272.116 175.029 272.116H182.023C182.635 272.116 183.116 272.597 183.116 273.21C183.116 273.823 182.635 274.304 182.023 274.304ZM168.035 274.304H161.041C160.429 274.304 159.948 273.823 159.948 273.21C159.948 272.597 160.429 272.116 161.041 272.116H168.035C168.647 272.116 169.128 272.597 169.128 273.21C169.128 273.823 168.647 274.304 168.035 274.304ZM154.003 274.304H147.009C146.397 274.304 145.916 273.823 145.916 273.21C145.916 272.597 146.397 272.116 147.009 272.116H154.003C154.615 272.116 155.096 272.597 155.096 273.21C155.096 273.823 154.615 274.304 154.003 274.304ZM140.015 274.304H133.02C132.408 274.304 131.928 273.823 131.928 273.21C131.928 272.597 132.408 272.116 133.02 272.116H140.015C140.627 272.116 141.107 272.597 141.107 273.21C141.107 273.823 140.627 274.304 140.015 274.304ZM126.026 274.304H119.032C118.42 274.304 117.939 273.823 117.939 273.21C117.939 272.597 118.42 272.116 119.032 272.116H126.026C126.638 272.116 127.119 272.597 127.119 273.21C127.119 273.823 126.595 274.304 126.026 274.304Z" fill="#F77E28"/>
<path d="M220.579 274.304H217.082C216.47 274.304 215.989 273.823 215.989 273.21C215.989 272.597 216.47 272.116 217.082 272.116H220.579C221.191 272.116 221.672 272.597 221.672 273.21C221.672 273.823 221.147 274.304 220.579 274.304Z" fill="#F77E28"/>
<path d="M189.63 134.636C201.435 134.636 211.006 125.054 211.006 113.233C211.006 101.412 201.435 91.8296 189.63 91.8296C177.824 91.8296 168.254 101.412 168.254 113.233C168.254 125.054 177.824 134.636 189.63 134.636Z" fill="url(#paint21_linear)"/>
<g opacity="0.8">
<g opacity="0.8">
<path opacity="0.8" d="M189.63 138.313C175.816 138.313 164.582 127.064 164.582 113.233C164.582 99.4016 175.816 88.1528 189.63 88.1528C203.443 88.1528 214.678 99.4016 214.678 113.233C214.678 127.064 203.443 138.313 189.63 138.313ZM189.63 89.0282C176.297 89.0282 165.456 99.883 165.456 113.233C165.456 126.582 176.297 137.437 189.63 137.437C202.962 137.437 213.803 126.582 213.803 113.233C213.803 99.883 202.962 89.0282 189.63 89.0282Z" fill="#3D3871"/>
</g>
</g>
<g opacity="0.5">
<g opacity="0.5">
<path opacity="0.5" d="M189.629 141.026C174.33 141.026 161.871 128.552 161.871 113.233C161.871 97.9135 174.33 85.4392 189.629 85.4392C204.929 85.4392 217.388 97.9135 217.388 113.233C217.388 128.552 204.929 141.026 189.629 141.026ZM189.629 86.3146C174.811 86.3146 162.746 98.395 162.746 113.233C162.746 128.071 174.811 140.151 189.629 140.151C204.448 140.151 216.513 128.071 216.513 113.233C216.513 98.395 204.448 86.3146 189.629 86.3146Z" fill="#3D3871"/>
</g>
</g>
<g opacity="0.3">
<g opacity="0.3">
<path opacity="0.3" d="M189.629 143.653C172.887 143.653 159.249 129.997 159.249 113.233C159.249 96.4693 172.887 82.8132 189.629 82.8132C206.372 82.8132 220.01 96.4693 220.01 113.233C220.01 129.997 206.372 143.653 189.629 143.653ZM189.629 83.6886C173.368 83.6886 160.123 96.9508 160.123 113.233C160.123 129.515 173.368 142.777 189.629 142.777C205.891 142.777 219.136 129.515 219.136 113.233C219.136 96.9508 205.891 83.6886 189.629 83.6886Z" fill="#3D3871"/>
</g>
</g>
<path d="M189.629 133.148C178.657 133.148 169.74 124.219 169.74 113.233C169.74 102.247 178.657 93.3179 189.629 93.3179C200.602 93.3179 209.519 102.247 209.519 113.233C209.519 124.219 200.602 133.148 189.629 133.148ZM189.629 94.631C179.4 94.631 171.051 102.947 171.051 113.233C171.051 123.519 179.357 131.835 189.629 131.835C199.858 131.835 208.208 123.519 208.208 113.233C208.208 102.947 199.858 94.631 189.629 94.631Z" fill="white"/>
<path d="M201.126 111.001L197.454 114.677L195.094 112.314V121.33H184.253V112.314L181.892 114.677L178.22 111.001L184.078 105.135H186.613C186.613 107.937 189.717 108.506 189.717 108.506C189.717 108.506 192.821 107.981 192.821 105.135H195.356L201.126 111.001Z" fill="white"/>
<path d="M478.096 177.618C503.493 177.618 524.082 157.003 524.082 131.573C524.082 106.142 503.493 85.5271 478.096 85.5271C452.698 85.5271 432.109 106.142 432.109 131.573C432.109 157.003 452.698 177.618 478.096 177.618Z" fill="url(#paint22_linear)"/>
<g opacity="0.8">
<g opacity="0.8">
<path opacity="0.8" d="M478.095 185.102C448.633 185.102 424.634 161.073 424.634 131.572C424.634 102.072 448.633 78.0422 478.095 78.0422C507.558 78.0422 531.557 102.072 531.557 131.572C531.557 161.073 507.602 185.102 478.095 185.102ZM478.095 78.9614C449.113 78.9614 425.508 102.597 425.508 131.616C425.508 160.635 449.113 184.271 478.095 184.271C507.078 184.271 530.683 160.635 530.683 131.616C530.683 102.597 507.121 78.9614 478.095 78.9614Z" fill="#843C68"/>
</g>
</g>
<g opacity="0.5">
<g opacity="0.5">
<path opacity="0.5" d="M478.095 190.968C445.398 190.968 418.82 164.356 418.82 131.616C418.82 98.8767 445.398 72.2649 478.095 72.2649C510.793 72.2649 537.371 98.8767 537.371 131.616C537.371 164.356 510.793 190.968 478.095 190.968ZM478.095 73.0965C445.879 73.0965 419.694 99.3144 419.694 131.572C419.694 163.831 445.879 190.048 478.095 190.048C510.312 190.048 536.497 163.831 536.497 131.572C536.497 99.3144 510.312 73.0965 478.095 73.0965Z" fill="#843C68"/>
</g>
</g>
<g opacity="0.3">
<g opacity="0.3">
<path opacity="0.3" d="M478.095 196.57C442.294 196.57 413.181 167.42 413.181 131.572C413.181 95.7253 442.338 66.6187 478.095 66.6187C513.853 66.6187 543.01 95.7691 543.01 131.616C543.01 167.463 513.897 196.57 478.095 196.57ZM478.095 67.494C442.775 67.494 414.055 96.2506 414.055 131.616C414.055 166.982 442.775 195.738 478.095 195.738C513.416 195.738 542.136 166.982 542.136 131.616C542.136 96.2506 513.416 67.494 478.095 67.494Z" fill="#843C68"/>
</g>
</g>
<path d="M478.096 173.679C454.927 173.679 436.087 154.814 436.087 131.616C436.087 108.419 454.927 89.554 478.096 89.554C501.264 89.554 520.104 108.419 520.104 131.616C520.104 154.814 501.264 173.679 478.096 173.679ZM478.096 90.8233C455.627 90.8233 437.398 109.119 437.398 131.573C437.398 154.07 455.671 172.322 478.096 172.322C500.521 172.322 518.793 154.026 518.793 131.573C518.837 109.119 500.564 90.8233 478.096 90.8233Z" fill="white"/>
<path d="M459.736 145.578C459.736 148.861 462.402 151.531 465.681 151.531H489.723C493.002 151.531 495.668 148.861 495.668 145.578V128.771H459.78V145.578H459.736ZM467.036 136.693C467.036 135.38 468.085 134.286 469.44 134.286H485.92C487.232 134.286 488.325 135.38 488.325 136.693V139.057C488.325 140.37 487.275 141.464 485.92 141.464H469.44C468.129 141.464 467.036 140.37 467.036 139.057V136.693Z" fill="white"/>
<path d="M461.31 126.145C463.495 126.145 465.244 124.963 465.244 123.519L467.736 114.283C467.736 112.839 466.337 111.657 464.632 111.657H463.845C462.14 111.657 460.741 112.839 460.741 114.283L456.283 123.519C456.283 124.963 458.075 126.145 460.217 126.145H461.31Z" fill="white"/>
<path d="M471.844 126.145H472.85C475.035 126.145 476.784 124.963 476.784 123.519V114.283C476.784 112.839 475.385 111.657 473.68 111.657H472.893C471.188 111.657 469.79 112.839 469.79 114.283L467.866 123.519C467.91 124.963 469.702 126.145 471.844 126.145Z" fill="white"/>
<path d="M483.385 126.145H484.39C486.576 126.145 488.325 124.963 488.325 123.519L485.833 114.283C485.833 112.839 484.434 111.657 482.729 111.657H481.943C480.238 111.657 478.839 112.839 478.839 114.283L479.407 123.519C479.407 124.963 481.199 126.145 483.385 126.145Z" fill="white"/>
<path d="M494.794 114.283C494.794 112.839 493.395 111.657 491.69 111.657H490.903C489.199 111.657 487.8 112.839 487.8 114.283L490.86 123.519C490.86 124.963 492.652 126.145 494.794 126.145H495.799C497.985 126.145 499.734 124.963 499.734 123.519L494.794 114.283Z" fill="white"/>
<path d="M438.797 320.963C454.369 320.963 466.992 308.323 466.992 292.731C466.992 277.14 454.369 264.5 438.797 264.5C423.225 264.5 410.602 277.14 410.602 292.731C410.602 308.323 423.225 320.963 438.797 320.963Z" fill="url(#paint23_linear)"/>
<g opacity="0.8">
<g opacity="0.8">
<path opacity="0.8" d="M438.797 325.69C420.612 325.69 405.837 310.896 405.837 292.688C405.837 274.48 420.612 259.686 438.797 259.686C456.982 259.686 471.757 274.48 471.757 292.688C471.757 310.896 456.938 325.69 438.797 325.69ZM438.797 260.605C421.093 260.605 406.711 275.005 406.711 292.732C406.711 310.458 421.093 324.858 438.797 324.858C456.501 324.858 470.883 310.458 470.883 292.732C470.883 275.005 456.457 260.605 438.797 260.605Z" fill="#53A128"/>
</g>
</g>
<g opacity="0.5">
<g opacity="0.5">
<path opacity="0.5" d="M438.797 329.279C418.645 329.279 402.296 312.865 402.296 292.732C402.296 272.598 418.689 256.184 438.797 256.184C458.949 256.184 475.298 272.598 475.298 292.732C475.298 312.865 458.905 329.279 438.797 329.279ZM438.797 257.016C419.126 257.016 403.17 273.035 403.17 292.688C403.17 312.34 419.169 328.36 438.797 328.36C458.424 328.36 474.423 312.34 474.423 292.688C474.423 273.035 458.424 257.016 438.797 257.016Z" fill="#53A128"/>
</g>
</g>
<g opacity="0.3">
<g opacity="0.3">
<path opacity="0.3" d="M438.797 332.737C416.765 332.737 398.843 314.791 398.843 292.731C398.843 270.672 416.765 252.726 438.797 252.726C460.829 252.726 478.751 270.672 478.751 292.731C478.751 314.791 460.829 332.737 438.797 332.737ZM438.797 253.558C417.246 253.558 399.717 271.109 399.717 292.688C399.717 314.266 417.246 331.818 438.797 331.818C460.348 331.818 477.877 314.266 477.877 292.688C477.877 271.109 460.348 253.558 438.797 253.558Z" fill="#53A128"/>
</g>
</g>
<path d="M438.797 318.774C424.459 318.774 412.787 307.088 412.787 292.732C412.787 278.375 424.459 266.689 438.797 266.689C453.135 266.689 464.806 278.375 464.806 292.732C464.806 307.088 453.135 318.774 438.797 318.774ZM438.797 267.958C425.158 267.958 414.099 279.075 414.099 292.688C414.099 306.344 425.202 317.418 438.797 317.418C452.392 317.418 463.495 306.3 463.495 292.688C463.495 279.075 452.392 267.958 438.797 267.958Z" fill="white"/>
<path d="M447.715 297.896H429.836C428.044 297.896 426.601 296.408 426.601 294.657V286.341C426.601 284.547 428.087 283.102 429.836 283.102H447.715C449.507 283.102 450.95 284.59 450.95 286.341V294.657C450.993 296.408 449.507 297.896 447.715 297.896Z" fill="white"/>
<path d="M442.775 297.853H434.819C434.47 297.853 434.164 298.159 434.164 298.509V298.728C434.164 299.078 434.47 299.384 434.819 299.384H442.775C443.125 299.384 443.431 299.078 443.431 298.728V298.509C443.431 298.159 443.125 297.853 442.775 297.853Z" fill="white"/>
<path d="M444.742 301.048H432.852C432.284 301.048 431.803 301.529 431.803 302.098V302.842C431.803 303.411 432.284 303.893 432.852 303.893H444.742C445.31 303.893 445.791 303.411 445.791 302.842V302.098C445.791 301.529 445.31 301.048 444.742 301.048Z" fill="white"/>
<path d="M107.623 215.128C127.613 215.128 143.818 198.903 143.818 178.887C143.818 158.872 127.613 142.646 107.623 142.646C87.633 142.646 71.428 158.872 71.428 178.887C71.428 198.903 87.633 215.128 107.623 215.128Z" fill="url(#paint24_linear)"/>
<g opacity="0.8">
<g opacity="0.8">
<path opacity="0.8" d="M107.623 221.081C84.3672 221.081 65.4829 202.173 65.4829 178.887C65.4829 155.602 84.3672 136.694 107.623 136.694C130.878 136.694 149.763 155.602 149.763 178.887C149.763 202.173 130.878 221.081 107.623 221.081ZM107.623 137.569C84.848 137.569 66.3572 156.083 66.3572 178.887C66.3572 201.691 84.848 220.206 107.623 220.206C130.398 220.206 148.888 201.691 148.888 178.887C148.888 156.127 130.398 137.569 107.623 137.569Z" fill="#F77E28"/>
</g>
</g>
<g opacity="0.5">
<g opacity="0.5">
<path opacity="0.5" d="M107.623 225.677C81.8756 225.677 60.8931 204.711 60.8931 178.887C60.8931 153.063 81.8319 132.098 107.623 132.098C133.414 132.098 154.353 153.063 154.353 178.887C154.353 204.711 133.37 225.677 107.623 225.677ZM107.623 133.017C82.3564 133.017 61.7673 153.588 61.7673 178.931C61.7673 204.23 82.3127 224.845 107.623 224.845C132.933 224.845 153.478 204.273 153.478 178.931C153.478 153.588 132.889 133.017 107.623 133.017Z" fill="#F77E28"/>
</g>
</g>
<g opacity="0.3">
<g opacity="0.3">
<path opacity="0.3" d="M107.623 230.097C79.4277 230.097 56.478 207.119 56.478 178.887C56.478 150.656 79.4277 127.677 107.623 127.677C135.818 127.677 158.768 150.656 158.768 178.887C158.768 207.119 135.818 230.097 107.623 230.097ZM107.623 128.552C79.9085 128.552 57.3523 151.137 57.3523 178.887C57.3523 206.637 79.9085 229.222 107.623 229.222C135.337 229.222 157.894 206.637 157.894 178.887C157.894 151.137 135.337 128.552 107.623 128.552Z" fill="#F77E28"/>
</g>
</g>
<path d="M107.623 212.152C89.3067 212.152 74.4441 197.227 74.4441 178.931C74.4441 160.635 89.3504 145.71 107.623 145.71C125.895 145.71 140.801 160.635 140.801 178.931C140.801 197.227 125.939 212.152 107.623 212.152ZM107.623 146.979C90.0498 146.979 75.7555 161.292 75.7555 178.887C75.7555 196.482 90.0498 210.795 107.623 210.795C125.196 210.795 139.49 196.482 139.49 178.887C139.49 161.292 125.196 146.979 107.623 146.979Z" fill="white"/>
<path d="M120.037 162.868H95.2518L93.1973 189.698H122.092L120.037 162.868ZM107.754 178.012C101.372 178.012 99.6669 170.133 99.6669 165.975C99.6669 165.494 100.06 165.1 100.541 165.1C100.76 165.1 101.022 165.187 101.153 165.363C101.328 165.538 101.415 165.756 101.415 165.975C101.415 166.063 101.503 176.261 107.754 176.261C113.743 176.261 113.874 166.063 113.874 165.975C113.874 165.494 114.267 165.1 114.748 165.1C115.229 165.1 115.622 165.494 115.622 165.975C115.622 166.501 115.491 178.012 107.754 178.012Z" fill="white"/>
<path d="M375.413 108.068V260.298H288.466V242.878H331.699V90.6478C331.699 90.6478 335.196 72.7461 353.075 72.7461C375.413 72.7461 375.413 108.068 375.413 108.068Z" fill="url(#paint25_linear)"/>
<path d="M353.075 72.7463C335.196 72.7463 331.699 90.648 331.699 90.648V242.878H244.752V90.648C244.752 90.648 246.064 72.7463 265.516 72.7463H353.075Z" fill="url(#paint26_linear)"/>
<path d="M358.976 388.017C358.976 391.869 355.872 395.765 352.026 395.765H239.551C235.704 395.765 232.6 391.869 232.6 388.017V171.578C232.6 167.726 235.704 164.093 239.551 164.093H351.982C355.829 164.093 358.932 167.726 358.932 171.578V388.017H358.976Z" fill="#3C174A"/>
<path d="M333.666 396.027H232.512C225.955 396.027 220.579 390.644 220.579 384.078V176.042C220.579 169.477 225.955 164.093 232.512 164.093H334.977C341.578 164.093 346.911 169.433 346.911 176.042V382.721C346.955 390.075 341.009 396.027 333.666 396.027Z" fill="#612578"/>
<path d="M329.469 387.711H238.02C231.419 387.711 226.086 382.371 226.086 375.762V190.136C226.086 183.527 231.419 178.187 238.02 178.187H329.513C336.114 178.187 341.447 183.527 341.447 190.136V375.762C341.447 382.371 336.07 387.711 329.469 387.711Z" fill="#F0F9FF"/>
<path d="M280.16 293.738C301.454 293.738 318.716 276.454 318.716 255.133C318.716 233.813 301.454 216.529 280.16 216.529C258.867 216.529 241.605 233.813 241.605 255.133C241.605 276.454 258.867 293.738 280.16 293.738Z" fill="#E2CCEB"/>
<path d="M280.161 288.398C298.509 288.398 313.383 273.505 313.383 255.133C313.383 236.762 298.509 221.869 280.161 221.869C261.813 221.869 246.938 236.762 246.938 255.133C246.938 273.505 261.813 288.398 280.161 288.398Z" fill="#CA9BDB"/>
<path d="M275.265 271.678C272.642 271.678 270.543 269.534 270.543 266.951C270.543 264.369 272.685 262.224 275.265 262.224C277.844 262.224 279.986 264.369 279.986 266.951C279.986 269.534 277.887 271.678 275.265 271.678ZM275.265 265.288C274.347 265.288 273.603 266.032 273.603 266.951C273.603 267.87 274.347 268.614 275.265 268.614C276.182 268.614 276.926 267.87 276.926 266.951C276.926 266.032 276.226 265.288 275.265 265.288Z" fill="white"/>
<path d="M287.242 271.678C284.619 271.678 282.521 269.534 282.521 266.951C282.521 264.369 284.663 262.224 287.242 262.224C289.865 262.224 291.963 264.369 291.963 266.951C291.963 269.534 289.821 271.678 287.242 271.678ZM287.242 265.288C286.324 265.288 285.581 266.032 285.581 266.951C285.581 267.87 286.324 268.614 287.242 268.614C288.16 268.614 288.903 267.87 288.903 266.951C288.903 266.032 288.16 265.288 287.242 265.288Z" fill="white"/>
<path d="M289.034 262.093H270.806V244.235L264.423 241.477C263.637 241.127 263.287 240.252 263.637 239.464C263.986 238.676 264.861 238.326 265.647 238.676L273.866 242.221V259.029H289.034C291.657 259.029 293.799 256.884 293.799 254.258V250.275H280.423C279.592 250.275 278.893 249.575 278.893 248.743C278.893 247.911 279.592 247.211 280.423 247.211H296.859V254.258C296.859 258.591 293.362 262.093 289.034 262.093Z" fill="white"/>
<path d="M280.16 300.522C286.365 300.522 291.395 295.486 291.395 289.274C291.395 283.061 286.365 278.025 280.16 278.025C273.956 278.025 268.926 283.061 268.926 289.274C268.926 295.486 273.956 300.522 280.16 300.522Z" fill="#33DE84"/>
<path d="M277.188 294.613L274.172 289.098C273.778 288.354 274.041 287.435 274.784 287.041C275.527 286.647 276.445 286.91 276.838 287.654L278.106 290.018L284.182 285.378C284.838 284.853 285.8 284.984 286.324 285.684C286.849 286.341 286.718 287.304 286.018 287.829L277.188 294.613Z" fill="white"/>
<path d="M249.342 298.686V365.39C249.342 369.592 245.933 373.006 241.736 373.006H127.906C123.709 373.006 120.3 369.592 120.3 365.39V298.686C120.3 294.484 123.709 291.07 127.906 291.07H241.736C245.933 291.026 249.342 294.44 249.342 298.686Z" fill="#181BA2"/>
<path d="M249.342 298.684V365.389C249.342 369.591 245.933 373.005 241.736 373.005H179.401L205.017 291.024H241.736C245.933 291.024 249.342 294.438 249.342 298.684Z" fill="#2326AD"/>
<path d="M145.654 332.036H140.19C135.774 332.036 132.234 328.447 132.234 324.07V320.919C132.234 316.498 135.818 312.953 140.19 312.953H145.654C150.069 312.953 153.61 316.542 153.61 320.919V324.027C153.653 328.447 150.069 332.036 145.654 332.036Z" fill="#2226E6"/>
<path d="M241.299 350.157H218.306V361.668H241.299V350.157Z" fill="#2226E6"/>
<path d="M152.517 345.561H135.381C133.632 345.561 132.234 344.161 132.234 342.41V341.184C132.234 339.433 133.632 338.033 135.381 338.033H152.517C154.265 338.033 155.664 339.433 155.664 341.184V342.41C155.664 344.161 154.222 345.561 152.517 345.561Z" fill="#2226E6"/>
<path d="M181.105 345.561H163.97C162.221 345.561 160.822 344.161 160.822 342.41V341.184C160.822 339.433 162.221 338.033 163.97 338.033H181.105C182.854 338.033 184.253 339.433 184.253 341.184V342.41C184.253 344.161 182.854 345.561 181.105 345.561Z" fill="#2226E6"/>
<path d="M209.738 345.561H192.602C190.853 345.561 189.455 344.161 189.455 342.41V341.184C189.455 339.433 190.853 338.033 192.602 338.033H209.738C211.486 338.033 212.885 339.433 212.885 341.184V342.41C212.885 344.161 211.486 345.561 209.738 345.561Z" fill="#2226E6"/>
<path d="M238.327 345.561H221.191C219.442 345.561 218.043 344.161 218.043 342.41V341.184C218.043 339.433 219.442 338.033 221.191 338.033H238.327C240.075 338.033 241.474 339.433 241.474 341.184V342.41C241.474 344.161 240.075 345.561 238.327 345.561Z" fill="#2226E6"/>
<path d="M313.514 134.461H253.189V137.963H313.514V134.461Z" fill="#E8CEF2"/>
<path d="M313.514 124.394H253.189V127.896H313.514V124.394Z" fill="#E8CEF2"/>
<path d="M313.514 114.327H253.189V117.829H313.514V114.327Z" fill="#E8CEF2"/>
<defs>
<linearGradient id="paint0_linear" x1="299.747" y1="20.7795" x2="299.747" y2="538.783" gradientUnits="userSpaceOnUse">
<stop offset="0.1009" stop-color="#FFFEF8" stop-opacity="0"/>
<stop offset="0.2883" stop-color="#FBF8F6" stop-opacity="0.2085"/>
<stop offset="0.5334" stop-color="#EEE8F0" stop-opacity="0.481"/>
<stop offset="0.809" stop-color="#D9CDE6" stop-opacity="0.7876"/>
<stop offset="1" stop-color="#C7B6DD"/>
</linearGradient>
<linearGradient id="paint1_linear" x1="484.513" y1="221.241" x2="620.969" y2="221.241" gradientUnits="userSpaceOnUse">
<stop stop-color="#FFFEF8"/>
<stop offset="1" stop-color="#C7C8DD"/>
</linearGradient>
<linearGradient id="paint2_linear" x1="484.513" y1="221.241" x2="620.969" y2="221.241" gradientUnits="userSpaceOnUse">
<stop stop-color="#FFFEF8"/>
<stop offset="1" stop-color="#C7C8DD"/>
</linearGradient>
<linearGradient id="paint3_linear" x1="484.513" y1="221.241" x2="620.968" y2="221.241" gradientUnits="userSpaceOnUse">
<stop stop-color="#FFFEF8"/>
<stop offset="1" stop-color="#C7C8DD"/>
</linearGradient>
<linearGradient id="paint4_linear" x1="484.513" y1="221.241" x2="620.969" y2="221.241" gradientUnits="userSpaceOnUse">
<stop stop-color="#FFFEF8"/>
<stop offset="1" stop-color="#C7C8DD"/>
</linearGradient>
<linearGradient id="paint5_linear" x1="484.512" y1="221.241" x2="620.968" y2="221.241" gradientUnits="userSpaceOnUse">
<stop stop-color="#FFFEF8"/>
<stop offset="1" stop-color="#C7C8DD"/>
</linearGradient>
<linearGradient id="paint6_linear" x1="484.512" y1="240.714" x2="620.969" y2="240.714" gradientUnits="userSpaceOnUse">
<stop stop-color="#FFFEF8"/>
<stop offset="1" stop-color="#C7C8DD"/>
</linearGradient>
<linearGradient id="paint7_linear" x1="484.513" y1="240.714" x2="620.969" y2="240.714" gradientUnits="userSpaceOnUse">
<stop stop-color="#FFFEF8"/>
<stop offset="1" stop-color="#C7C8DD"/>
</linearGradient>
<linearGradient id="paint8_linear" x1="484.513" y1="240.714" x2="620.968" y2="240.714" gradientUnits="userSpaceOnUse">
<stop stop-color="#FFFEF8"/>
<stop offset="1" stop-color="#C7C8DD"/>
</linearGradient>
<linearGradient id="paint9_linear" x1="484.513" y1="240.714" x2="620.969" y2="240.714" gradientUnits="userSpaceOnUse">
<stop stop-color="#FFFEF8"/>
<stop offset="1" stop-color="#C7C8DD"/>
</linearGradient>
<linearGradient id="paint10_linear" x1="484.512" y1="240.714" x2="620.968" y2="240.714" gradientUnits="userSpaceOnUse">
<stop stop-color="#FFFEF8"/>
<stop offset="1" stop-color="#C7C8DD"/>
</linearGradient>
<linearGradient id="paint11_linear" x1="484.512" y1="260.186" x2="620.969" y2="260.186" gradientUnits="userSpaceOnUse">
<stop stop-color="#FFFEF8"/>
<stop offset="1" stop-color="#C7C8DD"/>
</linearGradient>
<linearGradient id="paint12_linear" x1="484.513" y1="260.186" x2="620.969" y2="260.186" gradientUnits="userSpaceOnUse">
<stop stop-color="#FFFEF8"/>
<stop offset="1" stop-color="#C7C8DD"/>
</linearGradient>
<linearGradient id="paint13_linear" x1="484.513" y1="260.186" x2="620.968" y2="260.186" gradientUnits="userSpaceOnUse">
<stop stop-color="#FFFEF8"/>
<stop offset="1" stop-color="#C7C8DD"/>
</linearGradient>
<linearGradient id="paint14_linear" x1="484.513" y1="260.186" x2="620.969" y2="260.186" gradientUnits="userSpaceOnUse">
<stop stop-color="#FFFEF8"/>
<stop offset="1" stop-color="#C7C8DD"/>
</linearGradient>
<linearGradient id="paint15_linear" x1="484.512" y1="260.186" x2="620.968" y2="260.186" gradientUnits="userSpaceOnUse">
<stop stop-color="#FFFEF8"/>
<stop offset="1" stop-color="#C7C8DD"/>
</linearGradient>
<linearGradient id="paint16_linear" x1="484.512" y1="279.659" x2="620.969" y2="279.659" gradientUnits="userSpaceOnUse">
<stop stop-color="#FFFEF8"/>
<stop offset="1" stop-color="#C7C8DD"/>
</linearGradient>
<linearGradient id="paint17_linear" x1="484.513" y1="279.659" x2="620.969" y2="279.659" gradientUnits="userSpaceOnUse">
<stop stop-color="#FFFEF8"/>
<stop offset="1" stop-color="#C7C8DD"/>
</linearGradient>
<linearGradient id="paint18_linear" x1="484.513" y1="279.659" x2="620.968" y2="279.659" gradientUnits="userSpaceOnUse">
<stop stop-color="#FFFEF8"/>
<stop offset="1" stop-color="#C7C8DD"/>
</linearGradient>
<linearGradient id="paint19_linear" x1="484.513" y1="279.659" x2="620.969" y2="279.659" gradientUnits="userSpaceOnUse">
<stop stop-color="#FFFEF8"/>
<stop offset="1" stop-color="#C7C8DD"/>
</linearGradient>
<linearGradient id="paint20_linear" x1="484.512" y1="279.659" x2="620.968" y2="279.659" gradientUnits="userSpaceOnUse">
<stop stop-color="#FFFEF8"/>
<stop offset="1" stop-color="#C7C8DD"/>
</linearGradient>
<linearGradient id="paint21_linear" x1="168.275" y1="113.233" x2="210.998" y2="113.233" gradientUnits="userSpaceOnUse">
<stop stop-color="#7770BD"/>
<stop offset="1" stop-color="#342F65"/>
</linearGradient>
<linearGradient id="paint22_linear" x1="432.12" y1="131.593" x2="524.099" y2="131.593" gradientUnits="userSpaceOnUse">
<stop stop-color="#BD5E8F"/>
<stop offset="1" stop-color="#7D3863"/>
</linearGradient>
<linearGradient id="paint23_linear" x1="410.583" y1="292.717" x2="466.987" y2="292.717" gradientUnits="userSpaceOnUse">
<stop stop-color="#ACE64D"/>
<stop offset="1" stop-color="#449522"/>
</linearGradient>
<linearGradient id="paint24_linear" x1="71.4506" y1="178.908" x2="143.8" y2="178.908" gradientUnits="userSpaceOnUse">
<stop stop-color="#FAD25D"/>
<stop offset="1" stop-color="#F77120"/>
</linearGradient>
<linearGradient id="paint25_linear" x1="331.956" y1="237.879" x2="331.956" y2="-14.2333" gradientUnits="userSpaceOnUse">
<stop offset="0.0509582" stop-color="white"/>
<stop offset="0.182" stop-color="#FCFBFC"/>
<stop offset="0.3229" stop-color="#F4EEF2"/>
<stop offset="0.4683" stop-color="#E6D8E2"/>
<stop offset="0.617" stop-color="#D3BACC"/>
<stop offset="0.7665" stop-color="#BA94B0"/>
<stop offset="0.8725" stop-color="#A67498"/>
</linearGradient>
<linearGradient id="paint26_linear" x1="298.915" y1="80.2085" x2="298.915" y2="227.674" gradientUnits="userSpaceOnUse">
<stop offset="0.0562492" stop-color="#EAD8ED"/>
<stop offset="0.1731" stop-color="#E8D4EA"/>
<stop offset="0.2807" stop-color="#E0C9E0"/>
<stop offset="0.3847" stop-color="#D3B6D1"/>
<stop offset="0.4865" stop-color="#C19CBA"/>
<stop offset="0.5859" stop-color="#AB7B9E"/>
<stop offset="0.6033" stop-color="#A67498"/>
</linearGradient>
</defs>
</svg>
