<svg width="50" height="50" viewBox="0 0 50 50" fill="none" xmlns="http://www.w3.org/2000/svg">
<path d="M42.031 49.9004H7.82394C3.50258 49.9004 0 46.3978 0 42.0764V7.82395C0 3.50258 3.50258 0 7.82394 0H42.031C46.3523 0 49.8549 3.50258 49.8549 7.82395V42.031C49.8549 46.3523 46.3523 49.9004 42.031 49.9004Z" fill="#171B2F"/>
<path d="M33.433 43.8048C33.0691 43.8048 32.7507 43.4864 32.7507 43.1225V41.0301L41.075 35.708L43.4859 23.0168C43.4404 22.8348 43.3039 22.6529 43.122 22.6529C42.8945 22.6529 42.7581 22.8348 42.7126 23.0168V23.1078L39.6649 31.1137L35.6619 35.1166C35.1615 35.617 34.2973 35.617 33.7969 35.1166L33.7514 35.0711C33.524 34.8437 33.3875 34.4798 33.3875 34.1159C33.3875 33.752 33.524 33.4336 33.7969 33.1606L35.9803 30.9772C36.2078 30.7498 36.2533 30.4313 36.1168 30.1584C36.0258 29.931 35.8439 29.7945 35.5709 29.749C35.3435 29.7035 35.1161 29.7945 34.9341 29.931L28.1564 36.6632V43.077C28.1564 43.4409 27.838 43.7593 27.4741 43.7593C27.1102 43.7593 26.7917 43.4409 26.7917 43.077V36.1628L33.9334 29.0212C34.4337 28.5663 35.1161 28.3389 35.7529 28.4299C36.4352 28.5663 36.9811 28.9757 37.254 29.6126C37.5724 30.2949 37.4814 31.1137 37.072 31.705L38.4822 30.2949L41.3479 22.7439C41.4389 21.8796 42.2122 21.1973 43.0765 21.1973C44.0317 21.1973 44.8505 21.9706 44.8505 22.9713V23.1078L42.3032 36.5267L34.1153 41.7579V43.1225C34.1153 43.5319 33.7969 43.8048 33.433 43.8048Z" fill="white"/>
<path d="M22.4253 43.8057C22.0614 43.8057 21.7429 43.4873 21.7429 43.1234V36.755L15.0107 30.0228C14.8288 29.8409 14.6013 29.7954 14.3739 29.8409C14.1464 29.8863 13.9645 30.0228 13.828 30.2503C13.6916 30.5232 13.737 30.8416 13.9645 31.069L16.1479 33.2525C16.4208 33.4799 16.5573 33.8438 16.5573 34.2077C16.5573 34.5716 16.4208 34.89 16.1479 35.163L16.1024 35.2084C15.602 35.7088 14.7378 35.7088 14.2374 35.2084L10.2345 31.2055L7.18676 23.1996V23.1086C7.18676 22.9267 7.00481 22.7447 6.77737 22.7447C6.59542 22.7447 6.41347 22.8812 6.41347 23.1086L8.82433 35.7998L17.1486 41.1219V43.2143C17.1486 43.5782 16.8302 43.8967 16.4663 43.8967C16.1024 43.8967 15.784 43.5782 15.784 43.2143V41.8497L7.59615 36.6186L5.04883 23.1086C5.04883 22.1534 5.82212 21.3346 6.82286 21.3346C7.68713 21.3346 8.46043 22.0169 8.55141 22.8812L11.4172 30.4322L12.8273 31.8423C12.3724 31.251 12.2814 30.4322 12.6453 29.7499C12.9183 29.1585 13.5096 28.7037 14.1464 28.5672C14.8288 28.4307 15.5111 28.6582 15.966 29.1585L23.1076 36.3002V43.2598C23.1076 43.5328 22.8347 43.8057 22.4253 43.8057Z" fill="white"/>
<path d="M29.0212 18.0133H20.8334C20.6969 18.0133 20.606 18.1043 20.606 18.2407C20.6514 19.196 20.6969 20.1058 20.7879 20.97C20.7879 21.1065 20.9244 21.1975 21.0608 21.152C22.289 20.8336 23.6082 20.6516 24.9273 20.6516C26.2465 20.6516 27.5201 20.8336 28.7938 21.152C28.9303 21.1975 29.0212 21.1065 29.0667 20.97C29.1577 20.1058 29.2487 19.196 29.2487 18.2407C29.2487 18.1043 29.1577 18.0133 29.0212 18.0133Z" fill="#FBC42D"/>
<path d="M29.0667 13.7374C29.0667 13.6009 28.9303 13.5099 28.7938 13.5554C27.5656 13.8738 26.2465 14.0558 24.9273 14.0558C23.6082 14.0558 22.3345 13.8738 21.0608 13.5554C20.9244 13.5099 20.8334 13.6009 20.7879 13.7374C20.6969 14.6016 20.606 15.5114 20.606 16.4666C20.606 16.6031 20.6969 16.6941 20.8334 16.6941H29.0212C29.1577 16.6941 29.2487 16.6031 29.2487 16.4666C29.2032 15.5114 29.1577 14.6016 29.0667 13.7374Z" fill="#FBC42D"/>
<path d="M28.7938 11.9633C28.4299 9.91634 27.8385 8.23328 27.2017 7.05059C27.1562 7.00511 27.1107 6.95962 27.0652 6.95962C26.3829 6.82315 25.6551 6.73218 24.9273 6.73218C24.1995 6.73218 23.5171 6.82315 22.7893 6.95962C22.7439 6.95962 22.6984 7.00511 22.6529 7.05059C22.016 8.23328 21.4247 9.91634 21.0608 11.9633C21.0608 12.0543 21.1063 12.1907 21.1973 12.1907C22.3799 12.5092 23.6081 12.6911 24.8818 12.6911C26.1554 12.6911 27.3836 12.5092 28.5663 12.1907C28.7483 12.1907 28.7938 12.0998 28.7938 11.9633Z" fill="#FBC42D"/>
<path d="M29.3394 7.68728C29.1574 7.59631 28.9755 7.77826 29.0664 7.96021C29.4758 9.00644 29.7942 10.1891 30.0217 11.4628C30.0672 11.5993 30.2036 11.6447 30.2946 11.5993C31.1134 11.2808 31.8867 10.8714 32.6145 10.3711C32.7055 10.2801 32.751 10.1436 32.66 10.0527C32.569 9.96169 32.478 9.87071 32.3871 9.77973C31.5228 8.96095 30.4766 8.23314 29.3394 7.68728Z" fill="#FBC42D"/>
<path d="M30.7496 16.694H35.2985C35.4349 16.694 35.5259 16.6031 35.5259 16.4666C35.3894 14.6926 34.7981 13.0095 33.8428 11.5084C33.7973 11.4174 33.6609 11.3719 33.5699 11.4629C32.7966 11.9633 31.9323 12.4182 31.0681 12.8276C30.8861 12.9185 30.7042 12.964 30.5222 13.055C30.4312 13.1005 30.3857 13.1915 30.3857 13.2824C30.5222 14.3287 30.6132 15.4204 30.6132 16.5121C30.5677 16.6031 30.6587 16.694 30.7496 16.694Z" fill="#FBC42D"/>
<path d="M21.1058 22.6984C21.4697 24.7454 22.0611 26.4284 22.6979 27.6111C22.7434 27.6566 22.7889 27.7021 22.8344 27.7021C23.5167 27.8385 24.2445 27.9295 24.9723 27.9295C25.7001 27.9295 26.3824 27.8385 27.1103 27.7021C27.1557 27.7021 27.2012 27.6566 27.2467 27.6111C27.8835 26.4284 28.4749 24.7454 28.8388 22.6984C28.8388 22.6074 28.7933 22.471 28.7023 22.471C27.5197 22.1525 26.2915 21.9706 25.0178 21.9706C23.7441 21.9706 22.516 22.1525 21.3333 22.471C21.1513 22.5164 21.0603 22.6074 21.1058 22.6984Z" fill="#FBC42D"/>
<path d="M18.8772 21.8798C19.0591 21.7888 19.2411 21.7433 19.423 21.6523C19.514 21.6069 19.5595 21.5159 19.5595 21.4249C19.423 20.3787 19.3321 19.287 19.3321 18.1953C19.3321 18.1043 19.2411 18.0133 19.1046 18.0133H14.5558C14.4193 18.0133 14.3284 18.1043 14.3284 18.2407C14.4648 20.0148 15.0562 21.6978 16.0114 23.1989C16.0569 23.2899 16.1934 23.3354 16.2844 23.2444C17.1486 22.6986 18.0129 22.2437 18.8772 21.8798Z" fill="#FBC42D"/>
<path d="M32.6602 24.245C31.9323 23.7902 31.159 23.3808 30.3403 23.0169C30.2038 22.9714 30.0673 23.0623 30.0673 23.1533C29.8399 24.427 29.476 25.6097 29.1121 26.6559C29.0666 26.8379 29.2031 27.0198 29.385 26.9288C30.5222 26.4285 31.5684 25.7007 32.4782 24.7909C32.5692 24.6999 32.6602 24.6089 32.7511 24.518C32.7966 24.4725 32.7511 24.336 32.6602 24.245Z" fill="#FBC42D"/>
<path d="M30.5675 18.1953C30.522 19.287 30.4766 20.3787 30.3401 21.4249C30.3401 21.5159 30.3856 21.6069 30.4766 21.6523C30.6585 21.7433 30.8405 21.7888 31.0224 21.8798C31.8867 22.2437 32.751 22.6986 33.5243 23.2444C33.6152 23.2899 33.7517 23.2899 33.7972 23.1989C34.7524 21.7433 35.3438 20.0603 35.4802 18.2407C35.4802 18.1043 35.3893 18.0133 35.2528 18.0133H30.704C30.6585 18.0133 30.5675 18.1043 30.5675 18.1953Z" fill="#FBC42D"/>
<path d="M17.2393 10.4167C17.9671 10.8716 18.7404 11.281 19.5592 11.6449C19.6956 11.6904 19.8321 11.5994 19.8321 11.5084C20.0595 10.2348 20.4234 9.05209 20.7873 8.00587C20.8328 7.82391 20.6964 7.64196 20.5144 7.73294C19.3772 8.23331 18.331 8.96112 17.4212 9.87088C17.3303 9.96185 17.2393 10.0528 17.1483 10.1438C17.1028 10.1893 17.1028 10.3712 17.2393 10.4167Z" fill="#FBC42D"/>
<path d="M19.3321 16.6943C19.3321 15.5116 19.4231 14.3744 19.5596 13.2372C19.5596 13.1462 19.5141 13.0553 19.4231 13.0098C19.2412 12.9188 19.0592 12.8733 18.8773 12.7823C18.013 12.4184 17.1487 11.9636 16.3754 11.4177C16.2844 11.3722 16.148 11.3722 16.1025 11.4632C15.1472 12.9188 14.5559 14.6019 14.4194 16.4214C14.4194 16.5578 14.5104 16.6488 14.6469 16.6488H19.3321V16.6943Z" fill="#FBC42D"/>
<path d="M20.5143 27.0197C20.6962 27.1107 20.8782 26.9288 20.7872 26.7468C20.3778 25.7006 20.0594 24.5179 19.8319 23.2442C19.7865 23.1078 19.65 23.0623 19.559 23.1078C18.7402 23.4262 17.9669 23.8356 17.2391 24.3359C17.1481 24.4269 17.1027 24.5634 17.1936 24.6544C17.2846 24.7453 17.3756 24.8363 17.4666 24.9273C18.3308 25.7461 19.3771 26.4739 20.5143 27.0197Z" fill="#FBC42D"/>
</svg>
