<?xml version="1.0" encoding="UTF-8"?>
<svg width="25px" height="24px" viewBox="0 0 25 24" version="1.1" xmlns="http://www.w3.org/2000/svg" xmlns:xlink="http://www.w3.org/1999/xlink">
    <!-- Generator: Sketch 61.2 (89653) - https://sketch.com -->
    <title>Group 16</title>
    <desc>Created with Sketch.</desc>
    <defs>
        <polygon id="path-1" points="0.4995 0.0002 24.4995 0.0002 24.4995 24 0.4995 24"></polygon>
        <polygon id="path-3" points="0.2835 0.0002 8.7165 0.0002 8.7165 24 0.2835 24"></polygon>
        <polygon id="path-5" points="0.1215 0.0002 16.8785 0.0002 16.8785 24 0.1215 24"></polygon>
    </defs>
    <g id="Page-1" stroke="none" stroke-width="1" fill="none" fill-rule="evenodd">
        <g id="paymentgateway_main-copy" transform="translate(-719.000000, -1431.000000)">
            <g id="Group-16" transform="translate(719.000000, 1431.000000)">
                <g id="Group-3">
                    <mask id="mask-2" fill="white">
                        <use xlink:href="#path-1"></use>
                    </mask>
                    <g id="Clip-2"></g>
                    <path d="M12.4995,0.0002 C12.4275,0.0002 12.3545,0.0012 12.2835,0.0042 C8.8705,0.0632 5.8055,1.5472 3.6575,3.8872 C1.6965,6.0222 0.4995,8.8722 0.4995,12.0002 C0.4995,15.1282 1.6965,17.9782 3.6575,20.1132 C5.8175,22.4662 8.9045,23.9522 12.3395,23.9972 C12.3935,23.9992 12.4465,24.0002 12.4995,24.0002 C12.5535,24.0002 12.6065,23.9992 12.6595,23.9972 C16.0945,23.9522 19.1815,22.4662 21.3415,20.1132 C23.3035,17.9782 24.4995,15.1282 24.4995,12.0002 C24.4995,8.8722 23.3035,6.0222 21.3415,3.8872 C19.1935,1.5472 16.1285,0.0632 12.7165,0.0042 C12.6445,0.0012 12.5715,0.0002 12.4995,0.0002 M12.4995,1.0002 C12.5595,1.0002 12.6185,1.0012 12.6985,1.0042 C15.7385,1.0572 18.5475,2.3212 20.6045,4.5632 C22.4725,6.5962 23.4995,9.2372 23.4995,12.0002 C23.4995,14.7632 22.4725,17.4042 20.6045,19.4372 C18.5335,21.6922 15.7065,22.9572 12.6305,22.9982 L12.4995,23.0002 L12.3535,22.9982 C9.2925,22.9572 6.4665,21.6922 4.3955,19.4372 C2.5275,17.4042 1.4995,14.7632 1.4995,12.0002 C1.4995,9.2372 2.5275,6.5962 4.3955,4.5622 C6.4525,2.3212 9.2605,1.0572 12.3205,1.0032 C12.3805,1.0012 12.4395,1.0002 12.4995,1.0002" id="Fill-1" fill="#674B9E" mask="url(#mask-2)"></path>
                </g>
                <path d="M12.4995,16.2267 C11.1505,16.2267 9.8535,16.4497 8.6445,16.8607 C7.4945,17.2497 6.4235,17.8087 5.4595,18.5077 C4.8065,18.9817 4.2025,19.5207 3.6575,20.1137 C5.8205,22.4677 8.9115,23.9557 12.3505,23.9977 C12.3995,23.9987 12.4495,23.9997 12.4995,23.9997 C12.5495,23.9997 12.6005,23.9987 12.6495,23.9977 C16.0885,23.9557 19.1795,22.4677 21.3415,20.1137 C20.7975,19.5207 20.1935,18.9827 19.5405,18.5077 C18.5765,17.8097 17.5055,17.2497 16.3565,16.8607 C15.1455,16.4497 13.8495,16.2267 12.4995,16.2267 M12.4995,17.2267 C13.7105,17.2267 14.8995,17.4217 16.0355,17.8067 C17.0755,18.1607 18.0585,18.6677 18.9525,19.3177 C19.2925,19.5637 19.6185,19.8307 19.9285,20.1147 C17.9355,21.9477 15.3785,22.9637 12.6235,22.9977 L12.4995,22.9997 L12.3625,22.9977 C9.6195,22.9637 7.0635,21.9477 5.0705,20.1147 C5.3815,19.8297 5.7075,19.5637 6.0475,19.3177 C6.9405,18.6677 7.9225,18.1607 8.9645,17.8067 C10.1005,17.4217 11.2895,17.2267 12.4995,17.2267" id="Fill-4" fill="#674B9E"></path>
                <path d="M12.4995,0.0002 C12.4275,0.0002 12.3545,0.0012 12.2835,0.0042 C8.8705,0.0632 5.8055,1.5472 3.6575,3.8872 C4.2025,4.4802 4.8075,5.0182 5.4595,5.4922 C6.4235,6.1912 7.4945,6.7502 8.6445,7.1402 C9.8535,7.5502 11.1505,7.7732 12.4995,7.7732 C13.8495,7.7732 15.1455,7.5502 16.3565,7.1402 C17.5055,6.7502 18.5765,6.1902 19.5405,5.4922 C20.1925,5.0182 20.7965,4.4792 21.3415,3.8872 C19.1935,1.5472 16.1285,0.0632 12.7165,0.0042 C12.6445,0.0012 12.5715,0.0002 12.4995,0.0002 M12.4995,1.0002 C12.5595,1.0002 12.6185,1.0012 12.6985,1.0042 C15.4185,1.0522 17.9515,2.0672 19.9285,3.8862 C19.6185,4.1702 19.2925,4.4362 18.9535,4.6832 C18.0585,5.3322 17.0755,5.8402 16.0355,6.1922 C14.8995,6.5782 13.7105,6.7732 12.4995,6.7732 C11.2895,6.7732 10.1005,6.5782 8.9645,6.1922 C7.9225,5.8402 6.9405,5.3312 6.0475,4.6832 C5.7075,4.4362 5.3815,4.1702 5.0705,3.8862 C7.0485,2.0672 9.5835,1.0512 12.3205,1.0032 C12.3805,1.0012 12.4395,1.0002 12.4995,1.0002" id="Fill-6" fill="#674B9E"></path>
                <g id="Group-10" transform="translate(8.000000, 0.000000)">
                    <mask id="mask-4" fill="white">
                        <use xlink:href="#path-3"></use>
                    </mask>
                    <g id="Clip-9"></g>
                    <path d="M4.4995,0.0002 C2.1715,0.0002 0.2835,5.3722 0.2835,12.0002 C0.2835,18.6272 2.1715,24.0002 4.4995,24.0002 C6.8285,24.0002 8.7165,18.6272 8.7165,12.0002 C8.7165,5.3722 6.8285,0.0002 4.4995,0.0002 M4.4995,1.0002 C5.7805,1.0002 7.7165,5.3872 7.7165,12.0002 C7.7165,18.6122 5.7805,23.0002 4.4995,23.0002 C3.2195,23.0002 1.2835,18.6122 1.2835,12.0002 C1.2835,5.3872 3.2195,1.0002 4.4995,1.0002" id="Fill-8" fill="#674B9E" mask="url(#mask-4)"></path>
                </g>
                <g id="Group-13" transform="translate(4.000000, 0.000000)">
                    <mask id="mask-6" fill="white">
                        <use xlink:href="#path-5"></use>
                    </mask>
                    <g id="Clip-12"></g>
                    <path d="M8.4995,0.0002 C8.4275,0.0002 8.3545,0.0012 8.2835,0.0042 C5.4215,0.1072 2.9155,2.2682 1.4595,5.4922 C0.6125,7.3662 0.1215,9.6022 0.1215,12.0002 C0.1215,14.3982 0.6125,16.6332 1.4595,18.5082 C2.9255,21.7532 5.4535,23.9202 8.3395,23.9972 C8.3935,23.9992 8.4465,24.0002 8.4995,24.0002 C8.5535,24.0002 8.6065,23.9992 8.6595,23.9972 C11.5455,23.9202 14.0745,21.7532 15.5405,18.5082 C16.3875,16.6332 16.8785,14.3982 16.8785,12.0002 C16.8785,9.6022 16.3875,7.3662 15.5405,5.4922 C14.0845,2.2682 11.5785,0.1072 8.7165,0.0042 C8.6445,0.0012 8.5715,0.0002 8.4995,0.0002 M8.4995,1.0002 C8.5595,1.0002 8.6185,1.0012 8.6805,1.0032 C11.0585,1.0902 13.2815,2.9222 14.6295,5.9032 C15.4455,7.7132 15.8785,9.8212 15.8785,12.0002 C15.8785,14.1792 15.4455,16.2862 14.6295,18.0962 C13.2715,21.1022 11.0305,22.9342 8.6305,22.9982 L8.4995,23.0002 L8.3665,22.9982 C5.9695,22.9342 3.7285,21.1022 2.3705,18.0972 C1.5545,16.2862 1.1215,14.1792 1.1215,12.0002 C1.1215,9.8212 1.5545,7.7132 2.3705,5.9032 C3.7175,2.9222 5.9405,1.0902 8.3205,1.0032 C8.3805,1.0012 8.4395,1.0002 8.4995,1.0002" id="Fill-11" fill="#674B9E" mask="url(#mask-6)"></path>
                </g>
                <line x1="0.5004" y1="12.0002" x2="24.4994" y2="12.0002" id="Stroke-14" stroke="#674B9E" stroke-linecap="round" stroke-linejoin="round"></line>
            </g>
        </g>
    </g>
</svg>