<svg width="60" height="60" viewBox="0 0 60 60" fill="none" xmlns="http://www.w3.org/2000/svg">
<path d="M52.84 59.9445H7.10453C3.16374 59.9445 0 56.7808 0 52.84V7.10453C0 3.16374 3.16374 0 7.10453 0H52.8955C56.7808 0 60 3.16374 60 7.10453V52.8955C59.9445 56.7808 56.7808 59.9445 52.84 59.9445Z" fill="#E3F4FC"/>
<path d="M43.3489 14.9858H16.5959C14.5977 14.9858 12.9326 16.651 12.9326 18.6491V36.1884C12.9326 38.1866 14.5977 39.8517 16.5959 39.8517H25.199C25.31 39.8517 25.4211 39.9072 25.4766 39.9627L28.6403 44.2365C28.9178 44.6806 29.4174 44.9581 29.9724 44.9581C30.4719 44.9581 30.9715 44.7361 31.3045 44.292L34.5237 40.0182C34.5792 39.9627 34.6902 39.9072 34.8013 39.9072H43.3489C45.347 39.9072 47.0122 38.2421 47.0122 36.2439V18.6491C47.0122 16.651 45.347 14.9858 43.3489 14.9858ZM45.014 36.1884C45.014 36.3549 45.014 36.5215 44.9585 36.6325L34.6902 27.6963L45.014 19.1487V36.1884ZM43.3489 16.984C43.6264 16.984 43.9594 17.0395 44.1815 17.206L31.027 28.1403C30.4164 28.6399 29.5284 28.6399 28.9178 28.1403L15.7633 17.206C15.9853 17.0395 16.3184 16.984 16.5959 16.984H43.3489ZM15.0418 36.688C14.9863 36.5215 14.9863 36.4104 14.9863 36.2439V19.1487L25.31 27.6963L15.0418 36.688ZM32.9141 38.7971L29.9724 42.7379L27.0862 38.8526C26.6421 38.2421 25.9761 37.9091 25.199 37.9091H16.6514L26.8087 29.0284L27.6412 29.6944C28.3073 30.2495 29.1398 30.527 29.9724 30.527C30.805 30.527 31.6375 30.2495 32.3036 29.6944L33.1361 29.0284L43.2934 37.9091H34.7458C34.0242 37.8536 33.3581 38.2421 32.9141 38.7971Z" fill="#38A1D4"/>
</svg>
