<svg width="74" height="65" viewBox="0 0 74 65" fill="none" xmlns="http://www.w3.org/2000/svg">
<path d="M73.3 22H0V65H73.3V22Z" fill="#DECA4A"/>
<path d="M0 22L37.1 44L73.3 22H0Z" fill="#96851A"/>
<path d="M73.3 22L37.1 0L0 22H73.3Z" fill="#CCBA44"/>
<path d="M0 65L37.1 44L73.3 65H0Z" fill="#CCBA44"/>
</svg>
