<svg width="60" height="61" viewBox="0 0 60 61" fill="none" xmlns="http://www.w3.org/2000/svg">
<path d="M52.84 60.8496H7.10453C3.21924 60.8496 0 57.6859 0 53.7451V7.95415C0 4.06886 3.16374 0.849609 7.10453 0.849609H52.8955C56.7808 0.849609 60 4.01336 60 7.95415V53.7451C59.9445 57.6859 56.7808 60.8496 52.84 60.8496Z" fill="#F7EFFC"/>
<path d="M11.7109 41.8113C12.0995 40.0906 13.3761 39.0915 14.8192 38.259C15.3742 37.9815 15.9848 38.148 16.2623 38.6475C16.5398 39.1471 16.3733 39.7576 15.8737 40.0906C15.3742 40.4237 14.8747 40.7567 14.4306 41.1452C13.6536 41.8668 13.6536 42.5883 14.4306 43.3099C15.3187 44.1979 16.4843 44.6975 17.6499 45.1415C19.9811 45.9741 22.3677 46.4736 24.8099 46.6956C27.4186 46.9731 30.0273 47.0841 32.6915 46.9176C36.1883 46.6956 39.685 46.2516 42.9598 44.9195C43.7923 44.5865 44.5694 44.1424 45.291 43.5874C46.512 42.6993 46.4565 41.8113 45.291 40.8122C44.9579 40.5347 44.6249 40.3126 44.2919 40.1461C43.6258 39.7576 43.4593 39.1471 43.7923 38.592C44.1254 38.037 44.7914 37.926 45.402 38.3145C46.0125 38.703 46.6786 39.147 47.1781 39.6466C48.7322 41.2007 48.7322 43.1989 47.1781 44.753C46.29 45.641 45.2355 46.2516 44.0699 46.7511C41.6832 47.7502 39.1855 48.3052 36.6323 48.6383C35.1892 48.8048 33.7461 48.9158 32.303 49.0268C32.192 49.0268 32.081 49.0823 31.97 49.0823C30.6934 49.0823 29.4168 49.0823 28.1402 49.0823C28.0292 49.0823 27.9182 49.0268 27.8071 49.0268C25.92 48.8048 23.9774 48.6938 22.0902 48.4163C19.759 48.0832 17.4834 47.4727 15.3742 46.4181C13.7091 45.5855 12.2105 44.5865 11.7664 42.5883C11.7109 42.3663 11.7109 42.0888 11.7109 41.8113Z" fill="#AF67DB"/>
<path d="M33.8563 36.5384C34.9109 36.705 35.9654 36.8715 37.02 37.0935C38.1856 37.3155 39.3512 37.6485 40.3503 38.2591C40.7388 38.4811 41.0718 38.7586 41.4049 39.0361C42.2929 39.9242 42.2929 41.1453 41.4049 42.0889C40.6278 42.9214 39.5732 43.3099 38.5741 43.643C36.7425 44.198 34.8554 44.4755 32.9127 44.642C30.4705 44.8086 28.0839 44.8086 25.6417 44.531C23.6435 44.309 21.7009 43.976 19.9247 43.0879C19.4252 42.8659 18.9812 42.5329 18.5371 42.1444C17.6491 41.2563 17.6491 40.0352 18.5371 39.0916C19.2587 38.3701 20.1468 37.9816 21.0903 37.6485C22.5334 37.149 24.0321 36.8715 25.5862 36.705C25.7527 36.705 25.8637 36.6494 26.0857 36.6494C26.0302 36.4829 25.9192 36.3719 25.8637 36.2609C24.1431 33.3192 22.4779 30.3775 21.2568 27.2137C20.8128 26.1037 20.3688 24.9381 20.1468 23.717C19.7582 21.6078 20.2578 19.6097 21.3124 17.778C23.366 14.1703 27.4178 12.1721 31.4141 12.7827C35.6324 13.4487 38.9072 16.5014 39.7952 20.6643C40.1283 22.3294 39.9617 23.8835 39.4067 25.4931C38.5186 28.0463 37.2975 30.4885 36.021 32.8752C35.4104 34.0408 34.7444 35.1508 34.0783 36.3164C34.0228 36.3164 33.9673 36.4274 33.8563 36.5384ZM37.7971 22.3849C37.7416 21.9964 37.7416 21.5523 37.6306 21.1638C37.02 17.889 34.5778 15.4469 31.1921 14.8363C28.1949 14.2813 24.9201 15.7244 23.255 18.4441C22.2004 20.2202 21.7564 22.1074 22.3669 24.1055C22.7 25.1601 23.0885 26.1592 23.5325 27.1582C25.1976 30.877 27.1958 34.3738 29.3049 37.8705C29.6935 38.5366 30.1375 38.5366 30.526 37.8705C31.4141 36.3164 32.3577 34.7623 33.2457 33.2082C34.7444 30.544 36.132 27.8798 37.1865 25.0491C37.5196 24.161 37.7971 23.3285 37.7971 22.3849ZM39.9617 40.6458C39.4067 40.0907 38.8517 39.8687 38.2411 39.7022C36.576 39.0916 34.8554 38.8696 33.1347 38.7031C32.7462 38.6476 32.5242 38.7586 32.3577 39.0916C31.7471 40.2017 30.6926 40.6457 29.527 40.4792C28.6389 40.3127 27.9728 39.8132 27.5843 39.0361C27.4178 38.7586 27.2513 38.6476 26.9183 38.7031C25.8082 38.8696 24.6981 38.9806 23.588 39.2026C22.7 39.4247 21.8119 39.7577 20.9238 40.0352C20.5908 40.1462 20.3688 40.3682 20.0913 40.5347C20.0913 40.5902 20.0913 40.6458 20.0913 40.7013C20.5353 40.9233 20.9238 41.2008 21.4234 41.3673C23.255 42.0889 25.1976 42.3664 27.1958 42.5329C29.5825 42.6994 31.9691 42.6994 34.3003 42.4219C35.8544 42.2554 37.4086 41.9778 38.8517 41.3673C39.1292 41.1453 39.5177 40.8678 39.9617 40.6458Z" fill="#AF67DB"/>
<path d="M29.9719 17.8887C32.1921 17.8887 33.9682 19.6648 33.9682 21.885C33.9682 24.1051 32.1365 25.8813 29.9719 25.8813C27.7517 25.8813 25.9756 24.0496 25.9756 21.885C25.9756 19.6648 27.7517 17.8887 29.9719 17.8887ZM29.9719 20.0533C28.9173 20.0533 28.0847 20.8859 28.0847 21.885C28.0847 22.884 28.9173 23.7721 29.9164 23.7721C30.9155 23.7721 31.8035 22.9395 31.8035 21.9405C31.859 20.8859 31.0265 20.0533 29.9719 20.0533Z" fill="#AF67DB"/>
</svg>
