<svg width="58" height="60" viewBox="0 0 58 60" fill="none" xmlns="http://www.w3.org/2000/svg">
<path d="M32.0249 58.2897C18.6814 58.2897 7.84961 47.5643 7.84961 34.3519C7.84961 21.1395 18.6814 10.4141 32.0249 10.4141C45.3685 10.4141 56.2003 21.1395 56.2003 34.3519C56.2003 47.5643 45.3685 58.2897 32.0249 58.2897Z" fill="#F3BC00"/>
<path d="M32.0245 12.0463C44.5046 12.0463 54.63 22.0722 54.63 34.4297C54.63 46.7872 44.5046 56.7354 32.0245 56.7354C19.5443 56.7354 9.41895 46.7095 9.41895 34.352C9.41895 21.9945 19.6228 12.0463 32.0245 12.0463ZM32.0245 8.9375C17.8175 8.9375 6.2793 20.3624 6.2793 34.4297C6.2793 48.4971 17.8175 59.8442 32.0245 59.8442C46.2314 59.8442 57.7696 48.4194 57.7696 34.352C57.7696 20.2847 46.2314 8.9375 32.0245 8.9375Z" fill="#EC7A01"/>
<path d="M25.7456 49.3526C12.4021 49.3526 1.57031 38.6272 1.57031 25.4148C1.57031 12.2024 12.4021 1.55469 25.7456 1.55469C39.0892 1.55469 49.8425 12.2801 49.8425 25.4925C49.8425 38.7049 39.0107 49.3526 25.7456 49.3526Z" fill="white"/>
<path d="M25.7452 3.10881C38.1468 3.10881 48.2722 13.1347 48.2722 25.4922C48.2722 37.8497 38.1468 47.8756 25.6667 47.8756C13.1865 47.8756 3.13965 37.772 3.13965 25.4922C3.13965 13.2124 13.265 3.10881 25.7452 3.10881ZM25.7452 0C11.5382 0 0 11.4249 0 25.4922C0 39.5596 11.5382 50.9845 25.7452 50.9845C39.9521 50.9845 51.4118 39.4819 51.4118 25.4922C51.4118 11.5026 39.9521 0 25.7452 0Z" fill="#EC7A01"/>
<path d="M33.9859 13.2129H17.3457V13.8347V16.3217H22.9971C23.7035 16.3994 24.3314 16.5549 24.8809 16.8657C25.5088 17.2543 25.9797 17.7984 26.3722 18.4201C26.5292 18.6533 26.6077 18.8865 26.6862 19.1973H17.3457V22.2284H26.7647C26.6862 22.5393 26.6077 22.8502 26.4507 23.0834C26.1367 23.7828 25.5873 24.2492 24.9594 24.6378C24.3314 25.0264 23.625 25.1818 22.7616 25.1818H17.4242V28.2906H22.5261C22.6831 28.2906 22.9186 28.2906 23.0756 28.2906L28.3345 37.6948H32.416L26.5292 27.5134C26.6077 27.5134 26.6862 27.4357 26.6862 27.4357C27.8635 26.8139 28.8054 26.0367 29.5119 24.9486C30.0613 24.0937 30.3753 23.2388 30.4538 22.2284H33.9859V19.1973H30.2968C30.1398 18.5756 29.9828 17.9538 29.6688 17.4098C29.4334 17.0212 29.1979 16.6326 28.9624 16.3217H33.9859V13.2129Z" fill="#EC7A01"/>
</svg>
