<svg width="1440" height="680" viewBox="0 0 1440 680" fill="none" xmlns="http://www.w3.org/2000/svg">
<path d="M1440 0H0V680H1440V0Z" fill="#0018B0"/>
<path d="M1334.02 680H1210.2C1190.47 615.9 1143.97 543.5 1041.22 488.1C1017.67 475.4 991.275 463.6 961.5 453C910.875 435 869.925 411.7 837 385.3C656.4 240.4 715.35 0 715.35 0H1077.67C1049.47 80.1 1059.3 163.3 1161.07 226C1331.32 330.9 1347 537.3 1334.02 680Z" fill="url(#paint0_linear)"/>
<path d="M494.25 212C405.6 453.3 111.6 444.2 0 431.4V0H466.425C509.175 50.6 528.3 119.3 494.25 212Z" fill="url(#paint1_linear)"/>
<path d="M1158.98 488.1C1150.5 511 1139.55 531.3 1125.75 548C1085.7 596.2 1073.4 641.2 1075.05 680H593.55C593.55 680 603 479 833.25 451C883.65 444.9 923.7 420.3 954.75 385.3C1049.78 278.3 1061.03 73.8 1028.1 0H1148.63C1168.95 96.6 1212.3 344 1158.98 488.1Z" fill="url(#paint2_linear)"/>
<defs>
<linearGradient id="paint0_linear" x1="706.139" y1="340" x2="1337.57" y2="340" gradientUnits="userSpaceOnUse">
<stop stop-color="#0018B0"/>
<stop offset="1" stop-color="#001CD1"/>
</linearGradient>
<linearGradient id="paint1_linear" x1="388.626" y1="218.363" x2="-27.6988" y2="218.363" gradientUnits="userSpaceOnUse">
<stop stop-color="#0018B0"/>
<stop offset="1" stop-color="#001CD1"/>
</linearGradient>
<linearGradient id="paint2_linear" x1="889.082" y1="766.292" x2="889.082" y2="-69.0123" gradientUnits="userSpaceOnUse">
<stop stop-color="#0018B0"/>
<stop offset="1" stop-color="#001CD1"/>
</linearGradient>
</defs>
</svg>
