<svg width="56" height="55" viewBox="0 0 56 55" fill="none" xmlns="http://www.w3.org/2000/svg">
<path d="M43.2315 55H11.9084C5.32865 55 0 49.6849 0 43.1218V11.8319C0 5.31513 5.32865 0 11.9084 0H43.2779C49.8113 0 55.1863 5.31512 55.1863 11.8781V43.1681C55.1399 49.6849 49.8113 55 43.2315 55Z" fill="#FBC42D"/>
<path d="M27.5703 43.5841C18.6737 43.5841 11.4453 36.374 11.4453 27.5C11.4453 18.6261 18.6737 11.416 27.5703 11.416C36.4668 11.416 43.6952 18.6261 43.6952 27.5C43.6952 36.374 36.4668 43.5841 27.5703 43.5841ZM27.5703 14.6513C20.4345 14.6513 14.6888 20.4286 14.6888 27.5C14.6888 34.5715 20.4808 40.3488 27.5703 40.3488C34.6597 40.3488 40.4517 34.5715 40.4517 27.5C40.4517 20.4286 34.706 14.6513 27.5703 14.6513Z" fill="black"/>
<path d="M25.3461 34.249L20.0174 27.4549C19.4614 26.7616 19.6004 25.7448 20.2954 25.1902C20.9905 24.6355 22.0099 24.7742 22.5659 25.4675L25.5777 29.3036L33.4085 21.0305C34.0109 20.3834 35.0303 20.3372 35.679 20.9843C36.3277 21.5851 36.374 22.6019 35.7253 23.249L25.3461 34.249Z" fill="black"/>
</svg>
