<svg width="46" height="46" viewBox="0 0 46 46" fill="none" xmlns="http://www.w3.org/2000/svg">
<path d="M40.1314 45.6668H5.53537C2.49092 45.6668 0 43.1759 0 40.1314V5.53537C0 2.49092 2.49092 0 5.53537 0H40.1314C43.1759 0 45.6668 2.49092 45.6668 5.53537V40.1314C45.6668 43.1759 43.1759 45.6668 40.1314 45.6668Z" fill="#FBC42D"/>
<path d="M7.24316 8.30322V36.9488L12.225 31.9669L16.3765 36.4414L20.2513 32.0131L24.126 36.4875L27.7702 32.0592L31.4604 36.5336L34.7355 32.1514L38.3796 37.4101V8.30322H7.24316ZM37.3187 33.8582L34.7816 30.2141L31.4143 34.7346L27.7702 30.3063L24.126 34.7808L20.2513 30.3525L16.3765 34.8269L12.2711 30.3986L8.35024 34.3195V9.4103H37.3187V33.8582Z" fill="black"/>
<path d="M13.2853 24.4483C13.9311 24.8174 14.7152 25.0019 15.5917 25.0019C16.3297 25.0019 16.9294 24.8635 17.5291 24.5867C18.0826 24.31 18.5439 23.9871 18.9129 23.5258C19.2819 23.1106 19.5126 22.6032 19.6971 22.0958V20.02H15.3149V21.5423H17.9442C17.8058 22.0497 17.529 22.4187 17.16 22.6955C16.791 22.9722 16.3297 23.1106 15.8684 23.1106C15.0843 23.1106 14.4846 22.88 14.0694 22.4648C13.6543 22.0035 13.4237 21.4039 13.4237 20.5736C13.4237 19.8355 13.6082 19.2359 14.0233 18.7746C14.4385 18.3133 14.9459 18.1288 15.5917 18.1288C16.0068 18.1288 16.3758 18.221 16.6987 18.4056C17.0216 18.5901 17.2062 18.8207 17.3907 19.1436H19.6048C19.4203 18.221 19.0052 17.5291 18.3132 16.9756C17.6213 16.4682 16.6987 16.1914 15.6378 16.1914C14.7614 16.1914 14.0233 16.3759 13.3775 16.7449C12.7317 17.114 12.2243 17.6214 11.8553 18.3133C11.4863 19.0052 11.3018 19.7433 11.3018 20.6197C11.3018 21.4961 11.4863 22.2342 11.8553 22.9261C12.1321 23.5719 12.6395 24.0793 13.2853 24.4483Z" fill="black"/>
<path d="M21.8187 20.804C22.1877 20.9885 22.6029 21.173 23.1564 21.3575C23.5254 21.4959 23.8022 21.5882 24.0328 21.6804C24.2635 21.7727 24.4019 21.9111 24.5864 22.0494C24.7248 22.1878 24.817 22.3723 24.817 22.603C24.817 22.8336 24.7248 23.0643 24.5864 23.2026C24.448 23.341 24.2174 23.4333 23.9406 23.4333C23.6177 23.4333 23.3871 23.341 23.1564 23.1565C22.9719 22.972 22.8335 22.6952 22.7874 22.3723H20.5732C20.6194 23.2026 20.9884 23.8946 21.5881 24.3558C22.2338 24.8171 23.018 25.0478 23.9867 25.0478C24.6325 25.0478 25.1861 24.9555 25.6473 24.7249C26.1086 24.4942 26.4315 24.1713 26.6621 23.8023C26.8928 23.4333 27.0312 23.0181 27.0312 22.5569C27.0312 22.0033 26.8928 21.542 26.6621 21.173C26.4315 20.804 26.1086 20.5733 25.7396 20.3888C25.3706 20.2043 24.9554 20.0198 24.4019 19.8353C24.0328 19.6969 23.7099 19.6047 23.5254 19.5124C23.3409 19.4201 23.1564 19.3279 23.018 19.1434C22.8796 19.005 22.8335 18.8205 22.8335 18.636C22.8335 18.4053 22.9258 18.1747 23.0642 18.0824C23.2025 17.944 23.4332 17.8979 23.6638 17.8979C23.9406 17.8979 24.1712 17.9902 24.3557 18.1286C24.5403 18.3131 24.6325 18.5437 24.6786 18.8205H26.9389C26.8467 18.0363 26.5238 17.3905 25.9702 16.9292C25.4167 16.4679 24.6325 16.2373 23.6638 16.2373C23.0642 16.2373 22.5567 16.3296 22.0955 16.5141C21.6342 16.6986 21.2652 17.0215 21.0345 17.3905C20.7578 17.7595 20.6655 18.2208 20.6655 18.7282C20.6655 19.2818 20.8039 19.743 21.0345 20.0659C21.1729 20.3427 21.4958 20.6195 21.8187 20.804Z" fill="black"/>
<path d="M29.9824 24.9553H32.0582V17.9438H34.4107V16.2832H27.6299V17.9438H29.9824V24.9553Z" fill="black"/>
</svg>
