<svg width="80" height="81" viewBox="0 0 80 81" fill="none" xmlns="http://www.w3.org/2000/svg">
<path d="M40 80.0334C62.0914 80.0334 80 62.1173 80 40.0167C80 17.9161 62.0914 0 40 0C17.9086 0 0 17.9161 0 40.0167C0 62.1173 17.9086 80.0334 40 80.0334Z" fill="#FFEDEC"/>
<path d="M56.6117 55.6468H23.3882C19.9999 55.6468 17.2705 52.9163 17.2705 49.5266V30.5069C17.2705 27.1173 19.9999 24.3867 23.3882 24.3867H56.6117C59.9999 24.3867 62.7293 27.1173 62.7293 30.5069V49.5266C62.7293 52.9163 59.9999 55.6468 56.6117 55.6468ZM23.3882 26.5052C21.1764 26.5052 19.3882 28.2942 19.3882 30.5069V49.5266C19.3882 51.7393 21.1764 53.5283 23.3882 53.5283H56.6117C58.8234 53.5283 60.6117 51.7393 60.6117 49.5266V30.5069C60.6117 28.2942 58.8234 26.5052 56.6117 26.5052H23.3882Z" fill="#E18A8C"/>
<path d="M27.6235 37.9923C29.6248 37.9923 31.2471 36.3693 31.2471 34.3672C31.2471 32.3652 29.6248 30.7422 27.6235 30.7422C25.6223 30.7422 24 32.3652 24 34.3672C24 36.3693 25.6223 37.9923 27.6235 37.9923Z" fill="#E18A8C"/>
<path d="M55.6706 32.1548H36V34.3204H55.6706V32.1548Z" fill="#E18A8C"/>
<path d="M31.953 44.5835H22.4941V46.7491H31.953V44.5835Z" fill="#E18A8C"/>
<path d="M44.7059 44.5835H35.2471V46.7491H44.7059V44.5835Z" fill="#E18A8C"/>
<path d="M57.4588 44.5835H48V46.7491H57.4588V44.5835Z" fill="#E18A8C"/>
</svg>
