<svg width="21" height="21" viewBox="0 0 21 21" fill="none" xmlns="http://www.w3.org/2000/svg">
<path d="M17.9455 21H3.05455C1.36818 21 0 19.6318 0 17.9455V3.05455C0 1.36818 1.36818 0 3.05455 0H17.9773C19.6318 0 21 1.36818 21 3.05455V17.9773C21 19.6318 19.6318 21 17.9455 21Z" fill="#5D008F"/>
<path d="M8.36844 15.6863L4.99571 10.6272C4.61389 10.0545 4.77299 9.25905 5.34571 8.87723C5.91844 8.49541 6.71389 8.6545 7.09571 9.22723L8.75026 11.709L14.0321 6.42723C14.5412 5.91814 15.3366 5.91814 15.8457 6.42723C16.3548 6.93632 16.3548 7.73177 15.8457 8.24086L8.36844 15.6863Z" fill="white"/>
</svg>
