<svg width="98" height="102" viewBox="0 0 98 102" fill="none" xmlns="http://www.w3.org/2000/svg">
<path d="M97.3915 0.434814H43.0146V54.8116H97.3915V0.434814Z" fill="#F2FAFF"/>
<path d="M25.1594 101.073C39.0546 101.073 50.3188 89.8082 50.3188 75.9131C50.3188 62.0179 39.0546 50.7537 25.1594 50.7537C11.2643 50.7537 0 62.0179 0 75.9131C0 89.8082 11.2643 101.073 25.1594 101.073Z" fill="#F2D522"/>
<path d="M78.8865 78.2667H14.2024C12.4169 78.2667 10.9561 79.7276 10.9561 81.5131C10.9561 83.2986 12.4169 84.7595 14.2024 84.7595H78.8865C80.672 84.7595 82.1329 83.2986 82.1329 81.5131C82.1329 79.6464 80.672 78.2667 78.8865 78.2667Z" fill="#0071BC"/>
<path d="M18.261 69.8261C16.4755 69.8261 15.0146 71.287 15.0146 73.0725C15.0146 74.858 16.4755 76.3188 18.261 76.3188H74.8292C76.6147 76.3188 78.0755 74.858 78.0755 73.0725C78.0755 71.287 76.6147 69.8261 74.8292 69.8261H74.0176V40.6899H74.8292C75.7219 40.6899 76.4523 39.9594 76.4523 39.0667C76.4523 38.1739 75.7219 37.4435 74.8292 37.4435H18.261C17.3683 37.4435 16.6378 38.1739 16.6378 39.0667C16.6378 39.9594 17.3683 40.6899 18.261 40.6899H19.0726V69.8261H18.261ZM67.6059 40.6899V69.8261H57.8668V40.6899H67.6059ZM51.4552 40.6899V69.8261H41.7161V40.6899H51.4552ZM25.5654 40.6899H35.3045V69.8261H25.5654V40.6899Z" fill="#0071BC"/>
<path d="M14.2025 34.6029H78.8865C80.672 34.6029 82.1329 33.142 82.1329 31.3565C82.1329 29.8956 81.2401 28.7594 79.9416 28.2725L47.8836 13.8261C47.072 13.4203 46.0981 13.4203 45.2054 13.8261L12.8228 28.3536C11.443 29.0029 10.6314 30.4638 10.9561 32.0058C11.3619 33.5478 12.7416 34.6029 14.2025 34.6029Z" fill="#0071BC"/>
</svg>
