<svg width="108" height="104" viewBox="0 0 108 104" fill="none" xmlns="http://www.w3.org/2000/svg">
<path d="M107.131 0H52.7539V54.3768H107.131V0Z" fill="#F2FAFF"/>
<path d="M25.1594 103.073C39.0546 103.073 50.3188 91.8082 50.3188 77.9131C50.3188 64.0179 39.0546 52.7537 25.1594 52.7537C11.2643 52.7537 0 64.0179 0 77.9131C0 91.8082 11.2643 103.073 25.1594 103.073Z" fill="#F2D522"/>
<path d="M84.9735 23.5363H26.5387C22.4808 23.5363 19.2344 26.7826 19.2344 30.8406V60.4638H92.2779V30.8406C92.2779 26.7826 89.0315 23.5363 84.9735 23.5363ZM73.9358 56C72.3126 56 70.8518 55.3507 69.7967 54.2145C68.7416 53.1594 68.0924 51.6986 68.0924 50.1565C68.0924 46.9102 70.6894 44.3131 73.9358 44.3131C74.7474 44.3131 75.559 44.4754 76.2895 44.8C78.3184 45.6928 79.7793 47.7218 79.7793 50.1565C79.7793 53.3218 77.101 56 73.9358 56ZM36.1155 54.2145C34.817 54.2145 33.8431 53.1594 33.8431 51.9421V31.9768C33.8431 30.6783 34.8981 29.7044 36.1155 29.7044H73.9358C75.1532 29.7044 76.2083 30.7594 76.2083 31.9768V42.2841C75.4779 42.0406 74.6663 41.9594 73.8547 41.9594C69.3097 41.9594 65.6576 45.6116 65.6576 50.1565C65.6576 51.6174 66.0634 53.0783 66.7938 54.2145H36.1155Z" fill="#0071BC"/>
<path d="M19.2344 68.2551C19.2344 71.9885 22.2373 75.0725 26.0518 75.0725H43.988L41.0663 81.2406H33.5184C32.2199 81.2406 31.0836 82.2957 31.0836 83.6754C31.0836 85.0551 32.1387 86.1102 33.5184 86.1102H77.9938C79.2923 86.1102 80.4286 85.0551 80.4286 83.6754C80.4286 82.2957 79.3735 81.2406 77.9938 81.2406H70.446L67.5242 75.0725H85.4605C89.1938 75.0725 92.2779 72.0696 92.2779 68.2551V63.1421H19.2344V68.2551Z" fill="#0071BC"/>
<path d="M65.5764 42.6898H38.1445V43.5014H65.5764V42.6898Z" fill="#0071BC"/>
<path d="M43.9879 47.3971H38.7125C38.4691 47.3971 38.2256 47.5594 38.2256 47.8841V49.7507C38.2256 49.9942 38.3879 50.2377 38.7125 50.2377H43.9879C44.2314 50.2377 44.4749 50.0754 44.4749 49.7507V47.8841C44.4749 47.5594 44.2314 47.3971 43.9879 47.3971Z" fill="#0071BC"/>
<path d="M52.9156 47.3971H47.6403C47.3968 47.3971 47.1533 47.5594 47.1533 47.8841V49.7507C47.1533 49.9942 47.3156 50.2377 47.6403 50.2377H52.9156C53.1591 50.2377 53.4026 50.0754 53.4026 49.7507V47.8841C53.3214 47.5594 53.1591 47.3971 52.9156 47.3971Z" fill="#0071BC"/>
<path d="M61.7613 47.3971H56.486C56.2425 47.3971 55.999 47.5594 55.999 47.8841V49.7507C55.999 49.9942 56.1613 50.2377 56.486 50.2377H61.7613C62.0048 50.2377 62.2483 50.0754 62.2483 49.7507V47.8841C62.2483 47.5594 62.0048 47.3971 61.7613 47.3971Z" fill="#0071BC"/>
<path d="M40.2545 39.0377H45.0429C46.1791 39.0377 46.9907 38.145 46.9907 37.0899V35.7913C46.9907 34.6551 46.0979 33.8435 45.0429 33.8435H40.2545C39.1182 33.8435 38.3066 34.7363 38.3066 35.7913V37.0899C38.3066 38.145 39.1994 39.0377 40.2545 39.0377Z" fill="#0071BC"/>
<path d="M76.2898 48.0464L73.0435 51.2928L71.5826 49.4261C71.4203 49.2638 71.1768 49.1827 70.9333 49.345C70.771 49.5073 70.6898 49.7508 70.8521 49.9942L72.9623 52.5914L76.2087 49.345L76.8579 48.6957C77.0203 48.5334 77.0203 48.2087 76.8579 48.0464C76.6956 47.8841 76.4521 47.8841 76.2898 48.0464Z" fill="#0071BC"/>
</svg>
